TestCfg,EncodeMethod,CodecName,EncodePreset,Class,Name,OrigRes,FPS,BitDepth,CodedRes,QP,Bitrate(kbps),PSNR_Y,PSNR_U,PSNR_V,SSIM_Y(dB),MS-SSIM_Y(dB),VMAF_Y,VMAF_Y-NEG,PSNR-HVS,CIEDE2000,APSNR_Y,APSNR_U,APSNR_V,CAMBI,EncT[s],DecT[s],EncInstr,DecInstr,EncCycles,DecCycles,EncMD5,DecMD5
AS,aom,av2,0,A1,BoxingPractice,3840x2160,60.0000,10,3840x2160,110,20884.887420,42.383182,48.722892,48.654501,29.247407,20.324906,99.975184,99.924311,43.000743,43.255456,42.324192,48.692125,48.623718,0.981768,,,,,,,933e1d9f1a41dbe45ed8ccb445a9196e,
AS,aom,av2,0,A1,BoxingPractice,3840x2160,60.0000,10,3840x2160,135,7696.322139,41.552872,47.528703,47.320130,27.435913,19.561344,99.823475,97.780332,41.461117,42.383387,41.533618,47.513053,47.301995,1.091455,,,,,,,879348b0003058f33cfdaac8a1e61cc0,
AS,aom,av2,0,A1,BoxingPractice,3840x2160,60.0000,10,3840x2160,160,3104.647967,40.308218,45.955101,45.556795,25.128910,18.494511,95.681138,92.952226,39.185145,41.207790,40.292003,45.937997,45.540708,1.148982,,,,,,,7a59e9dd8daf61841d20156eed79beeb,
AS,aom,av2,0,A1,BoxingPractice,3840x2160,60.0000,10,3840x2160,185,1500.865903,38.328046,43.941382,43.322520,21.953056,16.797471,86.608358,83.695721,36.007263,39.550692,38.303739,43.922985,43.304572,1.158180,,,,,,,c695ea19915c853d5e4fe623ab5a71d3,
AS,aom,av2,0,A1,BoxingPractice,3840x2160,60.0000,10,3840x2160,210,718.919235,35.586678,41.545564,40.938645,18.264971,14.529966,71.590370,68.452867,32.298611,37.370814,35.555037,41.527150,40.923270,1.253956,,,,,,,a8f9879043bd17e3a62844236241e93f,
AS,aom,av2,0,A1,BoxingPractice,3840x2160,60.0000,10,3840x2160,235,335.988934,32.425578,38.861580,38.508416,14.550141,12.040440,51.453086,48.543324,28.544529,34.791686,32.390527,38.846413,38.495730,1.123720,,,,,,,9ad90afab080b94667ccf3ecd5a3c9c2,
AS,aom,av2,0,A1,BoxingPractice,3840x2160,60.0000,10,2560x1440,110,10442.565435,41.556734,47.092886,47.128282,28.271719,19.859214,99.950902,98.250715,42.082921,42.422684,41.539973,47.080807,47.112637,1.186342,,,,,,,11786f9c0f431865e2aaee88aeaf6088,
AS,aom,av2,0,A1,BoxingPractice,3840x2160,60.0000,10,2560x1440,135,4317.580266,40.676601,46.084986,45.894894,26.300272,19.005904,97.478204,94.786749,40.249859,41.580793,40.664005,46.073928,45.880188,1.149775,,,,,,,b279f30a2fe4ba8c27996acafeab7ad0,
AS,aom,av2,0,A1,BoxingPractice,3840x2160,60.0000,10,2560x1440,160,2021.632521,39.148490,44.571487,44.161322,23.511473,17.622322,91.038469,87.973180,37.467860,40.280318,39.129002,44.558017,44.146112,1.245240,,,,,,,633ff80f330d99d59439b26bc202de1e,
AS,aom,av2,0,A1,BoxingPractice,3840x2160,60.0000,10,2560x1440,185,986.558057,36.869432,42.651155,42.035622,20.059734,15.639701,79.157120,75.937690,34.042378,38.481981,36.841186,42.634247,42.018531,1.256160,,,,,,,86320e5dbd38058bc1a19ddc114e3c10,
AS,aom,av2,0,A1,BoxingPractice,3840x2160,60.0000,10,2560x1440,210,464.732806,33.934810,40.385341,39.843854,16.342324,13.236101,60.966625,57.918334,30.314939,36.220151,33.901319,40.369423,39.831633,1.316345,,,,,,,96889e98eb64aa2fd59c59d67a12e70b,
AS,aom,av2,0,A1,BoxingPractice,3840x2160,60.0000,10,2560x1440,235,211.723046,30.730288,37.946593,37.617960,12.756190,10.782557,39.917168,37.259479,26.702704,33.605246,30.697140,37.934097,37.605534,1.232466,,,,,,,ec9c93a6bfe2b932f3eb1f31ba7326bc,
AS,aom,av2,0,A1,BoxingPractice,3840x2160,60.0000,10,1920x1080,110,6958.546684,40.630061,45.945410,45.755551,27.519856,19.372897,98.056917,95.498426,41.069576,41.724879,40.620579,45.938219,45.744365,1.249046,,,,,,,ced8572e2e6fb4db4723d72935957dc8,
AS,aom,av2,0,A1,BoxingPractice,3840x2160,60.0000,10,1920x1080,135,3106.149235,39.692560,45.030406,44.645411,25.311134,18.412752,93.923097,91.066711,39.013019,40.868744,39.680080,45.021300,44.632063,1.310349,,,,,,,09330e0fb23b3665006eadd3e2cb896e,
AS,aom,av2,0,A1,BoxingPractice,3840x2160,60.0000,10,1920x1080,160,1495.428879,38.033164,43.591883,43.036516,22.209089,16.818918,85.699986,82.523680,36.000758,39.486883,38.012178,43.579324,43.022369,1.374583,,,,,,,02e4ab47f9e7f7545ace9061562b41fe,
AS,aom,av2,0,A1,BoxingPractice,3840x2160,60.0000,10,1920x1080,185,725.765312,35.667258,41.687708,41.099417,18.666267,14.714563,71.818040,68.587282,32.547602,37.582587,35.637754,41.671064,41.084040,1.350905,,,,,,,b34e01caa695bb8955100ad0c33c67a4,
AS,aom,av2,0,A1,BoxingPractice,3840x2160,60.0000,10,1920x1080,210,339.205410,32.687906,39.478103,39.067562,14.956544,12.273347,52.327341,49.415424,28.886371,35.283121,32.655439,39.461189,39.056555,1.426391,,,,,,,69186c54e5abe10718c87c5d206bfecf,
AS,aom,av2,0,A1,BoxingPractice,3840x2160,60.0000,10,1920x1080,235,149.492354,29.521319,37.087200,37.004239,11.542306,9.917134,30.976113,28.735052,25.433321,32.716031,29.489898,37.072855,36.990772,1.384957,,,,,,,7312238b352b62f52807a4cb2594d60e,
AS,aom,av2,0,A1,BoxingPractice,3840x2160,60.0000,10,1280x720,110,4074.548221,38.359309,44.516119,43.848301,25.992284,18.077599,90.321558,87.697774,37.533057,40.433516,38.353899,44.511206,43.838948,1.296662,,,,,,,6545d9fa7c606e3fccfb45e6c55460ed,
AS,aom,av2,0,A1,BoxingPractice,3840x2160,60.0000,10,1280x720,135,1989.098901,37.495287,43.659298,42.926017,23.512878,17.032066,84.349524,81.549799,35.800524,39.562187,37.484617,43.651675,42.914563,1.397378,,,,,,,e35fd0bcacdec97d5834860fcd2cb339,
AS,aom,av2,0,A1,BoxingPractice,3840x2160,60.0000,10,1280x720,160,971.858910,35.956042,42.276222,41.515842,20.188566,15.360456,73.517072,70.576778,33.233712,38.161725,35.936514,42.264388,41.502565,1.459102,,,,,,,ce1b1faa27b18ae1c59756cb42bd22e6,
AS,aom,av2,0,A1,BoxingPractice,3840x2160,60.0000,10,1280x720,185,466.990241,33.712568,40.481576,39.832349,16.641113,13.263219,57.486140,54.608866,30.176704,36.310717,33.683579,40.466924,39.820141,1.488857,,,,,,,0ae652ceac8031df3bccd521a2b18436,
AS,aom,av2,0,A1,BoxingPractice,3840x2160,60.0000,10,1280x720,210,212.069776,30.868405,38.366755,38.085144,13.010193,10.916849,37.872437,35.559013,26.883208,33.993448,30.835095,38.354198,38.069967,1.467365,,,,,,,922ad2fcfb7fa5631f91678a59a54407,
AS,aom,av2,0,A1,BoxingPractice,3840x2160,60.0000,10,1280x720,235,92.790901,27.857904,36.290102,36.217850,9.895968,8.754321,18.448738,16.810515,23.749639,31.435167,27.824170,36.276181,36.206894,1.474920,,,,,,,324bcc951047c73959be4232af8c2ebc,
AS,aom,av2,0,A1,BoxingPractice,3840x2160,60.0000,10,960x540,110,2955.413817,36.249919,43.457522,42.561171,24.944161,16.487975,79.168659,76.497674,33.787368,39.248508,36.245800,43.453057,42.552919,1.400628,,,,,,,901f4cb5eacd29e59ef18a3f8ec9ec38,
AS,aom,av2,0,A1,BoxingPractice,3840x2160,60.0000,10,960x540,135,1487.026205,35.566980,42.661031,41.780897,22.205263,15.569501,72.290478,69.575106,32.698726,38.431858,35.558916,42.654401,41.771027,1.463436,,,,,,,c83ced8f2a6724dd9c0627692605397b,
AS,aom,av2,0,A1,BoxingPractice,3840x2160,60.0000,10,960x540,160,722.084070,34.275053,41.380652,40.593557,18.771787,14.084025,60.601880,57.916110,30.876904,37.142710,34.258821,41.368916,40.580805,1.514694,,,,,,,5c1a96b15dbee4df825639e0ceb8442f,
AS,aom,av2,0,A1,BoxingPractice,3840x2160,60.0000,10,960x540,185,345.568278,32.281861,39.648960,39.010920,15.276388,12.174836,44.542429,42.070443,28.413211,35.336928,32.257029,39.635313,38.998305,1.573328,,,,,,,c912477f2efc61f6a48c6e604ef57d0c,
AS,aom,av2,0,A1,BoxingPractice,3840x2160,60.0000,10,960x540,210,157.430262,29.669557,37.611360,37.352533,11.886946,10.068741,27.049599,25.186222,25.568529,33.109012,29.637399,37.598579,37.337518,1.597946,,,,,,,b1e9f586826dcce1162fab8e55713951,
AS,aom,av2,0,A1,BoxingPractice,3840x2160,60.0000,10,960x540,235,69.773918,26.825052,35.806661,35.837924,8.890183,8.054693,10.475050,9.376052,22.736318,30.611128,26.792996,35.799560,35.824486,1.484495,,,,,,,666c4f51a900434ee687d7833ca7b13a,
AS,aom,av2,0,A1,BoxingPractice,3840x2160,60.0000,10,640x360,110,1762.296780,33.229246,42.011751,41.068940,21.590753,13.854051,53.161848,50.973571,29.239050,37.323374,33.226296,42.007501,41.061721,1.449121,,,,,,,00ecf18cf00e7284672edb5aab17ed17,
AS,aom,av2,0,A1,BoxingPractice,3840x2160,60.0000,10,640x360,135,905.227695,32.750527,41.286576,40.413527,19.248898,13.185254,46.315641,44.204387,28.683393,36.617223,32.745114,41.280596,40.404946,1.517308,,,,,,,346b77bdf69e3be512cefe83b161d255,
AS,aom,av2,0,A1,BoxingPractice,3840x2160,60.0000,10,640x360,160,441.892876,31.765571,40.135137,39.321932,16.234627,12.055662,35.511213,33.626843,27.603101,35.454390,31.753399,40.126335,39.311296,1.570716,,,,,,,bd7e90673496cd603a47a20bf7f2d7eb,
AS,aom,av2,0,A1,BoxingPractice,3840x2160,60.0000,10,640x360,185,212.486590,30.146291,38.482742,37.992165,13.107167,10.536668,22.633179,21.181022,25.923125,33.799737,30.125095,38.469905,37.981342,1.636870,,,,,,,00affb05256832da8d080608a73ad733,
AS,aom,av2,0,A1,BoxingPractice,3840x2160,60.0000,10,640x360,210,95.948359,27.861374,36.737374,36.467609,10.095705,8.774423,9.780492,8.874959,23.688992,31.683554,27.832365,36.725957,36.457929,1.611197,,,,,,,e1288bdab2dd851b57984576f53841d1,
AS,aom,av2,0,A1,BoxingPractice,3840x2160,60.0000,10,640x360,235,43.566280,25.299349,34.979555,34.862682,7.579781,7.112436,0.137182,0.085583,21.272882,29.259624,25.268343,34.972872,34.860230,1.611380,,,,,,,6a793ed633002291b1d6a48242637462,
AS,aom,av2,0,A1,Crosswalk,3840x2160,60.0000,10,3840x2160,110,19391.885653,42.779776,48.760970,52.236512,28.381808,20.045297,95.483982,93.586493,43.118481,43.676305,42.730062,48.741185,52.222851,0.322600,,,,,,,aea8e02406628c1eadfd30fe2082892d,
AS,aom,av2,0,A1,Crosswalk,3840x2160,60.0000,10,3840x2160,135,6311.297318,42.086654,48.049377,51.245146,25.755315,19.142318,90.683360,88.516078,41.504604,42.991548,42.074086,48.042095,51.234429,0.327597,,,,,,,b1d3aba5a9598e5bcf10f83489acf780,
AS,aom,av2,0,A1,Crosswalk,3840x2160,60.0000,10,3840x2160,160,2493.440098,41.035124,46.976245,49.770163,22.587340,17.898681,82.240787,79.926726,39.368066,41.980971,41.012234,46.966544,49.749106,0.335334,,,,,,,001a7ad6d63db486963f2fb8ce677ad1,
AS,aom,av2,0,A1,Crosswalk,3840x2160,60.0000,10,3840x2160,185,1172.401752,39.424343,45.431599,47.759727,19.113049,16.241335,69.025956,66.762290,36.785301,40.506907,39.380729,45.415554,47.729601,0.346892,,,,,,,4306869d9320700ab1936e3724786f38,
AS,aom,av2,0,A1,Crosswalk,3840x2160,60.0000,10,3840x2160,210,556.369169,37.120097,43.365716,45.198151,15.534160,14.184396,51.290086,49.121400,33.803463,38.439425,37.052349,43.344310,45.159838,0.364099,,,,,,,c91c52ead7470bf13dbccf66fa73cc73,
AS,aom,av2,0,A1,Crosswalk,3840x2160,60.0000,10,3840x2160,235,261.275955,34.222610,40.694555,41.909932,12.101177,11.897141,29.825379,28.365660,30.565763,35.651911,34.139097,40.664882,41.848883,0.358678,,,,,,,2a6882d79cd3c7511ab259d3475c6a3b,
AS,aom,av2,0,A1,Crosswalk,3840x2160,60.0000,10,2560x1440,110,9254.520249,42.389701,48.376544,51.751854,27.000979,19.555208,93.204845,91.099363,42.250199,43.299762,42.376733,48.366314,51.741468,0.333881,,,,,,,b26dcb2c52a4946153e3e3056d2fb4c3,
AS,aom,av2,0,A1,Crosswalk,3840x2160,60.0000,10,2560x1440,135,3466.165834,41.566958,47.578796,50.632367,24.156927,18.520699,87.004370,84.575083,40.404177,42.522916,41.551818,47.570836,50.617280,0.341538,,,,,,,c6e10cc92c5c7d7b6af82a33001f7014,
AS,aom,av2,0,A1,Crosswalk,3840x2160,60.0000,10,2560x1440,160,1573.409975,40.244513,46.341862,48.948721,20.795787,17.074060,76.369567,73.798556,38.039842,41.318871,40.210820,46.328269,48.922004,0.370521,,,,,,,08053beae70047bbd6cfc8b4b1923824,
AS,aom,av2,0,A1,Crosswalk,3840x2160,60.0000,10,2560x1440,185,740.169369,38.327235,44.637668,46.715456,17.298038,15.241928,60.794290,58.406568,35.310946,39.620786,38.271560,44.619306,46.673188,0.378771,,,,,,,108bff4f34d185254028daf06b924fc5,
AS,aom,av2,0,A1,Crosswalk,3840x2160,60.0000,10,2560x1440,210,346.438792,35.771138,42.474930,44.101828,13.878038,13.117351,41.756214,39.643257,32.275804,37.342002,35.693939,42.453574,44.057318,0.393080,,,,,,,3542dd500b6179dba01fde3678de17c4,
AS,aom,av2,0,A1,Crosswalk,3840x2160,60.0000,10,2560x1440,235,161.369707,32.773583,39.887961,40.936285,10.732248,10.909467,21.218133,19.947873,29.097509,34.550844,32.683736,39.860751,40.867558,0.453110,,,,,,,5d016001a808ad96a815af625bd4da10,
AS,aom,av2,0,A1,Crosswalk,3840x2160,60.0000,10,1920x1080,110,5879.319450,42.074301,48.051626,51.340440,25.911474,19.153739,90.933113,88.648365,41.520726,42.999121,42.063991,48.044362,51.329211,0.363884,,,,,,,8f07c67b9f1928f83b0ac1e75402b3de,
AS,aom,av2,0,A1,Crosswalk,3840x2160,60.0000,10,1920x1080,135,2492.185968,41.102655,47.166379,50.085943,22.898828,17.999420,83.435433,80.851003,39.516321,42.113903,41.081701,47.157608,50.067770,0.389324,,,,,,,f050f0db6090daeaa8beb03df46a214e,
AS,aom,av2,0,A1,Crosswalk,3840x2160,60.0000,10,1920x1080,160,1143.051410,39.569237,45.823471,48.260528,19.473496,16.414380,71.242651,68.555571,37.018339,40.767095,39.528433,45.809238,48.231302,0.435917,,,,,,,37a908eb3a4e1c32f5a5b4e15945f7e9,
AS,aom,av2,0,A1,Crosswalk,3840x2160,60.0000,10,1920x1080,185,537.557212,37.431406,44.031600,45.971325,16.034807,14.483298,53.758715,51.377828,34.202086,38.914595,37.367269,44.008901,45.925969,0.464068,,,,,,,069fae7f4ff102ec72e2af56385d9cbf,
AS,aom,av2,0,A1,Crosswalk,3840x2160,60.0000,10,1920x1080,210,248.930147,34.717956,41.711720,43.292474,12.713028,12.327886,34.436774,32.474422,31.138978,36.483814,34.635723,41.686842,43.248825,0.514530,,,,,,,b6e4fb7264c14de00caf7280d8d79a03,
AS,aom,av2,0,A1,Crosswalk,3840x2160,60.0000,10,1920x1080,235,114.000461,31.695893,39.189758,40.328212,9.779053,10.210616,15.569675,14.627005,28.037089,33.682759,31.608739,39.164878,40.265312,0.601272,,,,,,,68b930624bfb99918dfa01f3be3d3409,
AS,aom,av2,0,A1,Crosswalk,3840x2160,60.0000,10,1280x720,110,3349.697687,41.470689,47.470337,50.605615,24.198314,18.454210,85.809964,83.367359,40.257541,42.466384,41.457205,47.461721,50.590435,0.392190,,,,,,,c6330095de6a386deabf114af9c01b99,
AS,aom,av2,0,A1,Crosswalk,3840x2160,60.0000,10,1280x720,135,1574.686237,40.268124,46.458889,49.160605,21.032761,17.130703,76.204726,73.542519,38.092076,41.412717,40.237641,46.446631,49.137193,0.427948,,,,,,,2b5db5f2f7599335db73609e38c81282,
AS,aom,av2,0,A1,Crosswalk,3840x2160,60.0000,10,1280x720,160,732.168754,38.448122,44.941051,47.116468,17.586628,15.379875,61.977175,59.321242,35.477867,39.827251,38.394559,44.924286,47.077208,0.493252,,,,,,,0c1cf41dfed9b8aab92a40db4e16bc29,
AS,aom,av2,0,A1,Crosswalk,3840x2160,60.0000,10,1280x720,185,342.145239,36.032283,43.058095,44.739359,14.245288,13.352604,42.804319,40.671085,32.587004,37.742515,35.957832,43.033065,44.688775,0.550068,,,,,,,29955e6d224fec66e2ee3cbceb17379c,
AS,aom,av2,0,A1,Crosswalk,3840x2160,60.0000,10,1280x720,210,157.168370,33.152719,40.705700,42.000258,11.166473,11.233133,24.273882,22.763912,29.522787,35.196385,33.066291,40.680375,41.925056,0.659472,,,,,,,7cc60fdd8a1d2bce13412ddf3e17c88c,
AS,aom,av2,0,A1,Crosswalk,3840x2160,60.0000,10,1280x720,235,71.998156,30.076798,38.152007,38.933043,8.527584,9.243821,7.165879,6.616522,26.448785,32.305702,29.987733,38.132127,38.878768,0.827687,,,,,,,9dc34c84b3b1f87bb904d0d013da1a2f,
AS,aom,av2,0,A1,Crosswalk,3840x2160,60.0000,10,960x540,110,2473.547376,40.871133,47.000018,50.016445,22.937139,17.820389,79.712302,77.244875,39.100693,42.013091,40.851977,46.989000,49.996449,0.435824,,,,,,,7940bc0821003b2cfeef1e5088bfa125,
AS,aom,av2,0,A1,Crosswalk,3840x2160,60.0000,10,960x540,135,1195.831860,39.568324,45.917917,48.490953,19.753185,16.444350,69.174384,66.524140,36.998839,40.862439,39.531001,45.903844,48.464333,0.480020,,,,,,,dde22d62f07497d4a8048a83b8fcf17d,
AS,aom,av2,0,A1,Crosswalk,3840x2160,60.0000,10,960x540,160,557.283947,37.572612,44.277879,46.316915,16.314485,14.617347,53.588345,51.071548,34.364039,39.120494,37.512013,44.257349,46.269515,0.554167,,,,,,,9ad665c35b74d7cf59d575c8ffab5774,
AS,aom,av2,0,A1,Crosswalk,3840x2160,60.0000,10,960x540,185,263.057558,35.080453,42.387305,43.879096,13.141589,12.613787,35.056185,33.178167,31.537098,36.952319,35.003716,42.365105,43.817556,0.663898,,,,,,,8425feaa70481e462f448dc1ef4a6dc9,
AS,aom,av2,0,A1,Crosswalk,3840x2160,60.0000,10,960x540,210,120.189964,32.147950,40.086968,41.199278,10.193262,10.518693,16.832534,15.740031,28.509952,34.345175,32.061428,40.057060,41.119974,0.808057,,,,,,,144e72c7c82037fd740b28b2746158d2,
AS,aom,av2,0,A1,Crosswalk,3840x2160,60.0000,10,960x540,235,54.602628,29.088937,37.676755,38.407351,7.825721,8.686297,3.621515,3.351531,25.496066,31.526511,29.009615,37.657320,38.341385,1.019426,,,,,,,39c94a36939c9a59ab8997f09a7ede95,
AS,aom,av2,0,A1,Crosswalk,3840x2160,60.0000,10,640x360,110,1524.845616,39.582862,46.160897,48.920509,20.764388,16.601318,64.339955,62.043717,36.877271,41.125728,39.548645,46.144586,48.894759,0.460958,,,,,,,1f650c0807ccb456cd9e2d8ff43904f2,
AS,aom,av2,0,A1,Crosswalk,3840x2160,60.0000,10,640x360,135,751.456543,38.177520,44.938944,47.273484,17.680202,15.216827,52.820006,50.481692,35.023073,39.819832,38.127460,44.919256,47.236333,0.533932,,,,,,,ba30b781c685cd6c8c7186e756a36807,
AS,aom,av2,0,A1,Crosswalk,3840x2160,60.0000,10,640x360,160,353.126258,36.049066,43.257753,45.046771,14.447249,13.398587,37.049244,35.013840,32.559793,37.916260,35.976709,43.233157,44.999077,0.640828,,,,,,,76a28a579df3148530596454a23f3ac7,
AS,aom,av2,0,A1,Crosswalk,3840x2160,60.0000,10,640x360,185,166.618612,33.459874,41.223181,42.648078,11.498713,11.452725,20.780977,19.531921,29.837126,35.562362,33.373963,41.196672,42.569050,0.795546,,,,,,,d0ed98cc466b238e405ec5a04027e9c5,
AS,aom,av2,0,A1,Crosswalk,3840x2160,60.0000,10,640x360,210,75.609314,30.510262,38.825157,39.833374,8.876344,9.515826,6.332548,5.819073,26.894471,32.865682,30.430237,38.793111,39.754555,0.974472,,,,,,,98ae169418626bf293bb3ff06e36479c,
AS,aom,av2,0,A1,Crosswalk,3840x2160,60.0000,10,640x360,235,35.274264,27.586774,36.571213,36.791745,6.899864,7.930148,0.551129,0.533502,24.033847,30.022824,27.509436,36.547591,36.723977,1.160787,,,,,,,e511db406274fd33393817ef49a36408,
AS,aom,av2,0,A1,FoodMarket2,3840x2160,60.0000,10,3840x2160,110,27275.958503,43.140846,48.974211,49.169880,32.230704,22.841350,99.971765,99.963501,44.646330,44.121770,43.039831,48.884050,49.073035,0.009662,,,,,,,ce5279f617503097a594a3e4f979a2a7,
AS,aom,av2,0,A1,FoodMarket2,3840x2160,60.0000,10,3840x2160,135,11779.944363,41.696913,47.082081,47.261190,29.025482,21.016595,99.959445,99.947545,41.514512,42.584370,41.627472,47.003462,47.166909,0.010209,,,,,,,79193d1f34856101b72d427f17c9c6f3,
AS,aom,av2,0,A1,FoodMarket2,3840x2160,60.0000,10,3840x2160,160,5364.118958,39.392244,44.728301,44.874564,24.813373,18.356724,98.820661,96.527547,37.470274,40.382348,39.315289,44.650195,44.772982,0.013429,,,,,,,5af58937f31fdf99b2613605879ecc30,
AS,aom,av2,0,A1,FoodMarket2,3840x2160,60.0000,10,3840x2160,185,2486.055483,36.459523,42.080329,42.203104,20.276764,15.252131,84.656761,82.130801,33.289682,37.706993,36.371452,42.003220,42.098394,0.013593,,,,,,,eab9bb7ab51bb3a7c8c1f4108c1164b7,
AS,aom,av2,0,A1,FoodMarket2,3840x2160,60.0000,10,3840x2160,210,1119.027434,33.213146,39.518133,39.518497,15.781401,12.073315,62.628036,60.730303,29.305082,34.832796,33.121548,39.449603,39.412832,0.021027,,,,,,,215cd09400f50c745132cc763ef4c8d7,
AS,aom,av2,0,A1,FoodMarket2,3840x2160,60.0000,10,3840x2160,235,478.539307,29.936236,36.899097,36.828351,11.658322,9.129456,39.147574,38.097532,25.685996,31.833737,29.842808,36.817661,36.715615,0.056097,,,,,,,edd7045f3f19480b774c32ea5f1ead3e,
AS,aom,av2,0,A1,FoodMarket2,3840x2160,60.0000,10,2560x1440,110,16007.301007,42.250420,47.639895,47.732552,30.495630,21.831436,99.963336,99.952683,42.868484,43.144006,42.177088,47.545305,47.619849,0.009454,,,,,,,eb85e0d4990a7022fc033c689a631670,
AS,aom,av2,0,A1,FoodMarket2,3840x2160,60.0000,10,2560x1440,135,7486.539307,40.473186,45.657548,45.797197,26.827293,19.636353,99.945171,99.678609,39.328107,41.379950,40.400890,45.569825,45.684441,0.012466,,,,,,,f65caafbd3466054913e62e77a08dabd,
AS,aom,av2,0,A1,FoodMarket2,3840x2160,60.0000,10,2560x1440,160,3445.723507,37.820272,43.283499,43.372628,22.399785,16.697323,92.594200,89.788554,35.161763,38.963170,37.734922,43.197478,43.257131,0.014870,,,,,,,f6a7cca51e71cade25524af95da502eb,
AS,aom,av2,0,A1,FoodMarket2,3840x2160,60.0000,10,2560x1440,185,1571.395989,34.738577,40.748268,40.855100,17.878148,13.554058,74.159289,71.656818,31.125070,36.228011,34.643649,40.664359,40.736488,0.019229,,,,,,,5f7be1f3c6c2f36b78928cec8814d860,
AS,aom,av2,0,A1,FoodMarket2,3840x2160,60.0000,10,2560x1440,210,681.453931,31.480337,38.289495,38.312375,13.590577,10.500909,50.854831,49.185895,27.359086,33.355863,31.381413,38.217131,38.190075,0.044766,,,,,,,5d0c0a407c812a91999e657bc1117d52,
AS,aom,av2,0,A1,FoodMarket2,3840x2160,60.0000,10,2560x1440,235,280.121110,28.318178,35.865597,35.653508,9.711089,7.784146,29.678629,28.894103,24.023679,30.449410,28.222012,35.788730,35.535454,0.108639,,,,,,,61ef989341c9bd38c11b8bab3bd75105,
AS,aom,av2,0,A1,FoodMarket2,3840x2160,60.0000,10,1920x1080,110,11536.193038,41.180711,46.303238,46.385190,28.954566,20.763441,99.953153,99.939183,41.160663,42.113659,41.099326,46.198999,46.244060,0.011459,,,,,,,4395f643891ac0fcea37e3bf640c5fa1,
AS,aom,av2,0,A1,FoodMarket2,3840x2160,60.0000,10,1920x1080,135,5506.086529,39.279316,44.378101,44.527528,25.108299,18.419924,99.030958,96.503640,37.553933,40.272657,39.198885,44.283746,44.396044,0.015563,,,,,,,eb8a0f669370f612136073b3e139df85,
AS,aom,av2,0,A1,FoodMarket2,3840x2160,60.0000,10,1920x1080,160,2517.832936,36.541420,42.120511,42.219661,20.591283,15.407428,85.951102,83.073650,33.470775,37.829657,36.451958,42.029202,42.095196,0.021215,,,,,,,5de591b93654949d816081fc7f01420a,
AS,aom,av2,0,A1,FoodMarket2,3840x2160,60.0000,10,1920x1080,185,1124.302159,33.453574,39.736087,39.799681,16.194896,12.340131,65.277949,62.927294,29.600242,35.116352,33.353647,39.649022,39.671843,0.036575,,,,,,,2868212000bce02d6d9af85b30595710,
AS,aom,av2,0,A1,FoodMarket2,3840x2160,60.0000,10,1920x1080,210,478.115116,30.263844,37.484758,37.382240,12.077503,9.428181,42.582723,41.165873,26.049543,32.316407,30.162040,37.398453,37.253134,0.090254,,,,,,,2e76984141d169859f2da1fe62ddcba5,
AS,aom,av2,0,A1,FoodMarket2,3840x2160,60.0000,10,1920x1080,235,187.499885,27.198614,35.192786,34.905070,8.416431,6.902682,23.638468,23.110937,22.917434,29.491125,27.101504,35.111060,34.786310,0.177259,,,,,,,9eb3f520ee58bee8ce798e0e327d72f0,
AS,aom,av2,0,A1,FoodMarket2,3840x2160,60.0000,10,1280x720,110,7217.222162,38.580647,44.042730,44.292447,26.352954,18.433600,98.032248,95.518686,37.138660,40.045729,38.414746,43.916098,44.106146,0.010941,,,,,,,612ce0111b2726b34b14866732e318db,
AS,aom,av2,0,A1,FoodMarket2,3840x2160,60.0000,10,1280x720,135,3480.370706,36.928637,42.414096,42.643111,22.483667,16.269541,88.851347,86.122491,34.321204,38.342031,36.801513,42.307777,42.486940,0.016062,,,,,,,8dae9fb430b8e3c680b9c18b6d630ee1,
AS,aom,av2,0,A1,FoodMarket2,3840x2160,60.0000,10,1280x720,160,1585.781603,34.466485,40.416449,40.574331,18.085499,13.472931,72.302326,69.784165,30.899562,36.058808,34.359998,40.314655,40.431497,0.025647,,,,,,,83c176f5da592745785b219390c172c3,
AS,aom,av2,0,A1,FoodMarket2,3840x2160,60.0000,10,1280x720,185,691.848459,31.582636,38.352597,38.428564,13.909493,10.647361,50.680071,48.914695,27.488052,33.513554,31.476219,38.259203,38.288044,0.071023,,,,,,,79286782253d61aa381e08adee34e6b7,
AS,aom,av2,0,A1,FoodMarket2,3840x2160,60.0000,10,1280x720,210,281.943287,28.561209,36.317680,36.208959,10.064423,8.004499,30.586958,29.713407,24.282974,30.845052,28.456848,36.230052,36.068721,0.156907,,,,,,,88e98a827eb8dc51c892dac36ad7bc04,
AS,aom,av2,0,A1,FoodMarket2,3840x2160,60.0000,10,1280x720,235,106.962576,25.697195,34.268601,33.860722,6.725355,5.787306,16.717921,16.512319,21.478604,28.178033,25.602260,34.171712,33.749979,0.252468,,,,,,,3f77083030e1b7499833ccf0ff264649,
AS,aom,av2,0,A1,FoodMarket2,3840x2160,60.0000,10,960x540,110,5293.323292,36.105096,42.454727,42.802184,24.595549,15.988757,86.867653,84.414753,33.200031,38.197333,35.863119,42.309851,42.592352,0.011565,,,,,,,1707cd6abd3bc0a8135b54a45beae34c,
AS,aom,av2,0,A1,FoodMarket2,3840x2160,60.0000,10,960x540,135,2569.691232,34.860389,41.103670,41.351025,20.722014,14.328383,76.356105,73.926344,31.421023,36.754867,34.682456,40.985671,41.181395,0.018779,,,,,,,deb0e4e02e1b1738331440c8144a94a1,
AS,aom,av2,0,A1,FoodMarket2,3840x2160,60.0000,10,960x540,160,1163.283486,32.839560,39.339704,39.487995,16.417989,12.011100,59.237528,57.130945,28.890432,34.754287,32.710158,39.229751,39.337811,0.039506,,,,,,,c6717ac678f5f080b94c0a2b26a6a1dc,
AS,aom,av2,0,A1,FoodMarket2,3840x2160,60.0000,10,960x540,185,506.779374,30.301467,37.489862,37.505525,12.461797,9.531362,39.642075,38.303820,26.061304,32.423832,30.186695,37.395654,37.366149,0.123000,,,,,,,430c6830c2540acf9511632ae24e3d43,
AS,aom,av2,0,A1,FoodMarket2,3840x2160,60.0000,10,960x540,210,202.405594,27.459627,35.613047,35.370275,8.785425,7.121995,22.803479,22.290669,23.172693,29.867449,27.351741,35.513842,35.226323,0.232627,,,,,,,0edcd902c03c61aae876fe900fcae94d,
AS,aom,av2,0,A1,FoodMarket2,3840x2160,60.0000,10,960x540,235,76.645816,24.789981,33.738097,33.139148,5.760101,5.159120,11.907573,11.906734,20.625728,27.335401,24.699622,33.628837,33.021431,0.322252,,,,,,,95373129ebfcf47f45901aac4f65a55b,
AS,aom,av2,0,A1,FoodMarket2,3840x2160,60.0000,10,640x360,110,3038.134788,32.706923,40.381223,40.746905,20.266876,12.576420,60.392499,58.504197,28.502357,35.480815,32.403368,40.235457,40.536820,0.011747,,,,,,,7fd89ca72c8fc2363a58e4b3ca21c940,
AS,aom,av2,0,A1,FoodMarket2,3840x2160,60.0000,10,640x360,135,1475.170983,31.889964,39.313250,39.579283,17.302913,11.521007,50.376184,48.671729,27.584290,34.397821,31.653198,39.193803,39.407754,0.026099,,,,,,,65e4aa7ccb7b69786618bcaf55b82c5b,
AS,aom,av2,0,A1,FoodMarket2,3840x2160,60.0000,10,640x360,160,672.501652,30.427087,37.840464,37.952345,13.701580,9.872055,36.417409,35.178270,26.046257,32.775501,30.262507,37.734419,37.800484,0.085255,,,,,,,69f3ad36a5065e11cddf04f137c6c341,
AS,aom,av2,0,A1,FoodMarket2,3840x2160,60.0000,10,640x360,185,292.463229,28.351751,36.277762,36.173188,10.203101,7.900814,22.837981,22.255686,23.981638,30.764878,28.226181,36.169238,36.025401,0.160110,,,,,,,d9764a7dd1d8acccf8acd3226038992a,
AS,aom,av2,0,A1,FoodMarket2,3840x2160,60.0000,10,640x360,210,114.811957,25.885455,34.593247,34.142037,6.991379,5.936219,13.176166,13.104192,21.638405,28.456688,25.778561,34.485470,34.002867,0.331517,,,,,,,992c9829ac38ebe886c18bf50f383b3e,
AS,aom,av2,0,A1,FoodMarket2,3840x2160,60.0000,10,640x360,235,43.533082,23.442812,32.677689,32.122054,4.483798,4.335732,8.042402,8.121425,19.389418,26.048661,23.354000,32.577209,32.023261,0.415742,,,,,,,35cd7132e8c8bfc1d123a21f7d88c89d,
AS,aom,av2,0,A1,Neon1224,3840x2160,30.0000,10,3840x2160,110,40099.267502,44.831954,48.708585,48.045884,28.373199,22.522169,99.976870,99.972282,43.783113,46.724611,44.740747,48.557991,47.895570,0.958319,,,,,,,8724a2344b3727ff4dd716525f8500d3,
AS,aom,av2,0,A1,Neon1224,3840x2160,30.0000,10,3840x2160,135,17718.053024,41.543911,45.843060,45.006054,24.005984,19.684045,99.376785,98.595629,39.835157,44.048224,41.416379,45.751972,44.885001,1.206995,,,,,,,3a1dc52775b0d2f642617ae0f7a675b3,
AS,aom,av2,0,A1,Neon1224,3840x2160,30.0000,10,3840x2160,160,7943.531545,38.634593,42.837931,41.806447,20.479267,17.274128,91.377227,89.082280,35.988925,41.457607,38.510969,42.736195,41.659400,1.398399,,,,,,,f6acb942396170dd4514cf23fefe56c1,
AS,aom,av2,0,A1,Neon1224,3840x2160,30.0000,10,3840x2160,185,3658.693307,35.662553,39.575333,38.348117,17.033990,14.817404,74.979958,72.488842,32.102624,38.642365,35.532236,39.436780,38.153694,1.528013,,,,,,,09c8ea2e675cd51a4d8dd1caed4aa6da,
AS,aom,av2,0,A1,Neon1224,3840x2160,30.0000,10,3840x2160,210,1611.277338,32.434206,36.103631,34.555332,13.460510,12.219242,53.664980,51.474824,28.199525,35.444561,32.294359,35.933901,34.307811,1.853834,,,,,,,bf2be5508cdca86936f065ac31955c01,
AS,aom,av2,0,A1,Neon1224,3840x2160,30.0000,10,3840x2160,235,688.401445,29.266220,32.703219,30.890733,10.203475,9.804856,31.069905,29.618102,24.671520,32.161802,29.138079,32.519836,30.622475,1.999181,,,,,,,148d29d701a349e91e90a733fe0873fb,
AS,aom,av2,0,A1,Neon1224,3840x2160,30.0000,10,2560x1440,110,23599.406747,42.217348,47.095748,46.283724,25.719702,20.734010,99.896333,99.613812,41.410292,44.989877,42.166123,46.999442,46.168276,1.117175,,,,,,,84a86f1ad0e13cb8a848c35da72e1212,
AS,aom,av2,0,A1,Neon1224,3840x2160,30.0000,10,2560x1440,135,10906.990241,39.708671,44.301735,43.299446,21.998697,18.320192,95.969427,94.168177,37.684132,42.650077,39.620316,44.211649,43.170819,1.358596,,,,,,,02e49dd0d1418037c59cd5af445063ee,
AS,aom,av2,0,A1,Neon1224,3840x2160,30.0000,10,2560x1440,160,5062.375163,36.953465,41.264538,40.071645,18.627591,15.951602,82.867145,80.358273,33.849349,40.080603,36.840522,41.149314,39.906068,1.501496,,,,,,,56ab52228655127ef8549cf072d19f46,
AS,aom,av2,0,A1,Neon1224,3840x2160,30.0000,10,2560x1440,185,2301.832936,33.914853,38.021430,36.604216,15.175584,13.448235,63.728199,61.390613,30.007404,37.214690,33.783136,37.869012,36.389150,1.641056,,,,,,,b08acc0894dedd4a97103482e849ad7d,
AS,aom,av2,0,A1,Neon1224,3840x2160,30.0000,10,2560x1440,210,982.367786,30.770408,34.630244,32.909146,11.788964,10.975265,41.496650,39.650360,26.352778,34.040550,30.640366,34.456809,32.648776,1.886204,,,,,,,ebb7cce5a1a2a9c6c8b9d137afaecb0c,
AS,aom,av2,0,A1,Neon1224,3840x2160,30.0000,10,2560x1440,235,401.406593,27.735711,31.489139,29.476833,8.871197,8.774116,20.686140,19.583687,23.112525,30.897073,27.620312,31.313356,29.203531,2.031372,,,,,,,54ccc24147c6b793b7a1dd9eb8b3434f,
AS,aom,av2,0,A1,Neon1224,3840x2160,30.0000,10,1920x1080,110,16513.276262,40.610244,45.969073,44.997255,24.084832,19.639075,98.827883,97.704975,39.773550,43.897952,40.571338,45.886452,44.888907,1.270348,,,,,,,9b56b3dd54797ba5b36577208edbd9a9,
AS,aom,av2,0,A1,Neon1224,3840x2160,30.0000,10,1920x1080,135,7897.949435,38.397218,43.144760,41.998044,20.671530,17.384507,90.892341,88.535878,36.128870,41.642124,38.323906,43.046989,41.859129,1.474354,,,,,,,f3f58d8765f4133e520cb18f8a92bee2,
AS,aom,av2,0,A1,Neon1224,3840x2160,30.0000,10,1920x1080,160,3677.449935,35.685631,40.056974,38.715766,17.295171,14.989404,75.205315,72.671346,32.303062,39.032941,35.578324,39.930260,38.537216,1.658316,,,,,,,009d94bdce6e5ed79ab217100727adff,
AS,aom,av2,0,A1,Neon1224,3840x2160,30.0000,10,1920x1080,185,1638.102820,32.662074,36.842464,35.272720,13.852311,12.485836,54.984799,52.790705,28.556637,36.143414,32.532990,36.684903,35.050522,1.768940,,,,,,,6b96405d1b39243d67a988a99384d8c6,
AS,aom,av2,0,A1,Neon1224,3840x2160,30.0000,10,1920x1080,210,682.569738,29.606429,33.607016,31.710421,10.673609,10.131381,32.355531,30.843711,25.103817,33.016293,29.484113,33.434364,31.450785,1.982790,,,,,,,42554d81a1a61022d65419f3dd26971e,
AS,aom,av2,0,A1,Neon1224,3840x2160,30.0000,10,1920x1080,235,267.338200,26.665378,30.677625,28.480785,8.002698,8.088005,13.291268,12.450500,22.057822,30.001701,26.557954,30.516153,28.212729,2.063930,,,,,,,40509c582ef86bd9892419990287ded2,
AS,aom,av2,0,A1,Neon1224,3840x2160,30.0000,10,1280x720,110,10038.591562,37.774832,43.829835,42.482625,22.068772,17.982614,91.094454,88.815150,36.187105,42.042399,37.746276,43.768542,42.396320,1.435889,,,,,,,1ad1bbb73a02be3f02af87d68f2cb14c,
AS,aom,av2,0,A1,Neon1224,3840x2160,30.0000,10,1280x720,135,4949.259971,36.062098,41.119565,39.693544,18.805177,15.892085,78.462725,76.014070,33.241544,39.918542,36.012250,41.020854,39.557009,1.597017,,,,,,,8d08d60589753e2a3a42404c19ee90fd,
AS,aom,av2,0,A1,Neon1224,3840x2160,30.0000,10,1280x720,160,2288.856374,33.651425,38.141453,36.580375,15.393833,13.539333,60.978179,58.712510,29.869710,37.364260,33.566141,38.008186,36.394579,1.818653,,,,,,,605f4808be345c0626684c867277ff35,
AS,aom,av2,0,A1,Neon1224,3840x2160,30.0000,10,1280x720,185,997.129640,30.862576,35.089115,33.334707,12.098242,11.169446,40.763116,38.999344,26.521333,34.534679,30.753091,34.934339,33.105511,1.949532,,,,,,,ed8db3d39e9327e1204d26b303d4d095,
AS,aom,av2,0,A1,Neon1224,3840x2160,30.0000,10,1280x720,210,400.261277,27.970049,32.159194,30.073079,9.191400,8.990485,19.385269,18.384431,23.402053,31.543132,27.860597,31.993135,29.809096,2.117231,,,,,,,df87919029733c1d1749f113f7686110,
AS,aom,av2,0,A1,Neon1224,3840x2160,30.0000,10,1280x720,235,148.968570,25.177406,29.552332,27.180882,6.853290,7.166048,4.390857,4.115472,20.632175,28.694849,25.080074,29.392496,26.920086,2.302627,,,,,,,5d1b268c013a0244c51a2c87047b82fb,
AS,aom,av2,0,A1,Neon1224,3840x2160,30.0000,10,960x540,110,7120.816414,35.620239,42.035060,40.323721,20.799092,16.484921,78.875868,76.474738,32.868512,40.554790,35.591521,41.986072,40.250193,1.564741,,,,,,,0d9052a91352e6b713c31cff387f0b0e,
AS,aom,av2,0,A1,Neon1224,3840x2160,30.0000,10,960x540,135,3586.154768,34.313916,39.593951,37.944758,17.574519,14.677423,66.003486,63.673187,30.847349,38.622041,34.276451,39.505046,37.821232,1.753596,,,,,,,d5ac6621941a0949f4f6ca54527608f9,
AS,aom,av2,0,A1,Neon1224,3840x2160,30.0000,10,960x540,160,1633.298394,32.211617,36.764251,35.031819,14.128952,12.482125,48.928380,46.957321,28.093824,36.155924,32.144230,36.637363,34.852761,1.984368,,,,,,,2eef37d491867977202db7131deccba1,
AS,aom,av2,0,A1,Neon1224,3840x2160,30.0000,10,960x540,185,711.519865,29.702260,33.957958,32.029586,11.020220,10.323308,30.692533,29.303742,25.220917,33.464415,29.609738,33.809801,31.814907,2.166984,,,,,,,6f8fcdfaceb23dabcea2912517576171,
AS,aom,av2,0,A1,Neon1224,3840x2160,30.0000,10,960x540,210,279.435027,26.948850,31.265045,29.065027,8.328006,8.305152,11.449129,10.841140,22.370399,30.614619,26.849819,31.114298,28.813889,2.253297,,,,,,,4bfb56a4c07f15de2bbecfd06eedff04,
AS,aom,av2,0,A1,Neon1224,3840x2160,30.0000,10,960x540,235,99.642511,24.270801,28.926301,26.466663,6.221326,6.639510,1.717056,1.640768,19.789797,27.894981,24.182269,28.779865,26.204101,2.469319,,,,,,,b85f82ede7eb2385da426fb768c177df,
AS,aom,av2,0,A1,Neon1224,3840x2160,30.0000,10,640x360,110,4217.461923,32.801909,39.250704,37.137858,18.395054,14.209362,53.197074,51.318377,28.737465,38.256676,32.772604,39.205917,37.066038,1.677901,,,,,,,e0a51b1e14f8067fff32be6fc3a81427,
AS,aom,av2,0,A1,Neon1224,3840x2160,30.0000,10,640x360,135,2136.638131,31.847132,37.232943,35.289861,15.357626,12.766136,41.962220,40.300727,27.544876,36.564562,31.816641,37.152146,35.177590,1.910526,,,,,,,fbd476b1e96ce6abdf21f714db0b00d5,
AS,aom,av2,0,A1,Neon1224,3840x2160,30.0000,10,640x360,160,965.464689,30.153495,34.753794,32.810524,12.168129,10.918709,28.117895,26.875387,25.622511,34.301096,30.103822,34.634679,32.639473,2.136890,,,,,,,7c8af1176376e945917c052ee8ef1c34,
AS,aom,av2,0,A1,Neon1224,3840x2160,30.0000,10,640x360,185,413.770845,27.952587,32.302961,30.176501,9.415269,9.070957,13.938394,13.260030,23.333668,31.789572,27.878204,32.166279,29.963001,2.292621,,,,,,,bc3d8599a2c640409451ffec2529e5ee,
AS,aom,av2,0,A1,Neon1224,3840x2160,30.0000,10,640x360,210,154.317068,25.354668,30.001938,27.618655,7.040427,7.281417,2.377205,2.289648,20.818123,29.105172,25.265649,29.862120,27.369140,2.342857,,,,,,,a5e007215ec96cb4d7de74543829381b,
AS,aom,av2,0,A1,Neon1224,3840x2160,30.0000,10,640x360,235,52.538846,22.955148,27.838580,25.384070,5.370273,5.910150,0.220850,0.218334,18.571920,26.599218,22.880614,27.693657,25.121123,2.573037,,,,,,,9fa9c2f45c948dcbde7e2423844dba3b,
AS,aom,av2,0,A1,NocturneDance,3840x2160,60.0000,10,3840x2160,110,48828.372923,46.363638,43.690660,48.742848,27.054806,21.891726,94.114752,91.835166,43.409641,44.940355,46.284296,43.620451,48.685382,0.477414,,,,,,,1a34ed7de7b4dcd2cafd96acd301fc05,
AS,aom,av2,0,A1,NocturneDance,3840x2160,60.0000,10,3840x2160,135,20812.563692,43.207943,41.722679,47.241429,22.948444,18.758783,85.015082,82.560961,39.524965,42.806536,43.130005,41.681111,47.204698,0.647593,,,,,,,8be4fa2bcb1568ff42b44772cc90222a,
AS,aom,av2,0,A1,NocturneDance,3840x2160,60.0000,10,3840x2160,160,8837.102769,40.010876,39.997494,45.680471,18.873832,15.648311,68.887398,66.619469,35.841053,40.777208,39.918274,39.971131,45.655197,0.645654,,,,,,,98b9c5284451ba1e9409998ae2166f5b,
AS,aom,av2,0,A1,NocturneDance,3840x2160,60.0000,10,3840x2160,185,3460.224000,36.692492,38.308759,44.011646,14.598462,12.394678,45.355519,43.934351,32.227351,38.665060,36.581538,38.286924,43.991745,0.742372,,,,,,,6d47ebc4172678b7b7c4c3cecabb2981,
AS,aom,av2,0,A1,NocturneDance,3840x2160,60.0000,10,3840x2160,210,976.128000,33.431133,36.689452,42.426731,10.273791,9.245932,20.941277,20.401510,28.874196,36.508205,33.319492,36.670097,42.411490,1.053535,,,,,,,3d6b1088df5d9b9c59e977a21a0099df,
AS,aom,av2,0,A1,NocturneDance,3840x2160,60.0000,10,3840x2160,235,226.209231,31.446063,35.511342,40.776917,7.762387,7.518426,8.542092,8.331004,26.961690,34.736960,31.396638,35.500845,40.757767,1.239807,,,,,,,42745e51c0d94d14eb22df66db184944,
AS,aom,av2,0,A1,NocturneDance,3840x2160,60.0000,10,2560x1440,110,29889.747692,44.514186,42.226792,47.629825,24.670215,20.042247,89.643471,87.285344,41.101294,43.520593,44.443008,42.187594,47.589140,0.566156,,,,,,,53e112bf0c4474acebf6009399fee770,
AS,aom,av2,0,A1,NocturneDance,3840x2160,60.0000,10,2560x1440,135,12691.273846,41.371633,40.622819,46.324557,20.668197,16.978831,77.118715,74.593318,37.384068,41.599076,41.290233,40.594687,46.294676,0.623551,,,,,,,7e739a4984534652abf61b70c3742259,
AS,aom,av2,0,A1,NocturneDance,3840x2160,60.0000,10,2560x1440,160,5218.726154,38.173307,39.054525,44.813486,16.611556,13.884494,57.310972,55.193288,33.820269,39.631807,38.076943,39.032488,44.791238,0.732065,,,,,,,0938985098b4bf16daaff2e0432eb662,
AS,aom,av2,0,A1,NocturneDance,3840x2160,60.0000,10,2560x1440,185,1781.368615,34.913672,37.479457,43.288165,12.276048,10.678544,32.096979,31.071841,30.378539,37.554855,34.804573,37.458778,43.271222,0.952906,,,,,,,b9f25bee9a3e955e5cc3aeff3821a234,
AS,aom,av2,0,A1,NocturneDance,3840x2160,60.0000,10,2560x1440,210,421.332923,32.204951,36.125028,41.726347,8.672138,8.138847,12.887298,12.524125,27.686581,35.604961,32.125622,36.108209,41.707496,1.566483,,,,,,,7ed7a5b5f34bd62ea2ee4003b2e1334f,
AS,aom,av2,0,A1,NocturneDance,3840x2160,60.0000,10,2560x1440,235,97.565538,30.935791,35.135311,40.048556,7.236076,7.179826,5.467952,5.304788,26.494943,34.164446,30.910592,35.127918,40.035701,1.967168,,,,,,,21dc0a07c2ca9f1e6af1832bd8765933,
AS,aom,av2,0,A1,NocturneDance,3840x2160,60.0000,10,1920x1080,110,21151.373538,43.167758,40.897252,46.632143,22.933780,18.712923,85.084476,82.688642,39.448210,42.394345,43.098359,40.871583,46.598645,0.650851,,,,,,,661e2fca4ce107b4f782dd21adc3f281,
AS,aom,av2,0,A1,NocturneDance,3840x2160,60.0000,10,1920x1080,135,8889.223385,40.051844,39.621390,45.481092,18.974003,15.702971,69.689770,67.312561,35.874987,40.661853,39.966211,39.598665,45.453925,0.696036,,,,,,,1b0607257ce0de257791f4c5430ec8a7,
AS,aom,av2,0,A1,NocturneDance,3840x2160,60.0000,10,1920x1080,160,3440.643692,36.820671,38.283284,44.152543,14.839305,12.563028,47.378553,45.648511,32.364916,38.758954,36.719109,38.263952,44.134521,0.897667,,,,,,,5dd13975cbcb3404e9d28c17aa46ead7,
AS,aom,av2,0,A1,NocturneDance,3840x2160,60.0000,10,1920x1080,185,1033.428923,33.729079,36.912779,42.803841,10.667422,9.542572,23.200047,22.504756,29.182601,36.784557,33.628829,36.893578,42.791153,1.389657,,,,,,,83a592eeac534140428d1deba83518c3,
AS,aom,av2,0,A1,NocturneDance,3840x2160,60.0000,10,1920x1080,210,233.859692,31.665774,35.803850,41.242690,8.009516,7.694880,9.985440,9.636793,27.179429,35.124994,31.614068,35.791134,41.226964,2.181019,,,,,,,91a16e44f148b5e95be86c484dfcebde,
AS,aom,av2,0,A1,NocturneDance,3840x2160,60.0000,10,1920x1080,235,53.246769,30.562334,34.925060,39.646855,6.916172,6.989820,3.356076,3.241850,26.173385,33.848590,30.544101,34.916042,39.629660,2.502354,,,,,,,1603f24606ab376c10c6316db4c70c88,
AS,aom,av2,0,A1,NocturneDance,3840x2160,60.0000,10,1280x720,110,12534.516923,41.078853,38.992146,45.197353,20.580656,16.758160,75.481406,73.161022,37.000795,40.774367,41.024068,38.971957,45.170215,0.698632,,,,,,,e8e40a9f7ef55e62bb34923de6ac6227,
AS,aom,av2,0,A1,NocturneDance,3840x2160,60.0000,10,1280x720,135,5160.871385,38.120674,38.170691,44.307427,16.623107,13.855190,56.479031,54.514924,33.721296,39.300665,38.033855,38.152452,44.286243,0.864812,,,,,,,dedeec21af13d75d6423dd0562e79c10,
AS,aom,av2,0,A1,NocturneDance,3840x2160,60.0000,10,1280x720,160,1753.329231,34.981477,37.248331,43.295119,12.406791,10.775864,32.721236,31.622500,30.436537,37.554358,34.877722,37.231988,43.281966,1.217215,,,,,,,cb7f711bcfb0470986a8249896734b28,
AS,aom,av2,0,A1,NocturneDance,3840x2160,60.0000,10,1280x720,185,435.773538,32.378935,36.264740,42.144502,8.887241,8.299925,12.867666,12.487178,27.860998,35.829477,32.299165,36.247391,42.131662,2.073788,,,,,,,cf913e1e5d74f73b1e373a243ca00e6f,
AS,aom,av2,0,A1,NocturneDance,3840x2160,60.0000,10,1280x720,210,97.384615,31.107019,35.433591,40.655107,7.394041,7.294736,5.815711,5.602828,26.667760,34.588295,31.080626,35.425200,40.644389,2.824132,,,,,,,72cf03af4a369e3841d5caee5834d86c,
AS,aom,av2,0,A1,NocturneDance,3840x2160,60.0000,10,1280x720,235,29.224615,30.031848,34.600914,39.101636,6.591026,6.783718,0.241148,0.225050,25.714641,33.249170,30.017170,34.595070,39.088246,3.321899,,,,,,,e41cea3e38371e1923962cb131d775f9,
AS,aom,av2,0,A1,NocturneDance,3840x2160,60.0000,10,960x540,110,8523.651692,39.210894,37.960284,44.424992,18.943877,15.020720,64.438971,62.295111,34.851998,39.630214,39.171839,37.941187,44.400168,0.700412,,,,,,,7a93631a4bf98624f76d7d525aba295f,
AS,aom,av2,0,A1,NocturneDance,3840x2160,60.0000,10,960x540,135,3409.432615,36.669658,37.403800,43.721449,14.964423,12.450560,45.039340,43.467440,32.136304,38.364567,36.597219,37.386511,43.703694,0.973854,,,,,,,454228845e29ae378151e1df71b538b9,
AS,aom,av2,0,A1,NocturneDance,3840x2160,60.0000,10,960x540,160,1027.011692,33.825632,36.720181,42.814097,10.883854,9.668092,22.832508,22.115218,29.257428,36.792061,33.733516,36.704004,42.799904,1.504203,,,,,,,4a9b1c0587b8f0e9d5ba9b0a81dab8dd,
AS,aom,av2,0,A1,NocturneDance,3840x2160,60.0000,10,960x540,185,250.585846,31.799155,35.935051,41.697863,8.186076,7.804802,8.333106,8.079988,27.309050,35.351190,31.742360,35.923055,41.684409,2.377752,,,,,,,425916ef68c3bbb0a1bdaf664193c334,
AS,aom,av2,0,A1,NocturneDance,3840x2160,60.0000,10,960x540,210,58.482462,30.758261,35.235604,40.333365,7.077530,7.096119,3.444406,3.313332,26.361129,34.195204,30.738750,35.227689,40.317982,3.175654,,,,,,,7d85e46d11f2ccae5f30f8b6634e5461,
AS,aom,av2,0,A1,NocturneDance,3840x2160,60.0000,10,960x540,235,21.828923,29.607580,34.421308,38.870652,6.387165,6.656546,0.039752,0.037167,25.359626,32.862292,29.591532,34.416178,38.858571,3.641170,,,,,,,3e810645bebea8936c1a170eda49c02f,
AS,aom,av2,0,A1,NocturneDance,3840x2160,60.0000,10,640x360,110,4230.402462,36.205238,37.012684,43.671224,15.623094,12.174448,39.327105,37.914300,31.481947,37.993295,36.173615,36.995244,43.651922,0.657114,,,,,,,0b6b9c33c9913bccd8ea144b1210084d,
AS,aom,av2,0,A1,NocturneDance,3840x2160,60.0000,10,640x360,135,1506.092308,34.386476,36.655359,43.039153,12.117317,10.257920,23.100519,22.269677,29.719725,37.015653,34.334747,36.639463,43.025144,1.170183,,,,,,,3705677cae6b795433c43443da54f457,
AS,aom,av2,0,A1,NocturneDance,3840x2160,60.0000,10,640x360,160,385.070769,32.366158,36.128400,42.164646,8.989919,8.317125,8.609865,8.331934,27.817442,35.784403,32.308523,36.114913,42.154356,2.049596,,,,,,,1e5e4a6a5ca96bfbeb9f195f83c8c041,
AS,aom,av2,0,A1,NocturneDance,3840x2160,60.0000,10,640x360,185,103.506462,31.200697,35.554586,40.973766,7.511135,7.356845,2.627180,2.553267,26.752982,34.708114,31.172629,35.544003,40.962125,2.900727,,,,,,,b4924704f07dae9cad65697158d35948,
AS,aom,av2,0,A1,NocturneDance,3840x2160,60.0000,10,640x360,210,30.945231,30.212595,34.878004,39.617896,6.696786,6.854373,0.187572,0.177888,25.883119,33.584175,30.198344,34.870686,39.600418,3.669764,,,,,,,ff9a9e71e30bd04e338df035c8ae9c6e,
AS,aom,av2,0,A1,NocturneDance,3840x2160,60.0000,10,640x360,235,14.544000,29.006919,33.887869,38.192916,6.129589,6.479774,0.000000,0.000000,24.833386,32.189231,28.988131,33.881699,38.181309,3.897759,,,,,,,753d17d1f33f5a930c71b957a3b75133,
AS,aom,av2,0,A1,PierSeaSide,3840x2160,30.0000,10,3840x2160,110,11512.993021,44.541921,47.169472,44.534319,31.437769,23.284122,99.641225,98.776305,44.858753,44.103475,44.394728,47.074983,44.426636,0.000312,,,,,,,8568253cc668b50bfdda53a334314641,
AS,aom,av2,0,A1,PierSeaSide,3840x2160,30.0000,10,3840x2160,135,3718.210990,42.803734,46.129549,43.756529,27.859863,21.046503,97.967617,96.240666,41.932231,43.031632,42.553968,46.034476,43.655362,0.000668,,,,,,,36b579719cb7422573e0861a5badfeb2,
AS,aom,av2,0,A1,PierSeaSide,3840x2160,30.0000,10,3840x2160,160,1240.053474,40.685220,44.837991,42.973717,24.021795,18.638176,92.798198,90.445716,38.803671,41.719771,40.368300,44.745529,42.877416,0.001591,,,,,,,a12b098027a3a2032ac1e5485894095d,
AS,aom,av2,0,A1,PierSeaSide,3840x2160,30.0000,10,3840x2160,185,447.762866,38.377017,43.096855,41.850355,20.723851,16.426497,83.881414,81.318948,35.721593,40.112285,38.076495,43.019790,41.773695,0.006097,,,,,,,995b6ecd04a010ed7a804b27cbb21dc2,
AS,aom,av2,0,A1,PierSeaSide,3840x2160,30.0000,10,3840x2160,210,172.566338,35.867360,40.927374,40.265981,17.750515,14.313685,69.692187,67.184742,32.524713,38.172396,35.642178,40.883462,40.214153,0.016627,,,,,,,911a6c72f251f1714b258974600e4176,
AS,aom,av2,0,A1,PierSeaSide,3840x2160,30.0000,10,3840x2160,235,69.832866,33.144996,38.323733,38.299715,14.783438,12.156962,49.577007,47.330394,29.208729,35.870149,33.003413,38.297846,38.262484,0.067963,,,,,,,de94159f500e3a63a23c48314af57253,
AS,aom,av2,0,A1,PierSeaSide,3840x2160,30.0000,10,2560x1440,110,5740.732290,43.183583,46.173426,43.413009,29.444255,21.968646,98.845498,97.217488,43.125437,43.093690,42.926284,46.054250,43.271508,0.000580,,,,,,,e8374c241825f0d759e52e3c35d03178,
AS,aom,av2,0,A1,PierSeaSide,3840x2160,30.0000,10,2560x1440,135,1950.513995,41.456145,45.224271,42.856490,25.745733,19.702018,95.654050,93.057473,40.160518,42.112107,41.120692,45.110681,42.723321,0.001431,,,,,,,a17408ad879f51c49c5b0689b41767ad,
AS,aom,av2,0,A1,PierSeaSide,3840x2160,30.0000,10,2560x1440,160,673.566990,39.373083,43.863535,42.101627,22.180369,17.399050,88.478849,85.718572,37.117502,40.800578,39.028562,43.767538,41.992209,0.004552,,,,,,,d5a37a689f2db3a7d2ba61822766b788,
AS,aom,av2,0,A1,PierSeaSide,3840x2160,30.0000,10,2560x1440,185,256.170650,37.074909,41.990720,40.919475,19.182406,15.324139,77.224453,74.489661,34.067619,39.145678,36.802434,41.927447,40.842610,0.012165,,,,,,,7226f998a1dbe4c1c5b77b012d0d20fa,
AS,aom,av2,0,A1,PierSeaSide,3840x2160,30.0000,10,2560x1440,210,100.999822,34.490996,39.698825,39.332850,16.304318,13.233041,60.131301,57.645743,30.832133,37.123842,34.304607,39.663136,39.285079,0.043427,,,,,,,5edf2439063e69eaa2e74ec9b2aa0e1e,
AS,aom,av2,0,A1,PierSeaSide,3840x2160,30.0000,10,2560x1440,235,41.305115,31.708100,37.213488,37.500470,13.360767,11.059673,38.013043,35.949535,27.560283,34.697830,31.598163,37.187606,37.468987,0.123440,,,,,,,43778335536f11c5bf64081a6a96cc63,
AS,aom,av2,0,A1,PierSeaSide,3840x2160,30.0000,10,1920x1080,110,3502.823516,41.458800,45.008800,42.591704,27.874883,20.695013,96.376543,93.858763,41.393642,42.072504,41.031555,44.874620,42.438762,0.001036,,,,,,,e2c7487d9285c832b715bab37399a9e1,
AS,aom,av2,0,A1,PierSeaSide,3840x2160,30.0000,10,1920x1080,135,1228.085762,40.028696,44.164582,42.147426,24.298395,18.608666,91.718995,88.873497,38.676497,41.202175,39.593668,44.044231,42.008669,0.002733,,,,,,,8cf0790d15bb83fb01b811126cb71f50,
AS,aom,av2,0,A1,PierSeaSide,3840x2160,30.0000,10,1920x1080,160,443.670347,38.171879,42.839187,41.409908,20.976581,16.492162,83.254339,80.482587,35.786063,39.957499,37.796531,42.748076,41.301001,0.010050,,,,,,,d97c5d32ba37b2144303a74188c6c703,
AS,aom,av2,0,A1,PierSeaSide,3840x2160,30.0000,10,1920x1080,185,174.039940,35.990892,41.021192,40.201566,18.106680,14.503920,70.366119,67.742816,32.792025,38.315025,35.726171,40.959683,40.132018,0.033549,,,,,,,1171945788f4ab69ce02311add5a4dc3,
AS,aom,av2,0,A1,PierSeaSide,3840x2160,30.0000,10,1920x1080,210,70.351117,33.434747,38.813612,38.644985,15.299668,12.447582,51.935713,49.490625,29.589106,36.326353,33.271978,38.782107,38.601596,0.096670,,,,,,,0c6c26837812550bfaea9bb880dd63fa,
AS,aom,av2,0,A1,PierSeaSide,3840x2160,30.0000,10,1920x1080,235,28.306434,30.670082,36.328282,36.901009,12.251013,10.236753,29.014647,27.208826,26.413170,33.828257,30.582932,36.313569,36.878930,0.187043,,,,,,,d0fb3a88947bd27e3c0f315f102be16e,
AS,aom,av2,0,A1,PierSeaSide,3840x2160,30.0000,10,1280x720,110,1662.043985,38.199340,42.982500,41.549754,25.307266,18.245695,87.124093,84.564611,36.844910,40.282950,37.685992,42.872671,41.415353,0.001475,,,,,,,76d7ad27cc4a4ce44ffd4f3812a7beb8,
AS,aom,av2,0,A1,PierSeaSide,3840x2160,30.0000,10,1280x720,135,618.730189,37.297283,42.316829,41.159986,22.167813,16.671685,81.085722,78.506918,35.201452,39.573619,36.822622,42.221486,41.042901,0.005082,,,,,,,6119b332d17830ef1a098bbc5c43b3df,
AS,aom,av2,0,A1,PierSeaSide,3840x2160,30.0000,10,1280x720,160,242.196330,35.998331,41.149246,40.401107,19.318475,15.010285,71.667544,69.157966,33.132552,38.514689,35.618961,41.079100,40.310274,0.017406,,,,,,,576290c0ef31813b7d27f657853d33e0,
AS,aom,av2,0,A1,PierSeaSide,3840x2160,30.0000,10,1280x720,185,99.937501,34.193802,39.564749,39.262602,16.612872,13.238362,57.234107,54.925420,30.630288,37.063443,33.944338,39.520512,39.205804,0.071941,,,,,,,edd6a6c5c3d2b68b60f58dd0551e83a1,
AS,aom,av2,0,A1,PierSeaSide,3840x2160,30.0000,10,1280x720,210,41.474791,31.840558,37.622989,37.767866,13.732185,11.249920,37.777986,35.756201,27.753815,35.108970,31.710997,37.598659,37.734201,0.156363,,,,,,,0dbf18fcd963bf3affe6b81ac2993d3a,
AS,aom,av2,0,A1,PierSeaSide,3840x2160,30.0000,10,1280x720,235,17.323582,29.198013,35.338495,36.260524,10.678597,9.080717,15.962251,14.438486,24.868446,32.753043,29.130391,35.320662,36.232183,0.237682,,,,,,,92745184b7764b66a22ffdf0202f500f,
AS,aom,av2,0,A1,PierSeaSide,3840x2160,30.0000,10,960x540,110,1034.769118,35.669710,41.390708,40.776788,23.863029,15.962213,73.467540,71.196286,32.714256,38.814499,35.257655,41.311633,40.666226,0.002790,,,,,,,b04cadf283475c65e8ee093ac0913aad,
AS,aom,av2,0,A1,PierSeaSide,3840x2160,30.0000,10,960x540,135,403.955025,35.102946,40.874885,40.420195,20.972827,14.933361,67.444342,65.196030,31.870563,38.250467,34.715261,40.805954,40.324552,0.009934,,,,,,,1ce0ed5463cba65b530fde80ed81260e,
AS,aom,av2,0,A1,PierSeaSide,3840x2160,30.0000,10,960x540,160,164.073301,34.195905,39.935600,39.710031,18.274849,13.705250,57.713007,55.615628,30.608791,37.379962,33.873552,39.881589,39.635048,0.039631,,,,,,,37d8b59e3bb767c24c2b71a322e70111,
AS,aom,av2,0,A1,PierSeaSide,3840x2160,30.0000,10,960x540,185,69.932459,32.765609,38.513154,38.639898,15.571034,12.204038,43.410986,41.509706,28.792014,36.067983,32.544255,38.475209,38.585983,0.110610,,,,,,,a09152efef7e0a3b6773e0b2b045168d,
AS,aom,av2,0,A1,PierSeaSide,3840x2160,30.0000,10,960x540,210,30.316730,30.726510,36.805655,37.319892,12.655810,10.392438,25.687487,24.150165,26.470316,34.227050,30.608653,36.786567,37.289052,0.183283,,,,,,,89596309091468cf8597b22ad0e1d02c,
AS,aom,av2,0,A1,PierSeaSide,3840x2160,30.0000,10,960x540,235,13.159135,28.278160,34.723941,35.678522,9.675065,8.345952,6.167328,5.244762,23.924451,31.921019,28.211026,34.709551,35.655533,0.272558,,,,,,,60a86fe538ef4ab0bde4219e7ded32b3,
AS,aom,av2,0,A1,PierSeaSide,3840x2160,30.0000,10,640x360,110,464.638281,32.443216,39.539831,39.707962,20.150807,12.899593,42.586154,40.845773,28.145171,36.761965,32.214647,39.490109,39.626196,0.006509,,,,,,,101cd4ed708e333f8a8ae96636a3f194,
AS,aom,av2,0,A1,PierSeaSide,3840x2160,30.0000,10,640x360,135,194.183468,32.141943,39.138341,39.373115,18.249104,12.360613,37.619460,35.985677,27.801135,36.348629,31.921373,39.092273,39.300842,0.022467,,,,,,,02b2c3794d495bf10096ac06bf896839,
AS,aom,av2,0,A1,PierSeaSide,3840x2160,30.0000,10,640x360,160,84.574418,31.598983,38.374208,38.727295,16.083146,11.596763,29.771557,28.300816,27.199229,35.649155,31.403452,38.337209,38.671208,0.076052,,,,,,,d8980776308d74f3900429d1d3c7281f,
AS,aom,av2,0,A1,PierSeaSide,3840x2160,30.0000,10,640x360,185,37.859948,30.610631,37.181794,37.748081,13.650666,10.502631,18.468624,17.258288,26.158189,34.560073,30.466567,37.157569,37.706292,0.159983,,,,,,,17c3dc1d7851f1bc401e7363579ca641,
AS,aom,av2,0,A1,PierSeaSide,3840x2160,30.0000,10,640x360,210,17.362313,29.006115,35.650556,36.548722,10.904462,8.992312,5.962888,5.070793,24.570127,32.937072,28.925551,35.636066,36.523244,0.263431,,,,,,,72cb33213bbebbe6a2dfac7b365e6a7d,
AS,aom,av2,0,A1,PierSeaSide,3840x2160,30.0000,10,640x360,235,8.122331,26.974496,33.833852,35.149966,8.222749,7.295721,0.000988,0.000000,22.653162,30.918925,26.927902,33.823760,35.135672,0.293355,,,,,,,7cb6f65ca1c3264e92628047555e1fc9,
AS,aom,av2,0,A1,Tango,3840x2160,60.0000,10,3840x2160,110,30159.632368,40.437114,49.715936,47.959995,27.364501,18.263072,97.535737,95.730642,41.366425,42.567721,40.363989,49.702784,47.931896,0.285024,,,,,,,a560dcafb31a78ae43289170b12e8fca,
AS,aom,av2,0,A1,Tango,3840x2160,60.0000,10,3840x2160,135,10449.747176,39.798370,49.022199,46.842146,24.866738,17.379889,93.360252,91.174356,39.724434,41.873193,39.784292,49.017172,46.824855,0.436958,,,,,,,713409aac1d0983b03a5915a1ebde7e1,
AS,aom,av2,0,A1,Tango,3840x2160,60.0000,10,3840x2160,160,3906.535311,38.860105,47.864078,45.169992,21.945046,16.241842,85.446067,83.045571,37.571087,40.860376,38.852160,47.855126,45.146448,0.489624,,,,,,,09d6630e96b41707403fdcf3bc37d4f4,
AS,aom,av2,0,A1,Tango,3840x2160,60.0000,10,3840x2160,185,1890.690233,37.328374,46.149339,42.906784,18.539578,14.656207,72.102902,69.743455,34.847208,39.353491,37.309677,46.133376,42.873588,0.551252,,,,,,,16a5035ace7946342114fe5af993f99f,
AS,aom,av2,0,A1,Tango,3840x2160,60.0000,10,3840x2160,210,905.423192,35.067500,43.845321,40.245308,14.971403,12.682714,53.964543,51.851488,31.721848,37.276518,35.031538,43.823809,40.207604,0.604862,,,,,,,d65cd9d5ae24f046ead365d1d58fbee4,
AS,aom,av2,0,A1,Tango,3840x2160,60.0000,10,3840x2160,235,423.047722,32.278288,40.903713,37.247637,11.593500,10.559916,33.663362,32.225153,28.493909,34.637149,32.228017,40.873053,37.207231,0.679353,,,,,,,b7f44c40b65f7aa12e13e0322907a58c,
AS,aom,av2,0,A1,Tango,3840x2160,60.0000,10,2560x1440,110,13989.965727,40.040629,49.335694,47.290305,25.959908,17.738006,95.546519,93.411012,40.421950,42.150836,40.027664,49.329412,47.272575,0.415523,,,,,,,cdab336f874d2dfc0969fd6d74b5c245,
AS,aom,av2,0,A1,Tango,3840x2160,60.0000,10,2560x1440,135,5603.609929,39.337370,48.511237,46.006582,23.437143,16.817066,90.002830,87.487375,38.624159,41.381625,39.331288,48.505425,45.988550,0.473460,,,,,,,6ffd12eda96350d6c78647e558ebb0fc,
AS,aom,av2,0,A1,Tango,3840x2160,60.0000,10,2560x1440,160,2538.714209,38.110615,47.118217,44.093107,20.176033,15.448931,79.443037,76.764618,36.156884,40.149906,38.097894,47.106079,44.065997,0.598138,,,,,,,6734673c1f4528daeecf1f8f638d47ce,
AS,aom,av2,0,A1,Tango,3840x2160,60.0000,10,2560x1440,185,1220.191501,36.215440,45.252814,41.677949,16.657123,13.651673,63.280279,60.795260,33.237687,38.396137,36.188886,45.232343,41.641061,0.640961,,,,,,,fb21510883dda39d33c79fee7a1dc61c,
AS,aom,av2,0,A1,Tango,3840x2160,60.0000,10,2560x1440,210,572.104818,33.683764,42.874733,38.997677,13.230455,11.605300,44.792727,42.653620,30.089140,36.151029,33.641337,42.844825,38.958740,0.687176,,,,,,,99787e396177d56ec450a2b749c32b26,
AS,aom,av2,0,A1,Tango,3840x2160,60.0000,10,2560x1440,235,258.207024,30.754914,39.783855,35.923129,10.084799,9.543273,24.642438,23.614762,26.903136,33.360468,30.701507,39.747002,35.877157,0.768652,,,,,,,8f31ef46e55852fd6ec4ee399fec19be,
AS,aom,av2,0,A1,Tango,3840x2160,60.0000,10,1920x1080,110,9186.494736,39.755054,48.993864,46.651565,24.989091,17.361316,93.304056,91.016450,39.687982,41.819969,39.748585,48.988739,46.635628,0.489609,,,,,,,edff4ce6c470ef00749a7336630dca84,
AS,aom,av2,0,A1,Tango,3840x2160,60.0000,10,1920x1080,135,3977.828940,38.898818,48.044087,45.243230,22.221577,16.316289,86.180108,83.549049,37.679625,40.936910,38.891631,48.036452,45.222486,0.565998,,,,,,,eb666356577dfffccf4358901aa5a49b,
AS,aom,av2,0,A1,Tango,3840x2160,60.0000,10,1920x1080,160,1875.795589,37.427279,46.507268,43.188880,18.827259,14.782762,73.742873,70.962994,35.022678,39.540443,37.409940,46.491662,43.158572,0.700360,,,,,,,cfb431bbd795ebc595183c596bc810e9,
AS,aom,av2,0,A1,Tango,3840x2160,60.0000,10,1920x1080,185,895.028664,35.316994,44.492556,40.748835,15.367495,12.907670,56.449487,54.068404,32.058766,37.641810,35.284906,44.468710,40.711217,0.805134,,,,,,,483e9402d02599cabecbf2bfc73f9926,
AS,aom,av2,0,A1,Tango,3840x2160,60.0000,10,1920x1080,210,410.823638,32.627751,42.047215,38.073279,11.987407,10.817665,37.791077,35.922552,28.917317,35.259839,32.581698,42.009756,38.031737,0.880806,,,,,,,dd60b126d625d42d532f4d240f6bb44b,
AS,aom,av2,0,A1,Tango,3840x2160,60.0000,10,1920x1080,235,181.812034,29.688052,39.087120,35.111062,9.142804,8.901429,18.975578,17.919782,25.835282,32.449354,29.632621,39.038327,35.066959,0.971709,,,,,,,ebfc830d94c862999a4e3b98618eb6fe,
AS,aom,av2,0,A1,Tango,3840x2160,60.0000,10,1280x720,110,5489.517252,39.142289,48.320709,45.414487,23.346978,16.675858,87.753668,85.315231,38.293021,41.180323,39.137242,48.314422,45.396836,0.554420,,,,,,,41d376c654449413c8269b11a61f70ef,
AS,aom,av2,0,A1,Tango,3840x2160,60.0000,10,1280x720,135,2603.206025,38.024949,47.199029,43.860988,20.308928,15.421272,77.993147,75.337412,36.049779,40.108343,38.012795,47.189459,43.837103,0.662451,,,,,,,377da8e87877860efb5e2ec78be0e0b7,
AS,aom,av2,0,A1,Tango,3840x2160,60.0000,10,1280x720,160,1226.867901,36.250022,45.448548,41.764079,16.883152,13.728125,63.262834,60.598308,33.296168,38.506915,36.225206,45.426653,41.731804,0.822282,,,,,,,ac5f592f525c95261595804671067d9b,
AS,aom,av2,0,A1,Tango,3840x2160,60.0000,10,1280x720,185,573.938062,33.895407,43.375503,39.383179,13.545383,11.790620,45.224328,43.132731,30.344675,36.452953,33.856955,43.342667,39.342501,0.959596,,,,,,,c1cff8b5f884b9ecb60ccecd7aa79567,
AS,aom,av2,0,A1,Tango,3840x2160,60.0000,10,1280x720,210,257.100438,31.079370,40.940807,36.753921,10.421335,9.777635,26.974133,25.611956,27.283014,33.960489,31.030122,40.905770,36.713494,1.109551,,,,,,,2ff839780e546be24b2a8a88e31fb8dc,
AS,aom,av2,0,A1,Tango,3840x2160,60.0000,10,1280x720,235,111.488511,28.162964,37.973710,33.948862,7.900489,8.026509,10.134641,9.479013,24.342203,31.099406,28.105173,37.894583,33.903081,1.166882,,,,,,,062fa4f16ace6cc21db85b6a7cebabfc,
AS,aom,av2,0,A1,Tango,3840x2160,60.0000,10,960x540,110,4083.869361,38.459904,47.704352,44.310141,22.106979,16.025647,80.612430,78.242826,36.871558,40.560221,38.453060,47.696832,44.291293,0.625598,,,,,,,6e38eb622133f3a82ca6727a3b813a91,
AS,aom,av2,0,A1,Tango,3840x2160,60.0000,10,960x540,135,2005.981711,37.241125,46.521719,42.818441,19.022615,14.711607,69.652128,67.138131,34.731648,39.430379,37.225156,46.510107,42.793595,0.751040,,,,,,,f62bdd5eaa6b7c1d1d5b0f4c3db9695c,
AS,aom,av2,0,A1,Tango,3840x2160,60.0000,10,960x540,160,936.562514,35.316544,44.709055,40.721803,15.599206,12.960157,53.966873,51.608209,32.037214,37.721180,35.287071,44.687961,40.689037,0.953324,,,,,,,5b4466efd3b180864dedd6e297fb6b2c,
AS,aom,av2,0,A1,Tango,3840x2160,60.0000,10,960x540,185,437.208330,32.896007,42.651413,38.442899,12.380667,11.043131,36.683522,35.049900,29.205128,35.617530,32.853865,42.612156,38.406209,1.136279,,,,,,,acf9e103020f919cf9061c4f1f5a9ac5,
AS,aom,av2,0,A1,Tango,3840x2160,60.0000,10,960x540,210,193.718896,30.092006,40.277372,35.784337,9.490505,9.141275,20.175612,19.211724,26.268517,33.054219,30.041457,40.242685,35.740447,1.257305,,,,,,,267e61e77e1fc419e7d5e2e18848f169,
AS,aom,av2,0,A1,Tango,3840x2160,60.0000,10,960x540,235,83.292707,27.181617,37.165897,32.953152,7.185283,7.505213,4.088475,3.750101,23.374245,30.133201,27.126313,37.110667,32.899994,1.270180,,,,,,,9acbe4d47243f1d52e2a0df79452f909,
AS,aom,av2,0,A1,Tango,3840x2160,60.0000,10,640x360,110,2594.198417,36.821280,46.515251,42.407154,19.717577,14.606248,60.936719,58.895357,33.901244,39.286887,36.812374,46.506575,42.385998,0.694528,,,,,,,7b808afe8aff3b3dd795ea2e30afbe39,
AS,aom,av2,0,A1,Tango,3840x2160,60.0000,10,640x360,135,1288.692846,35.573610,45.300890,41.006617,16.797759,13.346763,49.281089,47.268989,32.222236,38.110267,35.554165,45.288672,40.978855,0.849635,,,,,,,1d426675636684743cfdac5a9d629a1c,
AS,aom,av2,0,A1,Tango,3840x2160,60.0000,10,640x360,160,595.051718,33.624778,43.483803,39.042414,13.595716,11.672574,34.543385,32.896382,29.932012,36.353606,33.591863,43.457812,39.004758,1.084508,,,,,,,a038520c59d5b26cb3312b641e443982,
AS,aom,av2,0,A1,Tango,3840x2160,60.0000,10,640x360,185,272.415584,31.200270,41.436044,36.917177,10.665581,9.896488,19.680418,18.791866,27.374910,34.184520,31.155728,41.395495,36.874709,1.298356,,,,,,,774380b053fe64b2d087d42877bf52ab,
AS,aom,av2,0,A1,Tango,3840x2160,60.0000,10,640x360,210,117.718589,28.466550,38.941953,34.422619,8.192859,8.226377,7.137401,6.789889,24.651569,31.605165,28.414746,38.901362,34.379487,1.379280,,,,,,,15b017203a58f9b623a51dbb45f8e5bb,
AS,aom,av2,0,A1,Tango,3840x2160,60.0000,10,640x360,235,51.013602,25.637391,36.096226,31.595529,6.223820,6.777846,0.114667,0.104285,21.888050,28.712365,25.581456,36.064344,31.542999,1.269529,,,,,,,ebd4205500c702a12dd464ad6d76caae,
AS,aom,av2,0,A1,TimeLapse,3840x2160,60.0000,10,3840x2160,110,29424.438946,43.589870,49.586604,51.308228,31.606295,23.287217,95.160842,93.377030,45.197739,44.696131,43.491792,49.560080,51.228285,0.008217,,,,,,,482164ade0c39f9e4492b1620913a194,
AS,aom,av2,0,A1,TimeLapse,3840x2160,60.0000,10,3840x2160,135,10768.572965,41.654009,47.892750,49.581130,27.888940,20.817771,92.119479,90.066777,41.515131,43.061522,41.587984,47.881583,49.535334,0.007135,,,,,,,0c18b7454dcadfed77ff2a127d029001,
AS,aom,av2,0,A1,TimeLapse,3840x2160,60.0000,10,3840x2160,160,3965.221240,39.474051,45.860594,47.442082,23.997411,18.166553,86.372305,84.028060,37.858083,41.088838,39.413702,45.854948,47.415325,0.005412,,,,,,,d687aa3efa71451775855724b77e824f,
AS,aom,av2,0,A1,TimeLapse,3840x2160,60.0000,10,3840x2160,185,1534.295858,37.080018,43.634274,45.201724,20.241196,15.450926,76.987509,74.377186,34.410716,38.834525,37.016387,43.630071,45.186064,0.006982,,,,,,,96b14eb047b879c1af8a552cf07ef583,
AS,aom,av2,0,A1,TimeLapse,3840x2160,60.0000,10,3840x2160,210,581.219396,34.495644,41.298283,42.854688,16.526147,12.722778,62.759227,60.135982,31.087712,36.379307,34.424962,41.293613,42.840445,0.010249,,,,,,,7c14b7fd18e4f77fc5e42d4ea9a49675,
AS,aom,av2,0,A1,TimeLapse,3840x2160,60.0000,10,3840x2160,235,211.273035,31.828706,38.667017,39.906744,12.893210,10.205697,44.806436,42.549871,27.945521,33.647699,31.746469,38.655892,39.847935,0.013328,,,,,,,575fc6ce2f77948781b1c29914ba9cca,
AS,aom,av2,0,A1,TimeLapse,3840x2160,60.0000,10,2560x1440,110,15280.425421,41.983017,48.234505,50.020227,29.476277,21.775364,92.996905,90.891666,42.976088,43.382861,41.917631,48.220840,49.958909,0.010305,,,,,,,bbe3f15461e3f648bc238a0f2271d2e9,
AS,aom,av2,0,A1,TimeLapse,3840x2160,60.0000,10,2560x1440,135,5928.920310,40.206430,46.625357,48.351236,25.764257,19.310858,88.771710,86.439453,39.405763,41.835916,40.146853,46.618821,48.311863,0.008220,,,,,,,dad6e70ff4fe934b7b4f43941a78de9a,
AS,aom,av2,0,A1,TimeLapse,3840x2160,60.0000,10,2560x1440,160,2279.979713,38.052041,44.630207,46.310672,21.949424,16.655099,81.242474,78.713328,35.915913,39.846616,37.991300,44.625362,46.284769,0.008641,,,,,,,7be65dc8bc55265f62ed77e20fb07581,
AS,aom,av2,0,A1,TimeLapse,3840x2160,60.0000,10,2560x1440,185,886.113271,35.659192,42.550103,44.198208,18.254003,13.965402,69.669292,67.016807,32.606319,37.615623,35.591758,42.545571,44.181678,0.011591,,,,,,,d54ae002ebfc0690529deed322290efb,
AS,aom,av2,0,A1,TimeLapse,3840x2160,60.0000,10,2560x1440,210,328.342427,33.047888,40.354775,41.949379,14.551758,11.327532,52.910650,50.519222,29.385852,35.174884,32.970007,40.349412,41.932704,0.014200,,,,,,,7c8d33d33d7e2dbf4a2496f71abe35a4,
AS,aom,av2,0,A1,TimeLapse,3840x2160,60.0000,10,2560x1440,235,118.828863,30.426102,37.955245,39.136068,11.167199,9.043383,34.554213,32.610518,26.426566,32.560925,30.340752,37.945091,39.069077,0.020464,,,,,,,c5345b6a1622af9d07bfc0e74af9c376,
AS,aom,av2,0,A1,TimeLapse,3840x2160,60.0000,10,1920x1080,110,9769.569507,40.384403,47.075001,48.992135,27.920239,20.396314,90.013170,87.631839,41.084582,42.161904,40.315885,47.066324,48.955826,0.013949,,,,,,,b4a9b9071e2ddf2d462d5c809ba8fc2c,
AS,aom,av2,0,A1,TimeLapse,3840x2160,60.0000,10,1920x1080,135,3894.078844,38.850269,45.528669,47.405167,24.232613,18.092465,84.862693,82.295593,37.802874,40.705588,38.788098,45.523894,47.377373,0.013138,,,,,,,21663902c5c6993a9d0e2a9dff23aac2,
AS,aom,av2,0,A1,TimeLapse,3840x2160,60.0000,10,1920x1080,160,1526.505495,36.870562,43.659632,45.480743,20.506647,15.537130,76.092278,73.416412,34.512969,38.820543,36.806689,43.655890,45.459466,0.016487,,,,,,,8e01664907ef306d330a8edb2416931f,
AS,aom,av2,0,A1,TimeLapse,3840x2160,60.0000,10,1920x1080,185,592.842235,34.580494,41.664684,43.505360,16.824955,12.912624,62.927911,60.292234,31.335857,36.677474,34.508514,41.660971,43.491058,0.019685,,,,,,,653d6899478469dc25c9ab6152c1e7e7,
AS,aom,av2,0,A1,TimeLapse,3840x2160,60.0000,10,1920x1080,210,216.986706,32.034022,39.618921,41.339748,13.223486,10.396052,45.775823,43.518955,28.248416,34.275428,31.952787,39.614874,41.320729,0.023654,,,,,,,61ad5870024bc19ca3db7da3d9f25734,
AS,aom,av2,0,A1,TimeLapse,3840x2160,60.0000,10,1920x1080,235,80.769692,29.490974,37.348255,38.482681,10.027997,8.311994,27.393024,25.944620,25.427224,31.713215,29.403058,37.333866,38.395708,0.032477,,,,,,,7f9cfa6ec62631e2a8188762b1d1807e,
AS,aom,av2,0,A1,TimeLapse,3840x2160,60.0000,10,1280x720,110,4888.132176,37.164541,45.312479,47.473569,25.330904,17.498289,80.342895,77.889569,36.081014,39.877237,37.080719,45.305519,47.460914,0.013197,,,,,,,1d23cf01490e86ae1bc58f62d4561a32,
AS,aom,av2,0,A1,TimeLapse,3840x2160,60.0000,10,1280x720,135,2049.986936,36.225688,43.938292,46.013156,22.004653,15.848721,73.944543,71.467125,34.273577,38.726910,36.151676,43.934310,46.000433,0.015978,,,,,,,79e47d3dfcb6fdc446aabf3361e318ec,
AS,aom,av2,0,A1,TimeLapse,3840x2160,60.0000,10,1280x720,160,841.765004,34.755381,42.285593,44.265488,18.427842,13.714200,63.491558,61.055381,31.915686,37.125797,34.681489,42.282111,44.254838,0.020326,,,,,,,e48fd89fda815f792345775882f17564,
AS,aom,av2,0,A1,TimeLapse,3840x2160,60.0000,10,1280x720,185,325.531699,32.786755,40.609883,42.454863,14.811735,11.347001,48.840825,46.731462,29.254416,35.221458,32.705016,40.606064,42.442560,0.025657,,,,,,,b05122ce74e7cada3d8388bf2a679cac,
AS,aom,av2,0,A1,TimeLapse,3840x2160,60.0000,10,1280x720,210,120.920310,30.510633,38.732707,40.333159,11.409628,9.148749,32.618055,30.997138,26.580924,32.975275,30.423796,38.729735,40.309388,0.034313,,,,,,,5321d4afd05149ba1ae44dc592997e21,
AS,aom,av2,0,A1,TimeLapse,3840x2160,60.0000,10,1280x720,235,47.443019,28.177159,36.542355,37.830066,8.612317,7.365308,17.781824,16.847596,24.073542,30.562850,28.086065,36.534060,37.765514,0.069251,,,,,,,7f9fa80aa1eb983b8c158ae9c6167b54,
AS,aom,av2,0,A1,TimeLapse,3840x2160,60.0000,10,960x540,110,2989.585184,34.685377,43.930719,46.309438,23.825962,14.915225,67.655788,65.138084,31.972914,38.030053,34.588143,43.923080,46.301391,0.015610,,,,,,,47d39bf290ca9d3c92016fa44c39e793,
AS,aom,av2,0,A1,TimeLapse,3840x2160,60.0000,10,960x540,135,1309.260586,34.106593,42.781268,45.036942,20.631463,13.863526,61.145512,58.600626,31.084118,37.134821,34.018181,42.777232,45.029845,0.021233,,,,,,,89bbca6392d9a3997e1537b685943ff2,
AS,aom,av2,0,A1,TimeLapse,3840x2160,60.0000,10,960x540,160,554.259279,33.058494,41.371372,43.436426,17.078207,12.249879,50.521917,48.157384,29.627464,35.824808,32.974572,41.368310,43.427966,0.025177,,,,,,,445dc5aa802d08e3b2f36f3d504e4dc6,
AS,aom,av2,0,A1,TimeLapse,3840x2160,60.0000,10,960x540,185,216.462922,31.463095,39.906000,41.775116,13.519027,10.265434,36.894575,35.003747,27.654979,34.163995,31.377528,39.901773,41.760201,0.029052,,,,,,,0148b35f3e9c73eee5b1d59059361d5c,
AS,aom,av2,0,A1,TimeLapse,3840x2160,60.0000,10,960x540,210,83.056636,29.490222,37.941280,39.728168,10.328227,8.394710,23.120750,21.803740,25.445999,32.057413,29.403152,37.933559,39.699857,0.043232,,,,,,,c7d204644ccf32c5abe317d23d39375c,
AS,aom,av2,0,A1,TimeLapse,3840x2160,60.0000,10,960x540,235,34.134481,27.290196,35.832184,37.323445,7.729222,6.781526,12.050811,11.186646,23.164373,29.759653,27.213998,35.824591,37.231869,0.105368,,,,,,,6691f151ed786fde250aab409da5bb39,
AS,aom,av2,0,A1,TimeLapse,3840x2160,60.0000,10,640x360,110,1393.711519,32.066817,42.524892,44.939641,20.322856,12.113489,43.144805,41.022303,28.112347,35.893391,31.967131,42.518674,44.920864,0.017959,,,,,,,e9432b6c4604b1a7bf2498af78291c68,
AS,aom,av2,0,A1,TimeLapse,3840x2160,60.0000,10,640x360,135,643.689849,31.716777,41.541874,43.803159,17.842976,11.490352,37.472502,35.512087,27.702779,35.230413,31.624124,41.537759,43.787916,0.023277,,,,,,,fade1002d65fb1b410b9f54a3ab15464,
AS,aom,av2,0,A1,TimeLapse,3840x2160,60.0000,10,640x360,160,282.507646,30.984990,40.276183,42.331269,14.759584,10.377898,28.579661,26.944620,26.882002,34.173199,30.897092,40.273525,42.312894,0.029737,,,,,,,1315a291a239aec3442da942ceab5668,
AS,aom,av2,0,A1,TimeLapse,3840x2160,60.0000,10,640x360,185,114.937370,29.739713,38.789387,40.717296,11.560251,8.849155,19.062476,17.799274,25.573802,32.668083,29.651368,38.786032,40.695919,0.036317,,,,,,,17390224ee04b5e3eefc585ddc300e7d,
AS,aom,av2,0,A1,TimeLapse,3840x2160,60.0000,10,640x360,210,47.557366,28.065323,36.948092,38.795866,8.799710,7.361540,11.064935,10.212646,23.898301,30.715509,27.979341,36.942644,38.742778,0.073475,,,,,,,bf8d6a34affde790261da73700980ead,
AS,aom,av2,0,A1,TimeLapse,3840x2160,60.0000,10,640x360,235,21.600553,26.120558,35.270868,36.717267,6.605539,6.034651,3.330632,2.997984,22.028716,28.675059,26.038299,35.263107,36.567790,0.156708,,,,,,,28e26eb572aa46ec2e9be2dc785d6c8f,
