TestCfg,EncodeMethod,CodecName,EncodePreset,Class,Name,Res,FPS,BitDepth,QP,POC,FrameType,Level,qindex,FrameSize,PSNR_Y,PSNR_U,PSNR_V,SSIM_Y(dB),MS-SSIM_Y(dB),VMAF_Y,VMAF_Y-NEG,PSNR-HVS,CIEDE2000,CAMBI
STILL,aom,av2,0,F1,animals_00.y4m,4032x3024,25,8,60,0, KEY ,1,60,5914213,48.904361,49.877310,51.003352,50.817051,34.586204,97.021045,96.401684,54.455599,48.057039,0.000000
STILL,aom,av2,0,F1,animals_00.y4m,4032x3024,25,8,85,0, KEY ,1,85,3885966,42.881721,46.024262,48.325428,44.827808,28.436035,96.247449,95.307213,49.726850,43.438138,0.000006
STILL,aom,av2,0,F1,animals_00.y4m,4032x3024,25,8,110,0, KEY ,1,110,2102617,36.786348,42.816661,45.843692,38.656437,22.155274,94.139903,92.781140,43.182623,38.799565,0.000256
STILL,aom,av2,0,F1,animals_00.y4m,4032x3024,25,8,135,0, KEY ,1,135,938868,32.180995,40.112977,43.547701,32.342922,17.588613,88.596024,86.532757,36.385998,34.972211,0.001255
STILL,aom,av2,0,F1,animals_00.y4m,4032x3024,25,8,160,0, KEY ,1,160,436165,28.757229,37.587351,41.463202,26.213590,14.239614,73.665330,71.685582,30.238789,31.964109,0.006478
STILL,aom,av2,0,F1,animals_00.y4m,4032x3024,25,8,185,0, KEY ,1,185,191613,25.336865,35.072407,39.210161,20.159401,10.632390,49.317151,47.520242,24.381904,28.837373,0.015983
STILL,aom,av2,0,F1,animals_03.y4m,4032x3024,25,8,60,0, KEY ,1,60,4112368,48.879866,50.760417,51.085581,46.325431,31.488631,96.659638,95.923242,52.804782,48.249221,0.000011
STILL,aom,av2,0,F1,animals_03.y4m,4032x3024,25,8,85,0, KEY ,1,85,2275276,42.953220,48.355641,48.693517,40.712099,25.344781,95.261274,94.272623,47.876642,44.203260,0.001909
STILL,aom,av2,0,F1,animals_03.y4m,4032x3024,25,8,110,0, KEY ,1,110,957847,37.852915,46.198196,46.719295,34.573414,19.733605,92.300581,90.666263,41.513528,40.538500,0.201338
STILL,aom,av2,0,F1,animals_03.y4m,4032x3024,25,8,135,0, KEY ,1,135,351022,34.303514,44.113110,44.816287,28.601126,15.314113,84.258351,82.103600,35.113933,37.666026,1.006858
STILL,aom,av2,0,F1,animals_03.y4m,4032x3024,25,8,160,0, KEY ,1,160,149186,31.808433,42.379592,42.945430,23.272688,12.273835,66.717981,64.890122,30.209245,35.399745,1.595242
STILL,aom,av2,0,F1,animals_03.y4m,4032x3024,25,8,185,0, KEY ,1,185,66266,29.231810,40.460370,40.461243,18.207488,9.687123,42.081722,40.757093,26.108029,32.928564,1.539006
STILL,aom,av2,0,F1,animals_09.y4m,4032x3024,25,8,60,0, KEY ,1,60,1117599,51.250880,55.604203,56.158833,44.018983,29.376954,96.478526,95.346072,50.797638,54.152508,0.015717
STILL,aom,av2,0,F1,animals_09.y4m,4032x3024,25,8,85,0, KEY ,1,85,561858,47.567058,53.203684,53.852505,38.273014,24.759091,95.278073,93.732993,46.398457,50.041963,0.039950
STILL,aom,av2,0,F1,animals_09.y4m,4032x3024,25,8,110,0, KEY ,1,110,271569,43.843402,50.917440,51.793666,32.303587,20.386713,91.830896,89.846383,41.482110,46.574578,0.134886
STILL,aom,av2,0,F1,animals_09.y4m,4032x3024,25,8,135,0, KEY ,1,135,117435,40.194935,48.330920,49.509849,26.188979,16.331942,82.378114,80.358290,36.735745,43.226387,0.541697
STILL,aom,av2,0,F1,animals_09.y4m,4032x3024,25,8,160,0, KEY ,1,160,47518,37.117806,45.253441,46.602032,20.497506,13.375186,64.909786,63.186932,33.128026,40.222954,0.675055
STILL,aom,av2,0,F1,animals_09.y4m,4032x3024,25,8,185,0, KEY ,1,185,20414,34.431916,41.707787,43.462498,15.842563,11.238950,46.328925,44.790390,30.218175,37.462440,0.907485
STILL,aom,av2,0,F1,buildings_02.y4m,4032x3024,25,8,60,0, KEY ,1,60,2992317,49.020858,52.832141,53.552655,41.837222,29.558587,97.197999,96.634440,50.241732,50.167486,0.858883
STILL,aom,av2,0,F1,buildings_02.y4m,4032x3024,25,8,85,0, KEY ,1,85,1560952,43.824688,50.485850,51.169455,35.770436,24.569285,96.750799,95.885329,46.507711,46.087245,6.179608
STILL,aom,av2,0,F1,buildings_02.y4m,4032x3024,25,8,110,0, KEY ,1,110,830542,39.967976,48.227055,49.009087,31.944036,22.227879,95.344245,94.041176,43.676644,43.223198,11.051828
STILL,aom,av2,0,F1,buildings_02.y4m,4032x3024,25,8,135,0, KEY ,1,135,448443,36.276438,45.985714,46.952797,29.335731,20.530373,91.563424,89.556306,40.244676,40.649296,10.716226
STILL,aom,av2,0,F1,buildings_02.y4m,4032x3024,25,8,160,0, KEY ,1,160,225110,32.366370,43.559306,44.587611,25.944751,18.166749,82.142862,79.443694,35.283186,37.835319,10.628491
STILL,aom,av2,0,F1,buildings_02.y4m,4032x3024,25,8,185,0, KEY ,1,185,101736,28.408595,41.159286,41.877965,21.463465,14.794100,65.461864,62.343319,29.315123,34.744592,7.518604
STILL,aom,av2,0,F1,buildings_03.y4m,4032x3024,25,8,60,0, KEY ,1,60,6401222,48.829262,50.822849,50.684070,50.178940,38.041333,97.100456,96.445264,55.373078,47.302539,0.001344
STILL,aom,av2,0,F1,buildings_03.y4m,4032x3024,25,8,85,0, KEY ,1,85,4421508,42.902270,47.837289,47.560024,44.205805,31.852212,96.385821,95.384746,50.945028,43.073167,0.002368
STILL,aom,av2,0,F1,buildings_03.y4m,4032x3024,25,8,110,0, KEY ,1,110,2752503,37.044347,45.229955,44.896881,38.070822,25.932616,94.527527,93.002706,45.050122,38.824118,0.004595
STILL,aom,av2,0,F1,buildings_03.y4m,4032x3024,25,8,135,0, KEY ,1,135,1463416,31.782975,42.716063,42.224493,31.750368,20.735910,89.224646,87.059885,37.910248,34.700138,0.008823
STILL,aom,av2,0,F1,buildings_03.y4m,4032x3024,25,8,160,0, KEY ,1,160,682604,27.361518,40.478468,39.832071,25.540752,16.027416,74.881296,72.512627,30.382993,30.979053,0.021833
STILL,aom,av2,0,F1,buildings_03.y4m,4032x3024,25,8,185,0, KEY ,1,185,286289,23.554861,38.271980,37.596948,19.491345,11.668176,49.867461,47.897260,23.586900,27.491372,0.051810
STILL,aom,av2,0,F1,church.y4m,6000x4000,25,8,60,0, KEY ,1,60,2015245,51.496792,52.157117,52.212258,45.045606,29.078761,96.413943,95.517418,49.364284,51.965684,0.534290
STILL,aom,av2,0,F1,church.y4m,6000x4000,25,8,85,0, KEY ,1,85,785049,47.906252,49.674873,49.844476,38.750539,24.966166,94.637621,93.397275,45.856182,48.566209,1.548201
STILL,aom,av2,0,F1,church.y4m,6000x4000,25,8,110,0, KEY ,1,110,366855,45.242088,47.348502,47.772959,33.368214,21.989504,90.744525,89.084627,42.677926,46.135584,1.996067
STILL,aom,av2,0,F1,church.y4m,6000x4000,25,8,135,0, KEY ,1,135,174052,42.226872,44.683332,45.477683,28.023106,18.767851,82.282742,80.149260,38.893647,43.561608,2.401763
STILL,aom,av2,0,F1,church.y4m,6000x4000,25,8,160,0, KEY ,1,160,78801,38.978479,41.843767,42.964896,22.819234,15.479750,65.636736,63.495879,34.985455,40.800903,2.619949
STILL,aom,av2,0,F1,church.y4m,6000x4000,25,8,185,0, KEY ,1,185,31610,35.705697,38.459626,40.291460,17.739213,12.328460,42.256130,40.464754,31.278234,37.782027,3.137376
STILL,aom,av2,0,F1,fireworks_01.y4m,4032x3024,25,8,60,0, KEY ,1,60,4421255,49.052915,54.930930,53.152457,42.022915,30.234683,96.444477,95.803390,53.185642,52.043394,0.000010
STILL,aom,av2,0,F1,fireworks_01.y4m,4032x3024,25,8,85,0, KEY ,1,85,2651066,42.996809,52.769338,51.543964,36.221174,24.002248,94.979315,94.033437,48.239941,47.612095,0.000098
STILL,aom,av2,0,F1,fireworks_01.y4m,4032x3024,25,8,110,0, KEY ,1,110,1063823,36.963657,50.360876,49.668902,29.737635,17.330233,91.672728,90.209369,40.836218,42.750501,0.000887
STILL,aom,av2,0,F1,fireworks_01.y4m,4032x3024,25,8,135,0, KEY ,1,135,228529,33.055811,47.617437,47.411824,23.302211,11.460286,83.313267,81.715124,33.869627,39.133430,0.206092
STILL,aom,av2,0,F1,fireworks_01.y4m,4032x3024,25,8,160,0, KEY ,1,160,50241,31.497722,44.519903,44.621584,17.145718,8.651989,66.893464,65.636685,30.341416,37.420133,9.734053
STILL,aom,av2,0,F1,fireworks_01.y4m,4032x3024,25,8,185,0, KEY ,1,185,22091,30.646317,40.950733,41.057292,14.738067,8.064886,52.515539,51.443269,28.719870,36.053422,13.337410
STILL,aom,av2,0,F1,flowerfield.y4m,3696x2448,25,8,60,0, KEY ,1,60,1313363,51.502577,51.420088,51.879330,48.725374,32.389066,96.851231,96.098011,52.879918,53.506118,0.002518
STILL,aom,av2,0,F1,flowerfield.y4m,3696x2448,25,8,85,0, KEY ,1,85,692750,47.448982,47.091173,47.702767,42.144199,27.539785,95.674585,94.580797,47.732288,48.803356,0.005382
STILL,aom,av2,0,F1,flowerfield.y4m,3696x2448,25,8,110,0, KEY ,1,110,361992,43.802146,43.283415,44.069376,36.155525,23.807810,92.810235,91.216673,42.578750,45.240432,0.005601
STILL,aom,av2,0,F1,flowerfield.y4m,3696x2448,25,8,135,0, KEY ,1,135,189803,40.168057,39.648506,40.609638,30.257056,20.153292,85.323440,83.476217,37.351962,41.777234,0.004950
STILL,aom,av2,0,F1,flowerfield.y4m,3696x2448,25,8,160,0, KEY ,1,160,97506,36.373315,36.171053,37.182936,24.461707,16.468019,69.715620,67.828529,32.412099,38.192911,0.009999
STILL,aom,av2,0,F1,flowerfield.y4m,3696x2448,25,8,185,0, KEY ,1,185,47544,32.539137,32.832857,33.639537,19.033825,12.985619,45.970401,44.253569,27.908359,34.527300,0.023411
STILL,aom,av2,0,F1,flowers_08.y4m,4032x3024,25,8,60,0, KEY ,1,60,5439431,48.831010,50.079533,51.261444,50.724316,33.400865,97.099258,96.507900,54.063349,48.918995,0.009045
STILL,aom,av2,0,F1,flowers_08.y4m,4032x3024,25,8,85,0, KEY ,1,85,3394947,42.928599,45.757443,47.741985,44.703716,27.347979,96.417791,95.505143,49.067496,43.973736,0.017131
STILL,aom,av2,0,F1,flowers_08.y4m,4032x3024,25,8,110,0, KEY ,1,110,1899998,37.721902,42.052213,44.397008,38.529134,22.433928,94.536859,93.121237,42.882440,39.682606,0.031781
STILL,aom,av2,0,F1,flowers_08.y4m,4032x3024,25,8,135,0, KEY ,1,135,986367,33.252488,38.868606,41.319283,32.422677,18.476793,89.243310,87.104308,36.568579,35.939811,0.046699
STILL,aom,av2,0,F1,flowers_08.y4m,4032x3024,25,8,160,0, KEY ,1,160,471750,29.228918,35.838405,38.414789,26.514537,14.603144,75.124357,72.848932,30.322376,32.506218,0.082940
STILL,aom,av2,0,F1,flowers_08.y4m,4032x3024,25,8,185,0, KEY ,1,185,212568,25.554321,32.604873,35.423990,20.487010,10.759449,51.721873,49.812355,24.387033,29.134220,0.117056
STILL,aom,av2,0,F1,flowers_12.y4m,4032x3024,25,8,60,0, KEY ,1,60,4243797,48.714944,51.963587,53.071917,51.872934,33.803301,97.106916,96.608932,54.231020,49.171909,0.000112
STILL,aom,av2,0,F1,flowers_12.y4m,4032x3024,25,8,85,0, KEY ,1,85,2433473,43.001419,49.114726,50.598070,45.973540,27.869652,96.411305,95.680221,49.284124,44.483100,0.000184
STILL,aom,av2,0,F1,flowers_12.y4m,4032x3024,25,8,110,0, KEY ,1,110,1211633,38.156558,46.394929,47.968686,39.680021,22.887245,94.972333,93.608550,42.844740,40.441242,0.001313
STILL,aom,av2,0,F1,flowers_12.y4m,4032x3024,25,8,135,0, KEY ,1,135,569403,34.329430,43.526421,45.218860,33.542575,18.920513,90.026987,88.156338,36.327687,37.060717,0.016616
STILL,aom,av2,0,F1,flowers_12.y4m,4032x3024,25,8,160,0, KEY ,1,160,282929,31.053457,40.853335,42.725864,27.475697,15.360634,77.931600,75.804757,30.501337,34.078136,0.030554
STILL,aom,av2,0,F1,flowers_12.y4m,4032x3024,25,8,185,0, KEY ,1,185,137742,27.628208,37.958444,40.028898,21.423690,11.657800,57.935271,55.949402,25.177751,30.863628,0.047327
STILL,aom,av2,0,F1,food_02.y4m,4032x3024,25,8,60,0, KEY ,1,60,3196131,48.642553,53.251333,54.170160,45.812672,29.999569,97.017769,96.337997,52.371240,50.753450,0.000315
STILL,aom,av2,0,F1,food_02.y4m,4032x3024,25,8,85,0, KEY ,1,85,1507504,43.223044,50.511271,51.880185,39.407406,23.758744,96.309861,95.292864,46.948255,45.918482,0.003077
STILL,aom,av2,0,F1,food_02.y4m,4032x3024,25,8,110,0, KEY ,1,110,645298,39.166910,47.798803,49.616104,33.037101,18.639488,94.150682,92.706947,40.635398,42.280440,0.023463
STILL,aom,av2,0,F1,food_02.y4m,4032x3024,25,8,135,0, KEY ,1,135,257317,36.020791,45.065931,47.211459,27.836535,15.322815,87.684159,85.838353,35.630113,39.411350,0.108221
STILL,aom,av2,0,F1,food_02.y4m,4032x3024,25,8,160,0, KEY ,1,160,112801,33.401197,42.084179,44.499459,22.717919,12.853872,74.358232,72.193670,31.637897,36.953810,0.206494
STILL,aom,av2,0,F1,food_02.y4m,4032x3024,25,8,185,0, KEY ,1,185,47088,30.542831,38.793213,41.347919,17.504279,10.212563,54.888265,52.940187,27.628701,34.311906,0.830075
STILL,aom,av2,0,F1,fountain.y4m,6406x4270,25,8,60,0, KEY ,1,60,7613738,48.895907,51.846075,52.244507,49.193685,30.116657,96.677851,95.766547,51.978991,51.256088,0.000091
STILL,aom,av2,0,F1,fountain.y4m,6406x4270,25,8,85,0, KEY ,1,85,4028790,43.314854,49.094256,49.667676,43.365404,24.195025,95.322843,94.116997,47.153765,46.309980,0.000390
STILL,aom,av2,0,F1,fountain.y4m,6406x4270,25,8,110,0, KEY ,1,110,1547655,38.460463,46.266837,46.900614,37.384311,18.723947,92.169349,90.576136,41.195810,41.885958,0.001447
STILL,aom,av2,0,F1,fountain.y4m,6406x4270,25,8,135,0, KEY ,1,135,488497,35.355695,43.316899,43.970918,31.552738,15.278342,84.853127,82.820569,36.250797,38.879027,0.375181
STILL,aom,av2,0,F1,fountain.y4m,6406x4270,25,8,160,0, KEY ,1,160,221680,33.448000,40.152229,40.756669,26.232140,13.351540,70.196031,68.003128,32.296773,36.823211,0.599659
STILL,aom,av2,0,F1,fountain.y4m,6406x4270,25,8,185,0, KEY ,1,185,96422,30.994277,36.672144,37.264170,21.129434,10.963523,47.246543,45.358827,28.138432,34.323391,0.460856
STILL,aom,av2,0,F1,lady.y4m,4480x6720,25,8,60,0, KEY ,1,60,5703499,48.798456,55.770740,55.521047,45.667085,27.770944,96.339898,95.539634,49.984630,50.235944,0.112474
STILL,aom,av2,0,F1,lady.y4m,4480x6720,25,8,85,0, KEY ,1,85,1944436,43.316189,53.814184,53.391597,38.930902,21.466893,95.023166,93.933111,44.897261,45.238732,0.898428
STILL,aom,av2,0,F1,lady.y4m,4480x6720,25,8,110,0, KEY ,1,110,405527,40.511054,51.786384,51.212670,33.358667,18.011751,92.209606,90.717075,41.145859,42.556734,5.470099
STILL,aom,av2,0,F1,lady.y4m,4480x6720,25,8,135,0, KEY ,1,135,163772,39.169799,49.461343,48.913099,28.851095,16.389407,84.397099,82.658797,38.473161,41.244794,5.391161
STILL,aom,av2,0,F1,lady.y4m,4480x6720,25,8,160,0, KEY ,1,160,66290,37.510405,46.752587,46.302082,23.937145,14.525946,68.728498,67.119772,35.522888,39.641452,4.962859
STILL,aom,av2,0,F1,lady.y4m,4480x6720,25,8,185,0, KEY ,1,185,25657,35.520683,43.890136,43.246201,18.844741,12.484200,46.645055,45.341447,32.551070,37.661550,4.767542
STILL,aom,av2,0,F1,landscape_05.y4m,4032x3024,25,8,60,0, KEY ,1,60,4480962,48.877436,51.111513,51.849042,48.302682,32.095118,96.970346,96.363236,53.488839,49.763362,0.000002
STILL,aom,av2,0,F1,landscape_05.y4m,4032x3024,25,8,85,0, KEY ,1,85,2677197,43.149920,47.623605,48.745621,42.383961,26.135125,96.114207,95.212899,48.426240,44.752341,0.000067
STILL,aom,av2,0,F1,landscape_05.y4m,4032x3024,25,8,110,0, KEY ,1,110,1357453,38.044979,44.328036,45.584209,36.490703,20.712156,93.979426,92.557096,42.042044,40.329339,0.014982
STILL,aom,av2,0,F1,landscape_05.y4m,4032x3024,25,8,135,0, KEY ,1,135,647852,34.175433,41.227595,42.528441,30.713319,16.965284,87.656718,85.766269,36.026571,36.904529,0.048368
STILL,aom,av2,0,F1,landscape_05.y4m,4032x3024,25,8,160,0, KEY ,1,160,315525,30.746893,38.189397,39.739306,24.755171,13.708171,72.412611,70.537882,30.472532,33.860263,0.093792
STILL,aom,av2,0,F1,landscape_05.y4m,4032x3024,25,8,185,0, KEY ,1,185,141878,27.162129,35.178767,36.597128,18.949154,10.313324,49.228850,47.518789,25.079484,30.713450,0.262634
STILL,aom,av2,0,F1,landscape_15.y4m,4032x3024,25,8,60,0, KEY ,1,60,2957038,49.565990,53.409634,53.964492,44.198992,30.426811,97.036019,96.320096,51.242388,50.596821,0.992722
STILL,aom,av2,0,F1,landscape_15.y4m,4032x3024,25,8,85,0, KEY ,1,85,1717883,44.399064,50.994915,51.606736,38.212562,25.381263,96.278077,95.233524,47.179206,46.329058,2.819808
STILL,aom,av2,0,F1,landscape_15.y4m,4032x3024,25,8,110,0, KEY ,1,110,884702,39.643390,48.578895,49.315102,33.753005,21.178520,94.215117,92.637601,42.521878,42.634592,3.328098
STILL,aom,av2,0,F1,landscape_15.y4m,4032x3024,25,8,135,0, KEY ,1,135,414034,35.627765,45.892540,47.186902,28.901656,17.576424,88.052036,85.997161,37.262902,39.380251,3.273400
STILL,aom,av2,0,F1,landscape_15.y4m,4032x3024,25,8,160,0, KEY ,1,160,191741,32.164517,43.376232,45.051066,23.932469,14.362140,74.133837,72.003995,31.988650,36.453072,3.349173
STILL,aom,av2,0,F1,landscape_15.y4m,4032x3024,25,8,185,0, KEY ,1,185,81244,28.763413,40.514546,42.313232,19.228200,11.304604,52.287055,50.307496,26.862030,33.484629,3.131905
STILL,aom,av2,0,F1,landscape_16.y4m,4032x3024,25,8,60,0, KEY ,1,60,1610641,50.448229,56.961520,57.860405,42.680713,29.651631,96.873920,96.110040,51.383497,52.825136,0.000003
STILL,aom,av2,0,F1,landscape_16.y4m,4032x3024,25,8,85,0, KEY ,1,85,900516,46.344728,54.780706,55.559364,36.703519,24.730082,96.009340,94.815520,46.784530,48.646524,0.000027
STILL,aom,av2,0,F1,landscape_16.y4m,4032x3024,25,8,110,0, KEY ,1,110,483251,42.225786,52.742532,53.464201,30.776932,20.142644,93.785742,91.944100,41.526124,45.063834,0.000242
STILL,aom,av2,0,F1,landscape_16.y4m,4032x3024,25,8,135,0, KEY ,1,135,240976,38.261638,50.642432,51.353559,25.524280,16.239020,86.670138,84.578034,36.513467,41.694973,0.016363
STILL,aom,av2,0,F1,landscape_16.y4m,4032x3024,25,8,160,0, KEY ,1,160,115441,34.586969,48.409053,49.179327,21.303396,13.182913,70.642308,68.574102,31.965949,38.414405,0.136194
STILL,aom,av2,0,F1,landscape_16.y4m,4032x3024,25,8,185,0, KEY ,1,185,49980,31.070964,45.340282,46.858981,16.600136,10.251820,47.526642,46.316346,27.629617,35.119939,0.457693
STILL,aom,av2,0,F1,landscape_18.y4m,4032x3024,25,8,60,0, KEY ,1,60,2691860,49.644401,54.327647,55.808530,40.995641,29.919705,96.947110,96.192344,50.288112,51.102776,1.152788
STILL,aom,av2,0,F1,landscape_18.y4m,4032x3024,25,8,85,0, KEY ,1,85,1554488,44.623614,52.117329,53.929862,35.841391,25.643374,95.986126,94.925623,47.325241,47.154090,1.294575
STILL,aom,av2,0,F1,landscape_18.y4m,4032x3024,25,8,110,0, KEY ,1,110,684694,39.478619,50.015415,52.096383,31.593269,21.005167,93.441909,91.970609,43.127465,43.363664,1.305011
STILL,aom,av2,0,F1,landscape_18.y4m,4032x3024,25,8,135,0, KEY ,1,135,264897,35.910712,47.972768,50.133564,27.247992,17.106776,86.861360,84.817412,37.768287,40.443200,1.293375
STILL,aom,av2,0,F1,landscape_18.y4m,4032x3024,25,8,160,0, KEY ,1,160,111477,33.153113,45.726593,47.815259,22.362903,14.030760,71.364324,69.142027,32.943079,37.948106,1.410110
STILL,aom,av2,0,F1,landscape_18.y4m,4032x3024,25,8,185,0, KEY ,1,185,42584,30.308894,43.254333,45.267840,17.371814,11.172695,49.018414,47.086086,28.560115,35.376605,1.547890
STILL,aom,av2,0,F1,landscape_25.y4m,4032x3024,25,8,60,0, KEY ,1,60,5240061,48.938664,49.332821,50.894452,42.525171,31.438650,96.562331,95.692578,53.155709,47.123424,0.006501
STILL,aom,av2,0,F1,landscape_25.y4m,4032x3024,25,8,85,0, KEY ,1,85,3250623,43.001552,45.761444,48.769601,36.620702,25.259027,95.003646,93.868986,48.443058,42.855519,0.007046
STILL,aom,av2,0,F1,landscape_25.y4m,4032x3024,25,8,110,0, KEY ,1,110,1608431,37.048095,44.105966,47.489049,30.537252,18.993912,91.924573,90.039465,41.803525,39.278103,0.011149
STILL,aom,av2,0,F1,landscape_25.y4m,4032x3024,25,8,135,0, KEY ,1,135,542188,32.284537,42.812793,46.243495,24.420395,12.974975,82.614530,80.277426,34.334866,35.902834,0.343395
STILL,aom,av2,0,F1,landscape_25.y4m,4032x3024,25,8,160,0, KEY ,1,160,113635,29.137804,41.653241,44.989797,18.587586,8.214970,63.517102,61.725596,28.443070,33.371962,3.482641
STILL,aom,av2,0,F1,landscape_25.y4m,4032x3024,25,8,185,0, KEY ,1,185,30851,27.798055,40.099926,43.094964,14.529076,6.517426,43.830382,42.776160,25.916133,32.002485,6.473617
STILL,aom,av2,0,F1,landscape_26.y4m,4032x3024,25,8,60,0, KEY ,1,60,3151989,49.213465,53.174045,53.319294,43.531470,29.923319,96.918002,96.013111,50.954535,50.177473,0.518283
STILL,aom,av2,0,F1,landscape_26.y4m,4032x3024,25,8,85,0, KEY ,1,85,1710087,43.767875,51.219200,51.530575,37.714016,24.636436,95.887820,94.625417,46.974773,45.958903,0.649721
STILL,aom,av2,0,F1,landscape_26.y4m,4032x3024,25,8,110,0, KEY ,1,110,759754,39.021130,49.385266,49.922906,32.662516,20.274342,93.139976,91.357865,42.291376,42.283220,0.659031
STILL,aom,av2,0,F1,landscape_26.y4m,4032x3024,25,8,135,0, KEY ,1,135,313011,35.576281,47.509749,48.195606,27.673679,16.787521,85.353994,83.176027,37.181981,39.483744,0.702599
STILL,aom,av2,0,F1,landscape_26.y4m,4032x3024,25,8,160,0, KEY ,1,160,135544,32.625239,45.465348,46.149273,22.453673,13.643951,68.939991,66.624937,32.291693,36.954780,0.728482
STILL,aom,av2,0,F1,landscape_26.y4m,4032x3024,25,8,185,0, KEY ,1,185,52370,29.509347,42.955282,43.716109,17.243187,10.390081,44.875381,42.925423,27.561511,34.214224,0.784402
STILL,aom,av2,0,F1,landscape_28.y4m,4032x3024,25,8,60,0, KEY ,1,60,3452175,49.080795,51.240207,52.853142,40.122659,29.663689,97.088369,96.504440,51.108111,50.312781,0.378402
STILL,aom,av2,0,F1,landscape_28.y4m,4032x3024,25,8,85,0, KEY ,1,85,1871699,43.684365,48.195231,49.976832,34.373303,23.959060,96.410006,95.529875,46.758099,46.411719,1.618039
STILL,aom,av2,0,F1,landscape_28.y4m,4032x3024,25,8,110,0, KEY ,1,110,934619,39.224906,45.473789,47.199233,30.316510,19.236314,94.724207,93.318273,41.368602,42.987722,4.365091
STILL,aom,av2,0,F1,landscape_28.y4m,4032x3024,25,8,135,0, KEY ,1,135,434209,35.412655,42.898547,44.684322,27.033856,16.542277,89.388214,87.493742,36.937128,39.952930,9.709616
STILL,aom,av2,0,F1,landscape_28.y4m,4032x3024,25,8,160,0, KEY ,1,160,197456,32.040097,40.456649,42.313902,23.914644,14.466524,76.851920,74.617088,32.253263,37.099978,10.033204
STILL,aom,av2,0,F1,landscape_28.y4m,4032x3024,25,8,185,0, KEY ,1,185,85834,28.764501,37.916651,40.033303,18.760471,11.866914,55.428209,53.467279,27.179570,34.113518,8.495840
STILL,aom,av2,0,F1,lodge.y4m,6000x4000,25,8,60,0, KEY ,1,60,6976533,48.787245,51.209386,51.663399,45.667085,29.871746,96.611602,95.641594,51.371859,49.565887,0.000009
STILL,aom,av2,0,F1,lodge.y4m,6000x4000,25,8,85,0, KEY ,1,85,3737305,43.595020,47.316284,48.372502,39.689651,24.412625,95.001423,93.721489,46.929139,44.752723,0.011127
STILL,aom,av2,0,F1,lodge.y4m,6000x4000,25,8,110,0, KEY ,1,110,1764176,39.202177,43.757670,45.441318,34.386076,19.789278,91.339245,89.723753,41.777645,40.837020,0.383620
STILL,aom,av2,0,F1,lodge.y4m,6000x4000,25,8,135,0, KEY ,1,135,843854,35.596601,40.689437,42.746380,28.932926,16.474368,82.508468,80.563158,36.493450,37.738131,0.750470
STILL,aom,av2,0,F1,lodge.y4m,6000x4000,25,8,160,0, KEY ,1,160,364196,31.903217,38.051813,40.411474,23.415413,13.014865,62.811522,60.953025,30.862148,34.699437,0.945202
STILL,aom,av2,0,F1,lodge.y4m,6000x4000,25,8,185,0, KEY ,1,185,125097,28.430630,35.815816,38.450586,17.906414,9.571807,32.901109,31.766913,25.760605,31.769105,1.136104
STILL,aom,av2,0,F1,party.y4m,6720x4480,25,8,60,0, KEY ,1,60,5188742,48.665902,56.778529,57.071567,44.947456,27.362797,96.769464,96.122070,49.638063,50.581636,0.000013
STILL,aom,av2,0,F1,party.y4m,6720x4480,25,8,85,0, KEY ,1,85,1375908,43.256113,55.092599,55.410027,38.114201,20.977834,96.323293,95.453858,44.430692,45.354419,0.651882
STILL,aom,av2,0,F1,party.y4m,6720x4480,25,8,110,0, KEY ,1,110,237310,41.090022,53.066662,53.418870,32.048147,17.921771,94.936061,93.630196,41.021352,43.173186,7.158267
STILL,aom,av2,0,F1,party.y4m,6720x4480,25,8,135,0, KEY ,1,135,92425,40.208265,50.634222,51.072689,27.325184,16.817727,90.759419,89.154403,39.404408,42.258196,9.384499
STILL,aom,av2,0,F1,party.y4m,6720x4480,25,8,160,0, KEY ,1,160,43840,39.100396,47.265617,47.699397,23.338520,15.977743,82.300267,80.426225,37.568922,40.893862,9.361138
STILL,aom,av2,0,F1,party.y4m,6720x4480,25,8,185,0, KEY ,1,185,20344,37.340556,43.417085,44.004517,19.946953,14.888669,66.555308,64.647668,34.795019,38.800408,9.738075
STILL,aom,av2,0,F1,river.y4m,5184x3456,25,8,60,0, KEY ,1,60,2622059,48.721529,53.087752,53.709537,46.449363,28.106145,95.814886,94.825909,49.986705,48.449508,0.000076
STILL,aom,av2,0,F1,river.y4m,5184x3456,25,8,85,0, KEY ,1,85,700879,44.298435,50.336584,51.310015,40.069728,22.472318,94.051938,92.508863,45.105433,44.609915,0.193107
STILL,aom,av2,0,F1,river.y4m,5184x3456,25,8,110,0, KEY ,1,110,286810,42.681703,47.532596,48.982036,33.996835,20.143194,89.693098,87.957984,41.750830,42.821483,0.427989
STILL,aom,av2,0,F1,river.y4m,5184x3456,25,8,135,0, KEY ,1,135,141163,40.806893,44.594479,46.911791,28.355715,17.932512,80.800735,78.893209,38.312855,40.985390,0.604577
STILL,aom,av2,0,F1,river.y4m,5184x3456,25,8,160,0, KEY ,1,160,68046,38.226387,41.779268,44.911052,23.198151,15.384784,64.199499,62.269644,34.597813,38.668734,0.862016
STILL,aom,av2,0,F1,river.y4m,5184x3456,25,8,185,0, KEY ,1,185,30130,35.072092,39.064077,43.039909,18.489539,12.565347,40.556248,39.152899,30.871491,36.015587,0.960008
STILL,aom,av2,0,F1,santa.y4m,5616x3744,25,8,60,0, KEY ,1,60,2703709,48.828096,53.979497,53.377503,45.563340,27.719735,96.304689,95.425760,49.451739,51.114755,0.308152
STILL,aom,av2,0,F1,santa.y4m,5616x3744,25,8,85,0, KEY ,1,85,685942,44.581880,51.810346,51.201751,38.957290,22.435721,94.721300,93.536533,44.991072,47.105756,2.484618
STILL,aom,av2,0,F1,santa.y4m,5616x3744,25,8,110,0, KEY ,1,110,266865,43.073009,49.687437,48.800777,34.182008,20.538973,91.101439,89.451807,42.424982,45.411026,2.994920
STILL,aom,av2,0,F1,santa.y4m,5616x3744,25,8,135,0, KEY ,1,135,128859,41.392665,47.185444,46.022762,29.425511,18.589159,83.126269,81.110252,39.456142,43.582840,2.961336
STILL,aom,av2,0,F1,santa.y4m,5616x3744,25,8,160,0, KEY ,1,160,61106,39.113858,44.199830,42.920684,24.357247,16.207323,67.432592,65.350197,36.012386,41.182143,3.124884
STILL,aom,av2,0,F1,santa.y4m,5616x3744,25,8,185,0, KEY ,1,185,27576,36.428661,40.833239,39.431533,19.341400,13.708305,43.569450,41.451950,32.529073,38.228688,2.900994
STILL,aom,av2,0,F1,seafood.y4m,5184x3456,25,8,60,0, KEY ,1,60,4717819,48.686307,52.510706,52.588506,48.014740,29.744458,96.653442,95.823233,51.636499,49.007533,0.000000
STILL,aom,av2,0,F1,seafood.y4m,5184x3456,25,8,85,0, KEY ,1,85,2136045,43.023879,49.474003,49.692262,41.528379,23.399026,95.237717,94.074567,46.354631,44.300189,0.106296
STILL,aom,av2,0,F1,seafood.y4m,5184x3456,25,8,110,0, KEY ,1,110,756883,39.261922,46.443130,46.841624,35.358553,19.005549,92.090853,90.484287,41.093595,40.964228,1.133440
STILL,aom,av2,0,F1,seafood.y4m,5184x3456,25,8,135,0, KEY ,1,135,351370,36.827577,43.510178,44.012147,30.291800,16.809774,84.517594,82.561244,36.880395,38.672458,1.248697
STILL,aom,av2,0,F1,seafood.y4m,5184x3456,25,8,160,0, KEY ,1,160,159237,33.998109,40.723373,41.244997,25.050655,14.109842,68.677874,66.565535,32.122766,36.196846,1.302463
STILL,aom,av2,0,F1,seafood.y4m,5184x3456,25,8,185,0, KEY ,1,185,65721,30.934600,37.963129,38.330237,19.851151,11.094689,43.181764,41.459878,27.648248,33.403106,1.285647
STILL,aom,av2,0,F1,snow_00.y4m,4032x3024,25,8,60,0, KEY ,1,60,3833320,48.709112,53.732764,54.244927,43.934902,29.274789,96.887107,96.118380,51.956371,50.639818,0.000000
STILL,aom,av2,0,F1,snow_00.y4m,4032x3024,25,8,85,0, KEY ,1,85,2054925,42.703812,50.906036,51.621243,37.471646,22.797143,96.115584,95.054848,46.435509,45.676424,0.000010
STILL,aom,av2,0,F1,snow_00.y4m,4032x3024,25,8,110,0, KEY ,1,110,726946,37.537020,48.761542,49.507057,31.301789,16.682249,94.002777,92.546461,39.986546,41.490932,0.000139
STILL,aom,av2,0,F1,snow_00.y4m,4032x3024,25,8,135,0, KEY ,1,135,227352,34.852596,46.778903,47.486308,26.755694,13.972641,87.592756,85.757386,36.041454,39.170234,0.032729
STILL,aom,av2,0,F1,snow_00.y4m,4032x3024,25,8,160,0, KEY ,1,160,103863,32.979630,44.695778,45.795140,22.284578,12.555445,73.532580,71.735102,32.693019,37.473918,0.043827
STILL,aom,av2,0,F1,snow_00.y4m,4032x3024,25,8,185,0, KEY ,1,185,46169,30.585814,42.464369,44.267369,17.766384,10.812301,52.372019,50.761428,28.704847,35.519142,0.062704
STILL,aom,av2,0,F1,trees.y4m,4928x3264,25,8,60,0, KEY ,1,60,3521437,49.164573,52.489641,52.438922,47.319595,31.390853,96.879589,96.110244,52.727219,48.114065,0.000275
STILL,aom,av2,0,F1,trees.y4m,4928x3264,25,8,85,0, KEY ,1,85,1850803,44.642850,49.330364,49.276921,41.344618,26.259358,95.899701,94.688429,47.896849,44.228343,0.001220
STILL,aom,av2,0,F1,trees.y4m,4928x3264,25,8,110,0, KEY ,1,110,966902,40.810737,46.089990,46.236264,35.301147,21.582369,93.307169,91.445742,42.083784,40.997793,0.004921
STILL,aom,av2,0,F1,trees.y4m,4928x3264,25,8,135,0, KEY ,1,135,498245,36.967912,42.830821,43.534354,28.993274,17.065735,85.749532,83.517417,36.132762,37.742146,0.024234
STILL,aom,av2,0,F1,trees.y4m,4928x3264,25,8,160,0, KEY ,1,160,240327,33.102754,39.946753,41.594924,22.854753,12.941548,69.023632,66.925991,30.729252,34.595231,0.086483
STILL,aom,av2,0,F1,trees.y4m,4928x3264,25,8,185,0, KEY ,1,185,101905,29.326107,37.560773,39.812831,16.897488,9.392095,44.976762,43.492187,25.946209,31.586932,0.341464
STILL,aom,av2,0,F1,underwater_01.y4m,4032x3024,25,8,60,0, KEY ,1,60,3659452,48.794947,50.762631,51.399646,48.536520,31.330119,96.594428,95.736870,53.320751,48.903127,0.000639
STILL,aom,av2,0,F1,underwater_01.y4m,4032x3024,25,8,85,0, KEY ,1,85,1789434,42.970907,47.860780,48.632057,42.299630,25.172490,94.839440,93.790739,47.770405,44.330023,0.011600
STILL,aom,av2,0,F1,underwater_01.y4m,4032x3024,25,8,110,0, KEY ,1,110,706315,38.707595,44.711416,45.659216,35.948009,20.330451,91.203059,89.642837,41.231420,40.634648,0.022592
STILL,aom,av2,0,F1,underwater_01.y4m,4032x3024,25,8,135,0, KEY ,1,135,305677,35.942096,41.175765,42.454431,29.759377,16.981197,81.760784,79.852809,35.659645,37.864427,0.044716
STILL,aom,av2,0,F1,underwater_01.y4m,4032x3024,25,8,160,0, KEY ,1,160,145537,33.336307,37.456039,39.208186,23.698129,13.701048,62.260133,60.569052,30.803075,35.113236,0.054175
STILL,aom,av2,0,F1,underwater_01.y4m,4032x3024,25,8,185,0, KEY ,1,185,63020,30.250851,34.061911,36.266866,17.707598,10.223179,34.166795,33.161386,26.387109,32.149022,0.114068
STILL,aom,av2,0,F2,Adventure_with_the_Windmills.y4m,896x1110,24,8,60,0, KEY ,1,60,594569,48.959346,50.655054,52.322922,39.762562,36.897009,97.071835,96.223487,53.539946,46.932317,0.002720
STILL,aom,av2,0,F2,Adventure_with_the_Windmills.y4m,896x1110,24,8,85,0, KEY ,1,85,447248,43.239166,49.474051,51.516246,33.675684,31.207192,96.252183,94.998558,51.003040,43.621583,0.001798
STILL,aom,av2,0,F2,Adventure_with_the_Windmills.y4m,896x1110,24,8,110,0, KEY ,1,110,318499,37.238407,48.712141,50.894714,27.396518,25.055828,93.825010,92.234457,46.299965,39.538805,0.001570
STILL,aom,av2,0,F2,Adventure_with_the_Windmills.y4m,896x1110,24,8,135,0, KEY ,1,135,201497,31.365567,48.017962,50.472714,20.958007,18.901843,86.875649,85.059764,38.334012,34.755667,0.006164
STILL,aom,av2,0,F2,Adventure_with_the_Windmills.y4m,896x1110,24,8,160,0, KEY ,1,160,103245,25.707084,48.022917,50.043468,15.048510,13.408699,70.374247,68.440867,30.226526,29.717595,0.001310
STILL,aom,av2,0,F2,Adventure_with_the_Windmills.y4m,896x1110,24,8,185,0, KEY ,1,185,30571,20.609705,43.750835,46.702046,9.940802,8.459790,40.643762,39.238696,23.060731,24.547531,0.002434
STILL,aom,av2,0,F2,Agapanthus_Postbloom2.y4m,1208x948,24,8,60,0, KEY ,1,60,146200,49.442471,50.414876,50.134714,34.121407,29.898029,96.951291,96.305487,50.098632,48.349946,2.834658
STILL,aom,av2,0,F2,Agapanthus_Postbloom2.y4m,1208x948,24,8,85,0, KEY ,1,85,77406,46.724160,47.616461,48.381524,30.520878,27.533403,95.829560,94.883580,47.545573,45.792440,3.606460
STILL,aom,av2,0,F2,Agapanthus_Postbloom2.y4m,1208x948,24,8,110,0, KEY ,1,110,44509,43.572776,44.374691,46.613012,26.862341,24.968236,93.443707,91.942291,43.998316,43.111271,3.169889
STILL,aom,av2,0,F2,Agapanthus_Postbloom2.y4m,1208x948,24,8,135,0, KEY ,1,135,24892,39.834308,40.850634,44.385295,22.804643,21.680923,87.325192,85.336374,39.209278,40.015646,2.792045
STILL,aom,av2,0,F2,Agapanthus_Postbloom2.y4m,1208x948,24,8,160,0, KEY ,1,160,13354,35.806538,37.248112,42.079172,18.555449,18.016386,74.340560,71.940572,33.922066,36.535149,2.341849
STILL,aom,av2,0,F2,Agapanthus_Postbloom2.y4m,1208x948,24,8,185,0, KEY ,1,185,6603,31.584218,33.557048,40.167724,14.087764,13.988595,51.551560,49.286694,28.476199,32.813270,2.101053
STILL,aom,av2,0,F2,Baruch.y4m,968x1188,24,8,60,0, KEY ,1,60,644320,48.868603,51.462114,52.840191,37.701799,37.124701,96.981929,95.904786,53.002478,46.921801,0.000028
STILL,aom,av2,0,F2,Baruch.y4m,968x1188,24,8,85,0, KEY ,1,85,486263,43.256445,50.939478,52.370115,31.886502,31.939944,95.811070,94.391229,51.295122,43.905372,0.000143
STILL,aom,av2,0,F2,Baruch.y4m,968x1188,24,8,110,0, KEY ,1,110,345046,37.321012,50.629001,51.996646,25.974565,26.165957,93.521016,91.335646,47.745628,39.914221,0.000089
STILL,aom,av2,0,F2,Baruch.y4m,968x1188,24,8,135,0, KEY ,1,135,217111,31.554916,50.165121,51.479062,19.936812,20.123166,85.831890,83.276445,39.962883,35.166905,0.000032
STILL,aom,av2,0,F2,Baruch.y4m,968x1188,24,8,160,0, KEY ,1,160,110386,25.913244,50.127040,50.497609,13.948670,14.243846,68.094918,65.382213,31.072302,30.080458,0.000015
STILL,aom,av2,0,F2,Baruch.y4m,968x1188,24,8,185,0, KEY ,1,185,34266,20.973077,47.370719,46.629509,8.358274,8.672147,40.995664,39.173743,23.442975,25.149460,0.000003
STILL,aom,av2,0,F2,Berlin-Fernsehturm.y4m,1290x856,24,8,60,0, KEY ,1,60,115762,49.965199,51.158570,50.839777,29.197772,28.349883,96.806343,95.992653,48.602710,46.555652,1.917892
STILL,aom,av2,0,F2,Berlin-Fernsehturm.y4m,1290x856,24,8,85,0, KEY ,1,85,55474,46.878046,49.565531,48.641456,24.772071,24.777365,95.549347,94.415864,45.832829,44.634061,7.035942
STILL,aom,av2,0,F2,Berlin-Fernsehturm.y4m,1290x856,24,8,110,0, KEY ,1,110,27708,43.637381,47.829903,46.357658,21.400972,21.706563,92.473240,90.982057,42.827240,42.856671,8.265728
STILL,aom,av2,0,F2,Berlin-Fernsehturm.y4m,1290x856,24,8,135,0, KEY ,1,135,12944,40.151576,45.495087,43.870261,18.215805,18.674761,85.358891,83.254395,39.026067,40.868424,8.756790
STILL,aom,av2,0,F2,Berlin-Fernsehturm.y4m,1290x856,24,8,160,0, KEY ,1,160,5610,36.671983,43.040351,41.676952,15.125687,15.647280,70.264566,68.223333,34.961788,38.614767,8.076040
STILL,aom,av2,0,F2,Berlin-Fernsehturm.y4m,1290x856,24,8,185,0, KEY ,1,185,2090,33.328057,40.172011,39.447246,11.935664,12.571636,45.249770,43.497183,30.698396,35.973014,7.132070
STILL,aom,av2,0,F2,Big_Easy_chair.y4m,1196x1008,24,8,60,0, KEY ,1,60,126081,49.077171,48.724017,48.993903,32.055620,27.905904,96.830511,96.066086,48.717908,47.411431,0.011094
STILL,aom,av2,0,F2,Big_Easy_chair.y4m,1196x1008,24,8,85,0, KEY ,1,85,26677,46.114418,46.290513,47.423484,25.984103,23.437754,95.898147,94.794437,44.770604,44.857461,2.294459
STILL,aom,av2,0,F2,Big_Easy_chair.y4m,1196x1008,24,8,110,0, KEY ,1,110,10942,44.667702,45.450645,46.615646,22.550012,21.300507,93.621214,92.098084,42.451121,43.806670,4.790565
STILL,aom,av2,0,F2,Big_Easy_chair.y4m,1196x1008,24,8,135,0, KEY ,1,135,5505,42.919220,44.249580,45.401321,20.071517,19.554849,88.440812,86.139043,40.147729,42.575200,5.595557
STILL,aom,av2,0,F2,Big_Easy_chair.y4m,1196x1008,24,8,160,0, KEY ,1,160,2964,40.675656,42.425983,43.708550,17.692188,17.687734,79.560950,76.502946,37.414011,40.898319,4.070036
STILL,aom,av2,0,F2,Big_Easy_chair.y4m,1196x1008,24,8,185,0, KEY ,1,185,1573,37.514706,39.730617,41.221429,14.868437,15.205978,60.617064,57.817813,33.671712,38.261904,4.284080
STILL,aom,av2,0,F2,Butterfly.y4m,1420x918,24,8,60,0, KEY ,1,60,228073,49.049383,49.212818,50.514487,31.753856,27.992164,96.933920,96.164783,48.798573,45.883216,1.087711
STILL,aom,av2,0,F2,Butterfly.y4m,1420x918,24,8,85,0, KEY ,1,85,75336,44.466104,46.178997,47.947185,26.650646,23.347355,96.118570,95.013752,45.493135,42.966381,11.518709
STILL,aom,av2,0,F2,Butterfly.y4m,1420x918,24,8,110,0, KEY ,1,110,25738,41.930921,44.406963,45.884190,23.173408,20.455783,93.682166,92.131259,42.222662,41.409777,11.462658
STILL,aom,av2,0,F2,Butterfly.y4m,1420x918,24,8,135,0, KEY ,1,135,11674,40.100188,42.279990,43.627357,20.851052,18.990489,87.880136,85.782158,39.532573,40.109830,11.501903
STILL,aom,av2,0,F2,Butterfly.y4m,1420x918,24,8,160,0, KEY ,1,160,5775,37.899467,40.131029,41.329118,18.621111,17.454171,76.781412,74.292164,36.126844,38.586987,10.169174
STILL,aom,av2,0,F2,Butterfly.y4m,1420x918,24,8,185,0, KEY ,1,185,2913,34.930444,37.650950,38.937702,15.840705,15.278670,57.891003,55.555920,31.842802,36.628219,7.645461
STILL,aom,av2,0,F2,Cecret_Lake_Panorama.y4m,1586x752,24,8,60,0, KEY ,1,60,581963,49.652652,49.580601,49.441013,34.106055,32.852894,96.884146,96.023390,52.892915,47.045228,0.006929
STILL,aom,av2,0,F2,Cecret_Lake_Panorama.y4m,1586x752,24,8,85,0, KEY ,1,85,395747,44.129977,44.905011,44.947261,28.795423,28.019967,95.804248,94.611197,48.802652,42.253929,0.033206
STILL,aom,av2,0,F2,Cecret_Lake_Panorama.y4m,1586x752,24,8,110,0, KEY ,1,110,250497,38.311214,41.293336,42.079055,23.752206,23.274780,92.692174,91.236523,43.440381,38.087135,0.068296
STILL,aom,av2,0,F2,Cecret_Lake_Panorama.y4m,1586x752,24,8,135,0, KEY ,1,135,134035,32.355030,38.762955,39.994624,18.625467,18.283717,84.799600,83.008938,36.876818,33.901392,0.109421
STILL,aom,av2,0,F2,Cecret_Lake_Panorama.y4m,1586x752,24,8,160,0, KEY ,1,160,45478,27.122074,36.832921,38.196756,13.459500,13.143736,66.081258,64.143438,29.872424,29.918803,0.081515
STILL,aom,av2,0,F2,Cecret_Lake_Panorama.y4m,1586x752,24,8,185,0, KEY ,1,185,11901,24.064699,34.567046,36.000744,8.740382,8.867138,34.944494,33.760363,23.808133,27.014219,0.141922
STILL,aom,av2,0,F2,Claudette.y4m,900x1100,24,8,60,0, KEY ,1,60,431639,49.332052,50.073448,50.141467,37.145772,32.806515,96.706474,95.830575,53.099644,45.649525,0.017816
STILL,aom,av2,0,F2,Claudette.y4m,900x1100,24,8,85,0, KEY ,1,85,287662,43.542331,47.965586,48.127997,30.887608,27.072562,95.431262,94.117402,48.709204,42.239414,0.090073
STILL,aom,av2,0,F2,Claudette.y4m,900x1100,24,8,110,0, KEY ,1,110,174435,37.865391,46.270480,46.616121,24.941799,21.543705,91.454576,89.979607,42.806836,38.625929,0.136127
STILL,aom,av2,0,F2,Claudette.y4m,900x1100,24,8,135,0, KEY ,1,135,89079,32.510342,44.482994,45.027077,19.060390,16.437464,81.967427,80.084423,35.947257,34.675228,0.156082
STILL,aom,av2,0,F2,Claudette.y4m,900x1100,24,8,160,0, KEY ,1,160,28590,27.664534,42.272401,43.429426,13.882148,11.798889,60.327872,58.549268,29.504916,30.660810,0.275364
STILL,aom,av2,0,F2,Claudette.y4m,900x1100,24,8,185,0, KEY ,1,185,7403,24.915984,40.321599,41.537762,9.220289,8.008377,28.723092,27.613344,24.115627,28.041028,0.447913
STILL,aom,av2,0,F2,Collage_Oppeln.y4m,904x1280,24,8,60,0, KEY ,1,60,350816,49.508873,49.814210,50.299757,36.084545,31.812588,97.024702,96.305218,51.676826,46.922196,0.028109
STILL,aom,av2,0,F2,Collage_Oppeln.y4m,904x1280,24,8,85,0, KEY ,1,85,213151,44.595175,46.181577,46.894482,31.302488,27.638164,96.165447,95.104840,48.182351,43.035729,0.092084
STILL,aom,av2,0,F2,Collage_Oppeln.y4m,904x1280,24,8,110,0, KEY ,1,110,121354,39.634749,42.952412,43.849312,26.355413,23.282564,93.743634,92.324757,43.198535,39.574561,0.156725
STILL,aom,av2,0,F2,Collage_Oppeln.y4m,904x1280,24,8,135,0, KEY ,1,135,61125,34.862772,40.111749,40.992536,21.513645,18.950723,87.599577,85.698422,37.265867,36.183866,0.156913
STILL,aom,av2,0,F2,Collage_Oppeln.y4m,904x1280,24,8,160,0, KEY ,1,160,26968,30.613967,37.559829,38.460909,16.767754,14.870590,73.764412,71.604314,31.267269,32.946106,0.120128
STILL,aom,av2,0,F2,Collage_Oppeln.y4m,904x1280,24,8,185,0, KEY ,1,185,10054,26.914941,34.911870,35.837038,12.168915,10.977491,50.090121,48.174557,25.636488,29.797173,0.166906
STILL,aom,av2,0,F2,Corona_Arch.y4m,1272x922,24,8,60,0, KEY ,1,60,391382,49.153156,49.093443,49.617285,33.815494,29.818289,96.790576,95.875958,50.859467,50.335257,0.000969
STILL,aom,av2,0,F2,Corona_Arch.y4m,1272x922,24,8,85,0, KEY ,1,85,206289,43.701029,46.297609,45.585687,27.345647,24.141671,95.663228,94.393936,46.318327,45.506934,2.010357
STILL,aom,av2,0,F2,Corona_Arch.y4m,1272x922,24,8,110,0, KEY ,1,110,104066,39.021160,44.293429,42.082659,23.521674,20.782899,92.443455,90.769784,42.505290,41.913668,5.159605
STILL,aom,av2,0,F2,Corona_Arch.y4m,1272x922,24,8,135,0, KEY ,1,135,42678,34.715860,42.304457,39.243214,19.667463,17.010798,83.697888,81.787402,36.949383,38.693858,5.385979
STILL,aom,av2,0,F2,Corona_Arch.y4m,1272x922,24,8,160,0, KEY ,1,160,15151,31.353714,39.773036,36.731406,15.137196,13.189646,65.398869,63.453727,31.205970,35.949128,4.783582
STILL,aom,av2,0,F2,Corona_Arch.y4m,1272x922,24,8,185,0, KEY ,1,185,4826,28.716750,36.666292,33.563175,10.968991,9.930380,36.301240,35.170339,26.553997,33.476828,4.862508
STILL,aom,av2,0,F2,Correfocs_Festa_Major_del_Clot.y4m,1306x870,24,8,60,0, KEY ,1,60,249868,49.158380,50.069367,49.802936,30.835524,29.355857,96.601156,95.640388,50.422201,49.222919,0.352530
STILL,aom,av2,0,F2,Correfocs_Festa_Major_del_Clot.y4m,1306x870,24,8,85,0, KEY ,1,85,127616,44.950960,47.271833,46.240420,25.443028,24.755203,94.668110,93.441493,46.340271,45.647541,1.397697
STILL,aom,av2,0,F2,Correfocs_Festa_Major_del_Clot.y4m,1306x870,24,8,110,0, KEY ,1,110,68796,41.229406,44.708342,42.940494,21.304689,21.161406,90.423731,88.819012,42.079989,42.693340,1.811684
STILL,aom,av2,0,F2,Correfocs_Festa_Major_del_Clot.y4m,1306x870,24,8,135,0, KEY ,1,135,35376,37.211808,42.634624,39.867091,17.122890,17.427842,81.045524,79.039626,37.232691,39.726536,1.934626
STILL,aom,av2,0,F2,Correfocs_Festa_Major_del_Clot.y4m,1306x870,24,8,160,0, KEY ,1,160,15787,33.130748,40.411660,36.708285,12.935647,13.544426,63.468638,60.933828,32.157101,36.606085,1.724654
STILL,aom,av2,0,F2,Correfocs_Festa_Major_del_Clot.y4m,1306x870,24,8,185,0, KEY ,1,185,4591,29.061863,37.881465,33.213778,8.422551,9.298781,33.685264,32.361091,26.848605,33.236883,1.740321
STILL,aom,av2,0,F2,Crepuscular_rays_at_Sunset_near_Waterberg_Plateau.y4m,1402x934,24,8,60,0, KEY ,1,60,415425,49.429095,49.707656,49.705196,34.605438,30.510271,96.188948,94.960190,51.911047,47.534249,0.187527
STILL,aom,av2,0,F2,Crepuscular_rays_at_Sunset_near_Waterberg_Plateau.y4m,1402x934,24,8,85,0, KEY ,1,85,242173,44.382207,46.176450,45.994134,29.032043,25.752612,93.871268,92.360183,47.717011,43.377712,0.461880
STILL,aom,av2,0,F2,Crepuscular_rays_at_Sunset_near_Waterberg_Plateau.y4m,1402x934,24,8,110,0, KEY ,1,110,121875,38.936735,43.592407,43.256067,23.426965,20.562245,88.224827,86.403850,42.057219,39.686603,0.501258
STILL,aom,av2,0,F2,Crepuscular_rays_at_Sunset_near_Waterberg_Plateau.y4m,1402x934,24,8,135,0, KEY ,1,135,41182,34.121736,41.386331,40.926497,17.532243,15.111054,74.132250,72.308182,35.521854,36.186441,0.447774
STILL,aom,av2,0,F2,Crepuscular_rays_at_Sunset_near_Waterberg_Plateau.y4m,1402x934,24,8,160,0, KEY ,1,160,10937,31.175746,39.034026,38.757379,12.431332,10.970388,46.691927,45.314933,30.397598,33.564594,0.724691
STILL,aom,av2,0,F2,Crepuscular_rays_at_Sunset_near_Waterberg_Plateau.y4m,1402x934,24,8,185,0, KEY ,1,185,3109,29.392416,36.222010,35.840792,8.655795,8.217965,14.492405,13.957641,26.968878,31.466498,1.213014
STILL,aom,av2,0,F2,Esquibien_Jean_Perrot.y4m,818x1228,24,8,60,0, KEY ,1,60,398386,49.346993,49.863335,50.038298,32.622558,31.397777,96.956607,96.138880,51.783938,46.592015,0.516057
STILL,aom,av2,0,F2,Esquibien_Jean_Perrot.y4m,818x1228,24,8,85,0, KEY ,1,85,250388,43.700494,47.328990,47.299428,26.897298,26.022756,96.018977,94.824006,47.772954,42.996893,0.777117
STILL,aom,av2,0,F2,Esquibien_Jean_Perrot.y4m,818x1228,24,8,110,0, KEY ,1,110,140115,37.859966,45.896886,45.611941,21.940271,21.039703,93.577869,91.918801,42.858561,39.383270,0.639022
STILL,aom,av2,0,F2,Esquibien_Jean_Perrot.y4m,818x1228,24,8,135,0, KEY ,1,135,52364,32.516082,44.396238,44.172366,16.208267,15.393000,86.684985,84.646370,36.038502,35.416288,0.508632
STILL,aom,av2,0,F2,Esquibien_Jean_Perrot.y4m,818x1228,24,8,160,0, KEY ,1,160,15900,29.336994,42.601573,42.575296,11.700567,11.399951,71.427695,68.933263,30.205491,32.679054,0.531326
STILL,aom,av2,0,F2,Esquibien_Jean_Perrot.y4m,818x1228,24,8,185,0, KEY ,1,185,5921,27.226653,40.242581,40.225905,9.175419,9.357530,47.769041,45.736513,26.218672,30.674638,0.985804
STILL,aom,av2,0,F2,Florac-Le_Vibron-Source_du_Pecher.y4m,1080x874,24,8,60,0, KEY ,1,60,485127,49.362773,48.717680,48.706718,34.329591,32.979336,96.958510,96.203867,53.639074,45.565120,0.002900
STILL,aom,av2,0,F2,Florac-Le_Vibron-Source_du_Pecher.y4m,1080x874,24,8,85,0, KEY ,1,85,304719,43.338715,44.116642,43.766471,28.393103,27.158950,96.067154,94.953902,48.711060,40.708788,0.157855
STILL,aom,av2,0,F2,Florac-Le_Vibron-Source_du_Pecher.y4m,1080x874,24,8,110,0, KEY ,1,110,171397,37.492052,41.226770,41.001240,22.365312,21.317215,93.477524,91.892510,42.568142,37.117199,0.324306
STILL,aom,av2,0,F2,Florac-Le_Vibron-Source_du_Pecher.y4m,1080x874,24,8,135,0, KEY ,1,135,83166,32.352046,39.180905,39.371973,16.893245,16.292334,86.322064,84.325904,35.908340,33.718655,0.534374
STILL,aom,av2,0,F2,Florac-Le_Vibron-Source_du_Pecher.y4m,1080x874,24,8,160,0, KEY ,1,160,31520,28.003078,37.351052,37.933898,11.883677,11.788620,69.214223,67.136662,29.542155,30.546650,0.782800
STILL,aom,av2,0,F2,Florac-Le_Vibron-Source_du_Pecher.y4m,1080x874,24,8,185,0, KEY ,1,185,8815,24.687717,35.070865,36.339719,7.681421,8.066414,42.407741,40.992316,24.134207,27.910105,0.835051
STILL,aom,av2,0,F2,Fontaine_Place_Stanislas.y4m,1390x820,24,8,60,0, KEY ,1,60,294311,49.571998,49.212477,50.510078,31.133229,30.099987,96.961832,96.204134,50.466950,46.000044,5.783873
STILL,aom,av2,0,F2,Fontaine_Place_Stanislas.y4m,1390x820,24,8,85,0, KEY ,1,85,173203,44.962860,46.034468,47.469556,26.967164,26.123824,95.888222,94.805894,47.434394,42.975283,6.528081
STILL,aom,av2,0,F2,Fontaine_Place_Stanislas.y4m,1390x820,24,8,110,0, KEY ,1,110,98871,40.381447,43.037894,45.289464,22.423446,22.010027,92.938896,91.470540,42.931445,40.230447,6.606725
STILL,aom,av2,0,F2,Fontaine_Place_Stanislas.y4m,1390x820,24,8,135,0, KEY ,1,135,52036,35.794925,40.493576,43.494061,17.918548,18.003443,85.854868,83.773539,37.660461,37.391387,6.889630
STILL,aom,av2,0,F2,Fontaine_Place_Stanislas.y4m,1390x820,24,8,160,0, KEY ,1,160,22653,31.292009,38.290528,41.764652,14.256621,14.514602,70.759134,68.547916,32.296028,34.426830,7.168535
STILL,aom,av2,0,F2,Fontaine_Place_Stanislas.y4m,1390x820,24,8,185,0, KEY ,1,185,7375,27.543656,35.840482,38.829672,10.466695,10.969361,44.530202,42.666798,26.639648,31.337861,6.093773
STILL,aom,av2,0,F2,Genmaicha_Tea.y4m,1260x840,24,8,60,0, KEY ,1,60,105509,50.456398,51.919111,51.694412,31.357338,30.680334,96.992473,96.282044,48.354201,49.489826,0.000099
STILL,aom,av2,0,F2,Genmaicha_Tea.y4m,1260x840,24,8,85,0, KEY ,1,85,61177,47.758248,49.794722,49.574220,29.222591,28.844575,96.228903,95.181139,47.180904,47.621026,0.002014
STILL,aom,av2,0,F2,Genmaicha_Tea.y4m,1260x840,24,8,110,0, KEY ,1,110,35830,44.050169,47.803700,47.434520,26.781896,26.662517,94.138405,92.774946,45.430095,45.742777,0.001132
STILL,aom,av2,0,F2,Genmaicha_Tea.y4m,1260x840,24,8,135,0, KEY ,1,135,19083,39.767805,45.505799,45.139445,23.911967,23.852878,89.237764,87.363840,41.668331,43.407411,0.001375
STILL,aom,av2,0,F2,Genmaicha_Tea.y4m,1260x840,24,8,160,0, KEY ,1,160,8873,35.500402,43.208613,42.671452,20.316259,20.405795,78.254176,75.831859,36.058055,40.506500,0.001091
STILL,aom,av2,0,F2,Genmaicha_Tea.y4m,1260x840,24,8,185,0, KEY ,1,185,3687,31.748088,40.839597,39.998800,16.396801,16.630436,56.597339,54.317192,30.454983,37.549887,0.001887
STILL,aom,av2,0,F2,Homestead_in_Montana.y4m,1326x826,24,8,60,0, KEY ,1,60,218227,49.323794,49.821415,50.226547,31.539434,30.143176,96.793581,95.839468,50.944618,48.988914,0.181349
STILL,aom,av2,0,F2,Homestead_in_Montana.y4m,1326x826,24,8,85,0, KEY ,1,85,116322,45.574390,46.572811,46.410723,27.889392,26.936581,95.598801,94.221257,47.954587,45.606805,0.500778
STILL,aom,av2,0,F2,Homestead_in_Montana.y4m,1326x826,24,8,110,0, KEY ,1,110,61682,41.614724,43.521133,42.912182,23.826414,23.358479,92.474673,90.658874,43.191235,42.474600,0.536139
STILL,aom,av2,0,F2,Homestead_in_Montana.y4m,1326x826,24,8,135,0, KEY ,1,135,30654,37.627923,40.460908,39.689148,19.312292,19.383191,84.583470,82.277719,37.346595,39.333508,0.530545
STILL,aom,av2,0,F2,Homestead_in_Montana.y4m,1326x826,24,8,160,0, KEY ,1,160,14274,33.830774,37.385577,36.609025,14.843548,15.378864,67.294743,65.020459,31.693348,36.116513,0.608925
STILL,aom,av2,0,F2,Homestead_in_Montana.y4m,1326x826,24,8,185,0, KEY ,1,185,5828,30.229179,34.306071,33.416706,10.639189,11.453141,40.349111,38.493341,26.677502,32.835758,0.786838
STILL,aom,av2,0,F2,Madeira_151_Funchal_Mercado_dos_Lavradores.y4m,1228x816,24,8,60,0, KEY ,1,60,337580,49.182983,48.956554,48.979152,35.078822,32.537447,96.938873,96.233181,53.916290,47.957905,0.309035
STILL,aom,av2,0,F2,Madeira_151_Funchal_Mercado_dos_Lavradores.y4m,1228x816,24,8,85,0, KEY ,1,85,184391,44.041360,44.642781,44.964705,29.319545,27.293333,95.872837,94.838449,48.882806,43.410169,0.379132
STILL,aom,av2,0,F2,Madeira_151_Funchal_Mercado_dos_Lavradores.y4m,1228x816,24,8,110,0, KEY ,1,110,96026,39.598126,40.855687,41.576882,23.929205,22.646577,93.105743,91.633514,42.495787,39.639711,0.362719
STILL,aom,av2,0,F2,Madeira_151_Funchal_Mercado_dos_Lavradores.y4m,1228x816,24,8,135,0, KEY ,1,135,46267,35.494201,37.484174,38.443797,18.807484,18.240937,85.869731,84.169726,35.936277,36.197865,0.364128
STILL,aom,av2,0,F2,Madeira_151_Funchal_Mercado_dos_Lavradores.y4m,1228x816,24,8,160,0, KEY ,1,160,21587,31.781730,34.385214,35.444671,14.183466,14.312632,69.928821,68.189757,30.131996,32.974863,0.595157
STILL,aom,av2,0,F2,Madeira_151_Funchal_Mercado_dos_Lavradores.y4m,1228x816,24,8,185,0, KEY ,1,185,8963,28.254494,31.257629,32.348250,10.008202,10.617271,43.505545,42.234039,25.055524,29.758429,0.670338
STILL,aom,av2,0,F2,Madeira_159_Funchal_Mercado_dos_Lavradores.y4m,1228x816,24,8,60,0, KEY ,1,60,509787,49.256220,48.968185,48.871122,36.488396,34.237778,97.091846,96.453810,54.221036,45.995447,0.007806
STILL,aom,av2,0,F2,Madeira_159_Funchal_Mercado_dos_Lavradores.y4m,1228x816,24,8,85,0, KEY ,1,85,329469,43.431380,44.540765,43.936949,30.547224,28.617075,96.335951,95.335421,49.565894,41.346488,0.053855
STILL,aom,av2,0,F2,Madeira_159_Funchal_Mercado_dos_Lavradores.y4m,1228x816,24,8,110,0, KEY ,1,110,190880,37.765690,40.663495,39.711253,24.644482,22.969246,94.021667,92.734353,43.247538,37.157693,0.076966
STILL,aom,av2,0,F2,Madeira_159_Funchal_Mercado_dos_Lavradores.y4m,1228x816,24,8,135,0, KEY ,1,135,94143,32.709228,37.121932,36.386497,19.147748,17.974836,88.170588,86.272952,36.349537,33.300392,0.157828
STILL,aom,av2,0,F2,Madeira_159_Funchal_Mercado_dos_Lavradores.y4m,1228x816,24,8,160,0, KEY ,1,160,40247,28.411916,34.099525,33.848249,14.869343,14.271921,73.900554,71.970903,30.268266,30.035621,0.453840
STILL,aom,av2,0,F2,Madeira_159_Funchal_Mercado_dos_Lavradores.y4m,1228x816,24,8,185,0, KEY ,1,185,14633,24.747965,31.487265,31.506672,10.753607,10.698932,50.058115,48.331699,24.343386,27.038026,0.474171
STILL,aom,av2,0,F2,MagicKindom.y4m,1000x1000,24,8,60,0, KEY ,1,60,581144,49.369555,48.468353,48.573849,39.153027,34.858351,96.962632,96.207831,54.913757,48.463382,0.000000
STILL,aom,av2,0,F2,MagicKindom.y4m,1000x1000,24,8,85,0, KEY ,1,85,376485,43.142864,43.588070,43.633675,32.756228,28.427863,96.097340,94.957792,49.588805,42.830344,0.000211
STILL,aom,av2,0,F2,MagicKindom.y4m,1000x1000,24,8,110,0, KEY ,1,110,224734,37.225862,40.909099,40.916869,26.258966,22.671489,93.277017,91.785229,43.328137,38.345532,0.470007
STILL,aom,av2,0,F2,MagicKindom.y4m,1000x1000,24,8,135,0, KEY ,1,135,111725,31.629008,38.802260,38.752340,20.817738,17.658315,86.313549,84.282004,36.452004,33.949905,0.678942
STILL,aom,av2,0,F2,MagicKindom.y4m,1000x1000,24,8,160,0, KEY ,1,160,40507,27.037336,36.922219,36.999943,15.568842,12.771337,69.146852,67.098182,29.387544,30.152959,0.670366
STILL,aom,av2,0,F2,MagicKindom.y4m,1000x1000,24,8,185,0, KEY ,1,185,12017,23.827551,34.243552,35.310369,10.311203,8.518278,40.513429,38.978529,23.263208,27.109597,0.742520
STILL,aom,av2,0,F2,Michigan_Stadium.y4m,1400x934,24,8,60,0, KEY ,1,60,690603,49.388059,49.218809,49.430720,38.192028,33.373527,97.119574,96.448809,53.533541,47.631170,0.035923
STILL,aom,av2,0,F2,Michigan_Stadium.y4m,1400x934,24,8,85,0, KEY ,1,85,481322,44.082523,44.380165,44.552475,33.140421,29.038665,96.387540,95.366551,49.611891,42.757891,0.085749
STILL,aom,av2,0,F2,Michigan_Stadium.y4m,1400x934,24,8,110,0, KEY ,1,110,317604,38.677106,39.282026,39.774005,28.078465,24.949697,94.276230,92.830687,44.280351,38.128201,0.121501
STILL,aom,av2,0,F2,Michigan_Stadium.y4m,1400x934,24,8,135,0, KEY ,1,135,187037,33.099439,34.268494,36.203579,22.974471,20.623452,88.521140,86.568635,37.759408,33.747057,0.192097
STILL,aom,av2,0,F2,Michigan_Stadium.y4m,1400x934,24,8,160,0, KEY ,1,160,89485,27.515189,30.543195,33.754931,17.794972,16.002723,74.018557,71.852187,30.734553,29.601674,0.195218
STILL,aom,av2,0,F2,Michigan_Stadium.y4m,1400x934,24,8,185,0, KEY ,1,185,28805,22.796508,28.131835,31.763536,12.280064,10.917308,46.794435,44.991416,23.590733,25.849697,0.152762
STILL,aom,av2,0,F2,OperaLamps.y4m,1296x864,24,8,60,0, KEY ,1,60,468844,49.361269,49.011370,49.018749,36.113010,34.019849,96.928720,96.149496,54.189974,45.933565,0.744922
STILL,aom,av2,0,F2,OperaLamps.y4m,1296x864,24,8,85,0, KEY ,1,85,290160,44.202384,43.889417,43.882038,31.075481,29.409187,95.735112,94.654405,50.039886,41.016859,1.162587
STILL,aom,av2,0,F2,OperaLamps.y4m,1296x864,24,8,110,0, KEY ,1,110,165255,39.188207,39.420317,39.516609,25.927285,24.737486,92.938373,91.347914,43.815360,36.847723,1.000213
STILL,aom,av2,0,F2,OperaLamps.y4m,1296x864,24,8,135,0, KEY ,1,135,83368,34.328675,35.591079,36.070406,20.552600,19.839962,85.322869,83.405879,36.579978,33.143646,0.951192
STILL,aom,av2,0,F2,OperaLamps.y4m,1296x864,24,8,160,0, KEY ,1,160,37342,29.884045,32.585723,33.700135,15.388546,15.065672,68.964508,66.747711,29.791096,29.880217,0.790359
STILL,aom,av2,0,F2,OperaLamps.y4m,1296x864,24,8,185,0, KEY ,1,185,14027,25.897445,30.049544,31.720626,10.138647,10.349239,39.784825,38.178244,23.724198,26.713361,0.753705
STILL,aom,av2,0,F2,Orion_Nebula.y4m,1200x840,24,8,60,0, KEY ,1,60,147772,49.193335,50.037238,50.571874,30.471257,28.655926,96.146420,94.916672,50.482290,47.906210,0.000157
STILL,aom,av2,0,F2,Orion_Nebula.y4m,1200x840,24,8,85,0, KEY ,1,85,54020,45.241362,47.701378,48.049772,24.076771,23.271545,93.818605,92.357175,45.352401,44.772866,0.016610
STILL,aom,av2,0,F2,Orion_Nebula.y4m,1200x840,24,8,110,0, KEY ,1,110,22564,42.556005,45.685931,45.686324,19.238376,19.444632,87.955003,86.302210,40.691602,42.505811,0.069798
STILL,aom,av2,0,F2,Orion_Nebula.y4m,1200x840,24,8,135,0, KEY ,1,135,9585,39.941138,43.648318,43.166312,15.296254,16.122009,75.140532,73.300105,36.628826,40.215890,0.417708
STILL,aom,av2,0,F2,Orion_Nebula.y4m,1200x840,24,8,160,0, KEY ,1,160,3913,37.169797,41.648947,40.447833,12.022090,13.140024,52.262950,50.993960,33.139520,37.924545,0.863866
STILL,aom,av2,0,F2,Orion_Nebula.y4m,1200x840,24,8,185,0, KEY ,1,185,1506,34.430107,39.401018,38.251043,9.496641,10.566291,23.221982,22.737793,30.112101,35.558288,1.855856
STILL,aom,av2,0,F2,Saint_Catherine-Caravaggio.y4m,876x1140,24,8,60,0, KEY ,1,60,310369,49.228034,49.695956,50.236509,31.446348,29.948530,96.987987,96.325130,51.171631,46.505955,0.000004
STILL,aom,av2,0,F2,Saint_Catherine-Caravaggio.y4m,876x1140,24,8,85,0, KEY ,1,85,147687,42.951358,47.673902,47.962351,24.607755,23.274835,96.174523,95.163274,46.041964,43.254680,0.941209
STILL,aom,av2,0,F2,Saint_Catherine-Caravaggio.y4m,876x1140,24,8,110,0, KEY ,1,110,54680,38.591157,45.883438,45.842851,19.464237,18.656506,93.625752,92.278866,40.920552,40.467962,3.886151
STILL,aom,av2,0,F2,Saint_Catherine-Caravaggio.y4m,876x1140,24,8,135,0, KEY ,1,135,21311,35.755806,43.679948,43.693697,15.942005,15.705543,86.729178,84.877881,36.556528,38.327993,5.077553
STILL,aom,av2,0,F2,Saint_Catherine-Caravaggio.y4m,876x1140,24,8,160,0, KEY ,1,160,9333,33.296916,41.516603,41.209294,13.082712,13.374306,72.771394,70.623814,32.592506,36.280493,5.543548
STILL,aom,av2,0,F2,Saint_Catherine-Caravaggio.y4m,876x1140,24,8,185,0, KEY ,1,185,3812,30.462001,38.012099,38.435070,10.375126,10.996739,51.255245,49.559575,28.495659,33.647399,5.924611
STILL,aom,av2,0,F2,Streptopelia_orientalis.y4m,1404x936,24,8,60,0, KEY ,1,60,253353,48.730673,49.889456,50.605802,37.155174,30.775630,96.911999,96.156883,52.209424,47.617572,0.008302
STILL,aom,av2,0,F2,Streptopelia_orientalis.y4m,1404x936,24,8,85,0, KEY ,1,85,122536,45.202225,46.339742,47.665253,31.498303,26.938228,95.619722,94.553976,47.748276,44.305175,0.018381
STILL,aom,av2,0,F2,Streptopelia_orientalis.y4m,1404x936,24,8,110,0, KEY ,1,110,63944,41.899951,42.845243,44.749523,26.495205,23.427586,92.581341,91.120079,42.574201,41.301862,0.012341
STILL,aom,av2,0,F2,Streptopelia_orientalis.y4m,1404x936,24,8,135,0, KEY ,1,135,32825,38.441924,39.427283,41.633549,21.528563,19.685517,85.068854,83.229181,37.096611,38.148061,0.013172
STILL,aom,av2,0,F2,Streptopelia_orientalis.y4m,1404x936,24,8,160,0, KEY ,1,160,16578,34.809363,36.129771,38.670113,16.825034,15.894052,68.948513,66.926148,31.918059,34.807930,0.018280
STILL,aom,av2,0,F2,Streptopelia_orientalis.y4m,1404x936,24,8,185,0, KEY ,1,185,7672,30.989603,32.986586,35.827869,12.288317,12.048103,43.607487,42.055576,27.106330,31.366564,0.019649
STILL,aom,av2,0,F2,Swallowtail.y4m,1300x900,24,8,60,0, KEY ,1,60,314899,48.989950,50.062582,50.708348,35.679511,30.222617,97.014529,96.295599,51.459068,49.642445,0.013361
STILL,aom,av2,0,F2,Swallowtail.y4m,1300x900,24,8,85,0, KEY ,1,85,132607,43.388600,46.994135,47.659340,28.926048,24.090467,96.144283,95.038617,46.368634,45.023710,0.095975
STILL,aom,av2,0,F2,Swallowtail.y4m,1300x900,24,8,110,0, KEY ,1,110,67808,40.487600,43.888864,44.644594,25.097869,21.622162,93.612483,92.036288,42.598939,42.409015,0.236115
STILL,aom,av2,0,F2,Swallowtail.y4m,1300x900,24,8,135,0, KEY ,1,135,34957,37.261129,40.682198,41.521011,21.250324,18.898775,87.187366,85.146592,37.656589,39.652338,0.234738
STILL,aom,av2,0,F2,Swallowtail.y4m,1300x900,24,8,160,0, KEY ,1,160,17340,33.773705,37.562129,38.265705,17.373849,15.961560,73.380020,71.216049,32.367901,36.612439,0.256894
STILL,aom,av2,0,F2,Swallowtail.y4m,1300x900,24,8,185,0, KEY ,1,185,7890,30.106343,34.157075,35.003547,13.347826,12.750918,50.861190,48.852671,27.163609,33.153211,0.296200
STILL,aom,av2,0,F2,Washington_Monument.y4m,1204x904,24,8,60,0, KEY ,1,60,294300,49.532631,50.424620,50.331754,34.706010,30.599809,96.730660,95.713108,51.427843,47.327182,0.368794
STILL,aom,av2,0,F2,Washington_Monument.y4m,1204x904,24,8,85,0, KEY ,1,85,182074,44.770860,48.382744,48.056947,28.801901,25.728597,95.489823,94.116312,47.375159,44.295083,0.502286
STILL,aom,av2,0,F2,Washington_Monument.y4m,1204x904,24,8,110,0, KEY ,1,110,106222,39.822555,46.326009,46.420439,23.190643,21.013136,91.949218,90.280367,42.242089,41.274111,0.489644
STILL,aom,av2,0,F2,Washington_Monument.y4m,1204x904,24,8,135,0, KEY ,1,135,51638,34.820957,44.105072,44.700145,18.185818,16.457582,82.788009,81.007008,36.707704,37.941140,0.460972
STILL,aom,av2,0,F2,Washington_Monument.y4m,1204x904,24,8,160,0, KEY ,1,160,18518,30.493816,41.788888,42.847016,13.800651,12.692063,62.966544,61.296229,31.485358,34.623512,0.429995
STILL,aom,av2,0,F2,Washington_Monument.y4m,1204x904,24,8,185,0, KEY ,1,185,4978,27.450798,38.648264,40.647776,10.298527,9.661874,35.545174,33.971093,26.857031,31.639691,0.391000
STILL,aom,av2,0,F2,Wasserfassstelle_von_1898_im_Schanerloch.y4m,816x1150,24,8,60,0, KEY ,1,60,402856,49.303983,49.723947,49.804163,35.019215,32.993548,96.963201,96.178104,53.103648,47.349060,0.001730
STILL,aom,av2,0,F2,Wasserfassstelle_von_1898_im_Schanerloch.y4m,816x1150,24,8,85,0, KEY ,1,85,260665,43.621407,47.013556,47.459559,28.948341,27.294547,95.970716,94.839374,48.833024,43.424256,0.010267
STILL,aom,av2,0,F2,Wasserfassstelle_von_1898_im_Schanerloch.y4m,816x1150,24,8,110,0, KEY ,1,110,159209,38.159780,45.427381,46.058189,23.169915,22.092851,92.880489,91.491035,43.156528,39.733091,0.017666
STILL,aom,av2,0,F2,Wasserfassstelle_von_1898_im_Schanerloch.y4m,816x1150,24,8,135,0, KEY ,1,135,83700,32.937961,44.019323,44.749271,17.687686,17.283593,85.647542,83.781568,36.664994,35.808480,0.049837
STILL,aom,av2,0,F2,Wasserfassstelle_von_1898_im_Schanerloch.y4m,816x1150,24,8,160,0, KEY ,1,160,33417,28.232862,42.409657,42.582516,12.943812,12.983815,67.595187,65.881744,30.176995,31.969030,0.131439
STILL,aom,av2,0,F2,Wasserfassstelle_von_1898_im_Schanerloch.y4m,816x1150,24,8,185,0, KEY ,1,185,10306,24.745344,38.560043,38.834635,8.701336,9.147900,39.485460,38.155442,24.233901,28.420538,0.286702
STILL,aom,av2,0,F2,Zoo_de_la_Barben.y4m,1296x864,24,8,60,0, KEY ,1,60,147201,48.601061,50.066097,50.189489,29.306507,27.849079,96.733580,95.860430,48.586682,44.804876,0.916197
STILL,aom,av2,0,F2,Zoo_de_la_Barben.y4m,1296x864,24,8,85,0, KEY ,1,85,60514,45.684091,48.043231,48.042547,26.015947,25.052501,95.497217,94.306948,46.506453,43.204054,9.301123
STILL,aom,av2,0,F2,Zoo_de_la_Barben.y4m,1296x864,24,8,110,0, KEY ,1,110,28941,42.865260,45.909311,45.758819,23.341871,22.713902,92.541716,90.821664,43.796970,41.773418,8.799046
STILL,aom,av2,0,F2,Zoo_de_la_Barben.y4m,1296x864,24,8,135,0, KEY ,1,135,12210,39.639241,43.708301,43.411950,19.553914,19.459721,85.576220,83.220978,39.309043,40.154592,8.637445
STILL,aom,av2,0,F2,Zoo_de_la_Barben.y4m,1296x864,24,8,160,0, KEY ,1,160,4972,36.712865,41.318323,40.934776,15.681005,16.134798,70.936517,68.434033,34.627925,38.195614,7.476254
STILL,aom,av2,0,F2,Zoo_de_la_Barben.y4m,1296x864,24,8,185,0, KEY ,1,185,2003,33.841711,38.957476,38.301810,12.146350,12.872456,46.921119,44.919714,30.515893,35.691621,6.242581
