TestCfg,EncodeMethod,CodecName,EncodePreset,Class,Name,OrigRes,FPS,BitDepth,CodedRes,QP,Bitrate(kbps),PSNR_Y,PSNR_U,PSNR_V,SSIM_Y(dB),MS-SSIM_Y(dB),VMAF_Y,VMAF_Y-NEG,PSNR-HVS,CIEDE2000,APSNR_Y,APSNR_U,APSNR_V,CAMBI,EncT[s],DecT[s],EncInstr,DecInstr,EncCycles,DecCycles,EncMD5,DecMD5
AS,aom,av2,0,A1,BoxingPractice,3840x2160,60.0000,10,3840x2160,110,21622.257127,42.369661,48.637443,48.573177,29.228255,20.313369,99.975194,99.920365,42.983657,43.212456,42.311715,48.607277,48.544837,0.866808,96632.90,29.62,645908154240510,150618536143,272642829067396,88291163282,440adb4db6ffbe9ab7292c7fa4d22053,
AS,aom,av2,0,A1,BoxingPractice,3840x2160,60.0000,10,3840x2160,135,8035.107047,41.520581,47.366385,47.163545,27.402743,19.534798,99.753025,97.679475,41.411531,42.293491,41.501898,47.350440,47.145221,0.959783,85009.03,27.25,532257898678200,139854731030,223357004119337,76110392412,5edacbf5702c97cdf311fd13aba0b6e4,
AS,aom,av2,0,A1,BoxingPractice,3840x2160,60.0000,10,3840x2160,160,3289.303927,40.253032,45.712314,45.318847,25.051202,18.442900,95.283317,92.659821,39.095574,41.082593,40.236317,45.696538,45.302194,0.942581,48890.93,24.55,307127703159390,136903185354,129365722723273,68577460257,05fe3552fe87ab481f5757b8fe522327,
AS,aom,av2,0,A1,BoxingPractice,3840x2160,60.0000,10,3840x2160,185,1589.746869,38.247395,43.633228,43.022496,21.848026,16.724378,85.992134,83.143170,35.881886,39.380516,38.222394,43.615226,43.007409,1.085493,30456.63,20.43,198082171412726,113600008388,81010535866696,56723309080,44f3fab22d43bde6938e48e0efb9f681,
AS,aom,av2,0,A1,BoxingPractice,3840x2160,60.0000,10,3840x2160,210,756.598478,35.475546,41.266422,40.703533,18.167755,14.435013,70.319610,67.456758,32.149322,37.243636,35.443864,41.249195,40.692979,1.216065,19209.39,17.53,128017967510069,88557517663,55324530223727,51850195024,6a09ab1a0fd8b742e3934e733386d009,
AS,aom,av2,0,A1,BoxingPractice,3840x2160,60.0000,10,3840x2160,235,348.965496,32.292281,38.699115,38.317133,14.406973,11.908717,49.233164,46.681730,28.390208,34.687466,32.257218,38.684199,38.302031,1.099690,12305.42,16.00,74235173381593,78128207674,32797248478041,43839049279,3ba130ca01c1b5e036fb883c6fbc73e5,
AS,aom,av2,0,A1,BoxingPractice,3840x2160,60.0000,10,2560x1440,110,10868.962422,41.549687,47.013449,47.066991,28.260884,19.850084,99.957734,98.259997,42.069081,42.380286,41.533039,47.000882,47.051163,1.097538,36512.74,15.00,228176298152376,70009487350,96054122749624,41430214841,b442d675ed333a8905e5fba66c31be8f,
AS,aom,av2,0,A1,BoxingPractice,3840x2160,60.0000,10,2560x1440,135,4553.157612,40.648062,45.925696,45.769499,26.253556,18.977054,97.418828,94.679417,40.196958,41.494271,40.635462,45.914421,45.754308,1.014986,27747.26,10.95,219863120567604,65388858421,95531473381534,39636550732,9d784be57212b6b68c68f88918e93c36,
AS,aom,av2,0,A1,BoxingPractice,3840x2160,60.0000,10,2560x1440,160,2140.339660,39.091704,44.339088,43.938179,23.418494,17.565571,90.663319,87.586253,37.376218,40.142334,39.071890,44.325489,43.923013,1.071000,17667.39,9.15,140876295884974,59659146018,61155980322041,33156637814,5dfd97d6b8e4467c76257b0a5339a2f8,
AS,aom,av2,0,A1,BoxingPractice,3840x2160,60.0000,10,2560x1440,185,1045.151771,36.781065,42.344443,41.707002,19.945305,15.562428,78.329164,75.180382,33.901718,38.299301,36.752795,42.326138,41.692063,1.187489,15403.03,9.17,99306399978301,48780656548,40902651708938,25355670528,4c51264ff25797b7e26d61b5551b7afb,
AS,aom,av2,0,A1,BoxingPractice,3840x2160,60.0000,10,2560x1440,210,491.692922,33.820291,40.165277,39.592806,16.203719,13.126801,59.895632,56.934640,30.164216,36.090025,33.786862,40.151102,39.582089,1.150474,11124.20,7.74,70462075924158,38430972306,29680029116162,21207333890,e0b3c0aa7092e47b0c3a7d1c62ac8f79,
AS,aom,av2,0,A1,BoxingPractice,3840x2160,60.0000,10,2560x1440,235,219.712595,30.594771,37.801404,37.457579,12.631924,10.664537,37.474089,35.175080,26.546363,33.468055,30.561651,37.786789,37.445649,1.177906,6433.94,6.42,44495281481611,33939806398,18363714990566,18852770242,5c078ffede91bec5c3eba509a094ae90,
AS,aom,av2,0,A1,BoxingPractice,3840x2160,60.0000,10,1920x1080,110,7259.932683,40.624822,45.866876,45.702822,27.492985,19.363351,98.084864,95.498241,41.053476,41.683437,40.615404,45.859351,45.691314,1.191679,15639.11,8.06,118371966727711,41864207103,53937827272863,28893937784,f917e5500cca2cbb0a0b62c152cb486f,
AS,aom,av2,0,A1,BoxingPractice,3840x2160,60.0000,10,1920x1080,135,3288.994083,39.668153,44.903092,44.525545,25.253012,18.383923,93.918369,90.973045,38.962213,40.787323,39.655774,44.894047,44.512220,1.198984,19641.62,7.44,123383976326567,38298831888,51571349636593,20547072882,32ec56dd3478c5b3142bdb67d5ca8e2f,
AS,aom,av2,0,A1,BoxingPractice,3840x2160,60.0000,10,1920x1080,160,1591.469454,37.987905,43.370851,42.858283,22.100461,16.761422,85.265710,82.117382,35.917855,39.352448,37.966521,43.358717,42.843159,1.251642,13105.08,6.32,84736320910698,34176889075,34501152827938,17435845164,99024ebc6be04e6fbba0371aef9f6441,
AS,aom,av2,0,A1,BoxingPractice,3840x2160,60.0000,10,1920x1080,185,769.718896,35.577932,41.449378,40.829077,18.509011,14.621051,70.900077,67.759760,32.409682,37.461560,35.548385,41.433368,40.814828,1.290561,9459.57,5.19,61194000529940,27731058153,24981051819370,14305966006,d0951753c477e54b8ed4fcb53186da61,
AS,aom,av2,0,A1,BoxingPractice,3840x2160,60.0000,10,1920x1080,210,356.523477,32.561401,39.238431,38.850927,14.796458,12.153328,51.132503,48.349576,28.728003,35.155099,32.527818,39.219311,38.839010,1.395641,7185.75,4.33,46043579178319,22027706660,19087451961342,11923159734,86ceacade10a6b8e2d858a1e6b0e11ab,
AS,aom,av2,0,A1,BoxingPractice,3840x2160,60.0000,10,1920x1080,235,156.438024,29.371932,36.987610,36.830554,11.367268,9.772728,28.774252,26.800762,25.264126,32.537389,29.340778,36.974379,36.816537,1.338221,4500.76,3.41,31071458872145,18819507180,12817653623260,10018801620,4ed78ee1b92e556e7272d5c72052d55f,
AS,aom,av2,0,A1,BoxingPractice,3840x2160,60.0000,10,1280x720,110,4276.562822,38.352611,44.451698,43.814710,25.961220,18.068117,90.332003,87.677353,37.513147,40.397495,38.347209,44.446431,43.805451,1.280247,11307.54,4.32,69087500742899,20574107193,29744728896033,11814541998,e2da05f568d0d392788b69ccee795fb5,
AS,aom,av2,0,A1,BoxingPractice,3840x2160,60.0000,10,1280x720,135,2110.613079,37.478019,43.532525,42.824933,23.435789,17.001443,84.269174,81.418517,35.758633,39.491167,37.467105,43.525113,42.813120,1.382072,7259.93,3.19,57416299105241,18386416281,24933575145194,11403824077,c96b496df222f3dd2002d85dd276258a,
AS,aom,av2,0,A1,BoxingPractice,3840x2160,60.0000,10,1280x720,160,1028.929225,35.904689,42.111621,41.364552,20.085007,15.308793,72.980913,70.042265,33.147769,38.054379,35.884845,42.100927,41.352480,1.407316,5279.30,2.55,42505092092933,16049717639,18161567510151,9156628167,e29efb5c9369d53f5978945465a88750,
AS,aom,av2,0,A1,BoxingPractice,3840x2160,60.0000,10,1280x720,185,494.072082,33.616872,40.250417,39.597041,16.498887,13.172435,56.339869,53.619439,30.040384,36.136535,33.587721,40.236126,39.583921,1.433297,4066.69,2.12,32598985152846,12122663375,14012918495985,7535234918,48c7d65af7125c652e52b131df9f30e2,
AS,aom,av2,0,A1,BoxingPractice,3840x2160,60.0000,10,1280x720,210,223.840160,30.737010,38.125571,37.835731,12.885512,10.821971,36.476564,34.327408,26.722243,33.827785,30.704111,38.112339,37.824469,1.350611,3844.14,1.74,25576073045159,9703342095,10154907413066,4711932080,38a7281f52107e63dfed5cb7cb16694a,
AS,aom,av2,0,A1,BoxingPractice,3840x2160,60.0000,10,1280x720,235,96.995927,27.719590,36.200399,36.124137,9.743994,8.631166,16.921694,15.604900,23.601578,31.337480,27.686761,36.187353,36.113974,1.347552,2763.88,1.47,18252123407669,7990193783,7291566562224,3986014090,49b2336336cedb68ef406db05fc51a7c,
AS,aom,av2,0,A1,BoxingPractice,3840x2160,60.0000,10,960x540,110,3083.095366,36.245704,43.406822,42.533354,24.894092,16.477572,79.117274,76.453071,33.777224,39.219501,36.241549,43.402219,42.524776,1.392064,8744.08,2.53,52114118538122,12558713865,22933499934953,6890171415,7da3524f39d2415acb218f6b34564571,
AS,aom,av2,0,A1,BoxingPractice,3840x2160,60.0000,10,960x540,135,1566.077000,35.552764,42.554967,41.698346,22.126329,15.549178,72.132813,69.392813,32.669009,38.367414,35.544643,42.548040,41.688108,1.452045,5762.31,2.26,35431331124332,11217665779,15135562600335,6166068159,0d186ec2dbb74be5798f0063bdc9a372,
AS,aom,av2,0,A1,BoxingPractice,3840x2160,60.0000,10,960x540,160,759.523553,34.228068,41.197924,40.424088,18.681755,14.042963,59.881738,57.197287,30.798850,37.008727,34.211201,41.187611,40.412037,1.497607,4148.04,1.74,25502324771942,9393869813,10914611313455,4755419161,1f059496544666f21b9b6114592c28ea,
AS,aom,av2,0,A1,BoxingPractice,3840x2160,60.0000,10,960x540,185,365.095827,32.210793,39.405594,38.797596,15.164877,12.108880,43.729337,41.358369,28.318364,35.157474,32.185600,39.393156,38.785800,1.517969,3140.63,1.29,19514136488641,7040464659,8281941183601,3530745839,d00e633701ea588ac447b4123711e83b,
AS,aom,av2,0,A1,BoxingPractice,3840x2160,60.0000,10,960x540,210,167.500192,29.573328,37.465442,37.206664,11.730474,9.954034,25.959459,24.261475,25.461469,32.968907,29.541373,37.450062,37.194860,1.522968,2469.59,1.07,15554254356486,5833051640,6534983092061,2869520506,9f46aed85133c84d944e72259d9dffb2,
AS,aom,av2,0,A1,BoxingPractice,3840x2160,60.0000,10,960x540,235,72.411281,26.652197,35.611764,35.707027,8.769706,7.943881,8.037847,7.136380,22.554727,30.454458,26.617044,35.601654,35.692617,1.289849,1906.88,0.74,11707665422203,4338191737,5055759365877,1985758120,7d90a0686cce8dcae5ddc8b8fc63c52a,
AS,aom,av2,0,A1,BoxingPractice,3840x2160,60.0000,10,640x360,110,1827.684930,33.226327,41.964412,41.044949,21.562841,13.851171,53.016100,50.841124,29.233507,37.301823,33.223288,41.959831,41.037706,1.450289,3717.84,1.17,22570522136951,5956370563,9765938432316,3174951942,d6cd7fb43e428515b7da70c3d7ab7400,
AS,aom,av2,0,A1,BoxingPractice,3840x2160,60.0000,10,640x360,135,947.340659,32.741252,41.200886,40.332607,19.190237,13.169973,46.118142,44.019129,28.668269,36.574215,32.735756,41.194975,40.324120,1.532514,2132.77,0.85,16670063096159,5111698469,7319782712091,3004035865,af6363ae885b4f1fd241c6bb09f36a39,
AS,aom,av2,0,A1,BoxingPractice,3840x2160,60.0000,10,640x360,160,465.308230,31.736206,39.970903,39.181767,16.148991,12.021484,34.956743,33.114333,27.560670,35.357027,31.723877,39.961070,39.171236,1.545744,1971.87,0.79,12347886867725,4252017238,5185458562006,2142478718,4f777655e48ef12199dfb4fc399bf1a3,
AS,aom,av2,0,A1,BoxingPractice,3840x2160,60.0000,10,640x360,185,225.610697,30.096526,38.315014,37.789003,13.012453,10.482915,21.891356,20.505887,25.861910,33.690566,30.074645,38.304113,37.779226,1.619690,1377.84,0.56,9507442894000,3122057029,3901711670953,1626479114,f3d3ade524103ba7098233872e725f66,
AS,aom,av2,0,A1,BoxingPractice,3840x2160,60.0000,10,640x360,210,102.698532,27.770590,36.520836,36.321188,9.986026,8.691916,9.022345,8.196379,23.593175,31.556475,27.740780,36.503357,36.309420,1.572091,885.69,0.37,7369174307700,2506574539,3055661283082,1310096618,36f15e14c645a6a089fe060238e21fae,
AS,aom,av2,0,A1,BoxingPractice,3840x2160,60.0000,10,640x360,235,45.882733,25.140248,34.854619,34.793653,7.393107,6.967528,0.138778,0.085207,21.120420,29.112996,25.108457,34.847266,34.789125,1.461184,841.83,0.31,5419775698135,1827952451,2229473979620,822635151,b25a952f573b798eba45e2e88593bce7,
AS,aom,av2,0,A1,Crosswalk,3840x2160,60.0000,10,3840x2160,110,20133.102590,42.770177,48.689757,52.124291,28.352992,20.032737,95.340317,93.506853,43.093530,43.641047,42.720070,48.670106,52.110295,0.250884,90191.78,33.03,565943608660156,172148656384,236017335461765,91820970338,fbc864ee23a8b226b448d8c564ed1eaa,
AS,aom,av2,0,A1,Crosswalk,3840x2160,60.0000,10,3840x2160,135,6552.440790,42.068707,47.941705,51.093292,25.712224,19.118955,90.320013,88.304431,41.464049,42.938975,42.056421,47.933861,51.082180,0.231612,56243.94,24.45,445617044696989,156870290621,193052199591756,88745347763,fc0f6ec4b6beb05aa86cde8478ddf563,
AS,aom,av2,0,A1,Crosswalk,3840x2160,60.0000,10,3840x2160,160,2637.499116,40.997322,46.820430,49.556945,22.513938,17.855519,81.516122,79.400707,39.299331,41.907362,40.974009,46.809511,49.536935,0.147287,30523.13,20.00,240260341074106,133345270566,105433093838324,72381164734,7c6fbc4b1e68a2708fdd4b52f0bf9952,
AS,aom,av2,0,A1,Crosswalk,3840x2160,60.0000,10,3840x2160,185,1245.417967,39.351093,45.210936,47.414717,19.004782,16.164661,67.761541,65.657007,36.669943,40.376355,39.306077,45.194045,47.383146,0.150157,23550.75,20.05,147952758885832,113527388653,62531556856660,55546908983,a540c1877435fd54bf51e282622b5bc9,
AS,aom,av2,0,A1,Crosswalk,3840x2160,60.0000,10,3840x2160,210,590.116345,37.020268,43.133893,44.844767,15.401795,14.078306,48.944535,47.041436,33.669315,38.276615,36.951623,43.109610,44.803787,0.198081,16101.97,17.84,95234249905329,86576076226,43261941931185,49053784424,24dcc9a1916cd29e918556b1f63aa4e1,
AS,aom,av2,0,A1,Crosswalk,3840x2160,60.0000,10,3840x2160,235,278.132944,34.152491,40.462058,41.619239,12.005314,11.809606,28.897658,27.427266,30.473720,35.552378,34.066005,40.431431,41.542672,0.293563,9942.53,14.53,60335054235690,72062132845,26720773118120,39956757702,830dbe47150bd3251af9304842e43c01,
AS,aom,av2,0,A1,Crosswalk,3840x2160,60.0000,10,2560x1440,110,9579.155614,42.377977,48.292003,51.624409,26.961632,19.538344,93.085515,90.998672,42.216942,43.259517,42.365194,48.281312,51.613536,0.283902,27354.59,12.08,210196986942333,76892678294,93999025663187,43635976226,9c0c59c0d5da60e1cd01d869fedcd02a,
AS,aom,av2,0,A1,Crosswalk,3840x2160,60.0000,10,2560x1440,135,3641.246138,41.548428,47.429707,50.417812,24.112509,18.495500,86.572881,84.255752,40.358047,42.455471,41.533240,47.421278,50.402833,0.257812,29496.14,13.21,184406880015454,72291028315,77451024743465,36797016026,871b5f4cc282415231130cd8ccd8b641,
AS,aom,av2,0,A1,Crosswalk,3840x2160,60.0000,10,2560x1440,160,1661.933144,40.206685,46.133998,48.676351,20.720616,17.026748,75.441593,73.062306,37.967287,41.223227,40.172955,46.119706,48.648349,0.219730,18127.07,11.25,111042961197612,61528966638,47885922527546,31163519880,46aa4f413cc685fef6aa507ae30a943e,
AS,aom,av2,0,A1,Crosswalk,3840x2160,60.0000,10,2560x1440,185,781.802813,38.255595,44.380590,46.453936,17.195067,15.158560,59.257470,57.099314,35.200773,39.489748,38.198907,44.360056,46.414790,0.210546,11133.40,8.55,73951658447022,49611753378,31810407573131,25257247207,fddbb7689d7bc4caa7d8db4086274c65,
AS,aom,av2,0,A1,Crosswalk,3840x2160,60.0000,10,2560x1440,210,367.659418,35.664795,42.269354,43.854999,13.738123,13.004433,38.790977,37.110890,32.144343,37.203123,35.586176,42.244506,43.804546,0.254177,8137.45,7.58,52398275365364,40416446616,21634040007057,20843710871,6f7c33a1831f9fca89fd62c0b1f517df,
AS,aom,av2,0,A1,Crosswalk,3840x2160,60.0000,10,2560x1440,235,168.935065,32.690103,39.572998,40.650117,10.625676,10.818995,19.634354,18.557862,28.993421,34.350280,32.603321,39.543116,40.589343,0.390243,5539.85,6.34,35561014029921,31909324774,14747221280910,17375158780,8b2964eb4b4a1ac674519b346ae6dd06,
AS,aom,av2,0,A1,Crosswalk,3840x2160,60.0000,10,1920x1080,110,6107.670791,42.063597,47.955724,51.204370,25.875052,19.138445,90.771127,88.528617,41.488161,42.955470,42.053359,47.947473,51.192733,0.335578,18252.92,9.39,113197592465303,44856043333,47872069094251,25876285415,ef5da092210182beaf22e6868efc124f,
AS,aom,av2,0,A1,Crosswalk,3840x2160,60.0000,10,1920x1080,135,2627.078767,41.085600,47.008289,49.858186,22.861126,17.973833,82.870437,80.437344,39.471499,42.042964,41.064809,46.998242,49.839531,0.333031,16773.29,8.06,106105394606491,42354930485,44004449718840,22299160600,bf17a04747ec1b21fc3b25350c656303,
AS,aom,av2,0,A1,Crosswalk,3840x2160,60.0000,10,1920x1080,160,1211.844156,39.522491,45.603053,47.964620,19.396216,16.356189,69.971447,67.513116,36.932610,40.653995,39.481229,45.587532,47.933059,0.326239,10941.58,6.20,68937906560509,36052019260,28772936083112,17163751541,fb125e0783f9bc67e6348afd80cc6a9e,
AS,aom,av2,0,A1,Crosswalk,3840x2160,60.0000,10,1920x1080,185,568.574810,37.364345,43.728213,45.658278,15.927168,14.400569,52.299588,50.163212,34.099316,38.762693,37.300228,43.703281,45.614454,0.323405,7552.18,5.29,48090864186717,27966826063,19951163482791,14605448355,b7fe92dc3475727171c83c10b6aaafe9,
AS,aom,av2,0,A1,Crosswalk,3840x2160,60.0000,10,1920x1080,210,261.393991,34.624644,41.459633,42.979726,12.599316,12.233240,31.615715,30.125722,31.022460,36.333814,34.540700,41.432746,42.925752,0.395451,5452.93,3.76,35960730886199,22205317343,14412365649271,10239174995,19fd2100e31661618b8c4aae1cda5079,
AS,aom,av2,0,A1,Crosswalk,3840x2160,60.0000,10,1920x1080,235,119.714132,31.633715,38.817648,40.013484,9.708426,10.136376,14.464699,13.581340,27.950241,33.463802,31.550063,38.789101,39.954650,0.524295,3771.24,3.30,24353652465146,18130504330,9974605474048,9015037805,f913a92d87cb24be35c68d7c2698b1c8,
AS,aom,av2,0,A1,Crosswalk,3840x2160,60.0000,10,1280x720,110,3515.512180,41.460586,47.366169,50.458517,24.179699,18.440406,85.633331,83.221620,40.224986,42.421578,41.447140,47.356862,50.442963,0.374326,10772.97,4.25,66447403874801,22313755322,28250534899813,11641694757,1edf6ed46700597bccd9643ab89bff26,
AS,aom,av2,0,A1,Crosswalk,3840x2160,60.0000,10,1280x720,135,1666.064397,40.252493,46.278392,48.919691,20.995927,17.103115,75.635157,73.080327,38.047529,41.330392,40.222704,46.265489,48.895806,0.388657,8344.30,3.69,51973897960728,20527958649,21872653177331,10118582722,edbef997458e6f1bfd1ef72cc16730bc,
AS,aom,av2,0,A1,Crosswalk,3840x2160,60.0000,10,1280x720,160,775.052640,38.391475,44.687658,46.840245,17.497964,15.314913,60.215027,57.814999,35.382893,39.693233,38.337562,44.667087,46.799753,0.429819,5854.83,2.99,37296848894008,17232530388,15371222352127,8232414235,2e52289ed8b3fd756942e5e2930c2f11,
AS,aom,av2,0,A1,Crosswalk,3840x2160,60.0000,10,1280x720,185,363.731038,35.955502,42.701323,44.347136,14.118686,13.252505,40.870161,39.012316,32.473409,37.574231,35.880157,42.674718,44.297044,0.463206,4294.18,2.39,27500645268121,12986774094,11299179010663,6490387639,71b51648de0a9a99d302006ae4950929,
AS,aom,av2,0,A1,Crosswalk,3840x2160,60.0000,10,1280x720,210,164.873895,33.054234,40.446342,41.710148,11.039925,11.119816,20.965355,19.859670,29.402187,34.993251,32.968950,40.415108,41.648125,0.542907,3076.45,1.61,21612933021542,10179619618,8721498027951,4748707238,8ebfe415b8e79acc9c4012ec4ea6c178,
AS,aom,av2,0,A1,Crosswalk,3840x2160,60.0000,10,1280x720,235,74.288788,30.021423,37.845550,38.750839,8.449751,9.169478,6.138968,5.677451,26.377694,32.194988,29.935496,37.822473,38.704212,0.695051,2466.01,1.37,15459319718924,7964068923,6483639917047,3703187949,bf3dcda3f0c551519354c0c74add6076,
AS,aom,av2,0,A1,Crosswalk,3840x2160,60.0000,10,960x540,110,2578.713594,40.859886,46.897827,49.857542,22.913418,17.805403,79.497741,77.050560,39.066817,41.964518,40.840858,46.886244,49.837491,0.423485,7280.75,2.48,46724211661838,13422033919,20498744697395,7221628940,e7b491820d827b633f47223804d76595,
AS,aom,av2,0,A1,Crosswalk,3840x2160,60.0000,10,960x540,135,1257.361715,39.550756,45.742598,48.246071,19.713035,16.416898,68.460044,65.958097,36.952589,40.787584,39.514717,45.727230,48.218205,0.463935,5123.02,2.11,31497949329672,12114556297,13401058313312,5777766744,0098858e303bbed821ed91128d56d018,
AS,aom,av2,0,A1,Crosswalk,3840x2160,60.0000,10,960x540,160,588.065473,37.528505,44.042298,46.052890,16.244543,14.561241,52.105893,49.842260,34.289082,39.001755,37.468463,44.018747,46.011339,0.517256,3668.23,1.84,22401295832904,9992026394,9634211350361,5050280039,b43c79ecb214033c7ff1ee2419e31039,
AS,aom,av2,0,A1,Crosswalk,3840x2160,60.0000,10,960x540,185,278.697303,34.995783,42.149391,43.656033,13.029140,12.520800,33.106232,31.496871,31.429447,36.827189,34.916814,42.119591,43.593246,0.592438,2722.04,1.27,16841567019468,7235798716,7171375331802,3479163116,aa00466e2d49b13766ad88614231e0da,
AS,aom,av2,0,A1,Crosswalk,3840x2160,60.0000,10,960x540,210,125.678629,32.024759,39.717313,40.989400,10.056209,10.403423,15.467874,14.642380,28.371944,34.138247,31.940216,39.688579,40.921343,0.729962,2131.64,0.97,12984777952466,5416913070,5635382340991,2668459771,c2dd30c55e3df33ba8a2a9dd371012f2,
AS,aom,av2,0,A1,Crosswalk,3840x2160,60.0000,10,960x540,235,56.823177,28.988375,37.330798,38.180951,7.709142,8.581752,2.687925,2.501255,25.384346,31.333003,28.908645,37.300665,38.111205,0.891613,1578.91,0.65,9544430360053,3989916077,4177971125643,1766349731,291a7d246ae1be99c18734712f118321,
AS,aom,av2,0,A1,Crosswalk,3840x2160,60.0000,10,640x360,110,1590.392377,39.579152,46.037080,48.758235,20.750849,16.592084,64.144391,61.886120,36.859737,41.074005,39.545125,46.019700,48.731766,0.458169,3910.60,1.31,23648619420155,6820364964,10245577367641,3525099438,2756deaeb91d4daaeaa91203cecdb2ff,
AS,aom,av2,0,A1,Crosswalk,3840x2160,60.0000,10,640x360,135,791.677246,38.179993,44.770383,47.032383,17.664326,15.207132,52.296114,50.075762,35.010722,39.746430,38.131550,44.752201,46.997720,0.522976,2749.27,1.06,17065104185284,5881817501,7202301636284,2876441212,a8e7d4b44de30efa0c7965bd823a4cc2,
AS,aom,av2,0,A1,Crosswalk,3840x2160,60.0000,10,640x360,160,372.923077,36.012361,42.987497,44.738320,14.358100,13.342300,35.670495,33.891164,32.502980,37.787308,35.940260,42.962147,44.691221,0.629686,1923.72,0.81,12181082323087,4680996016,5044348933718,2187755584,2dffdca9c3726b1ac01332fdc720d347,
AS,aom,av2,0,A1,Crosswalk,3840x2160,60.0000,10,640x360,185,176.758626,33.381050,40.947493,42.158445,11.377709,11.358356,19.165874,18.072989,29.735227,35.411085,33.296107,40.918637,42.086127,0.743101,1368.40,0.57,8891890947950,3279171438,3595137318591,1517456683,0674b2a58b631514604be31b887e8a27,
AS,aom,av2,0,A1,Crosswalk,3840x2160,60.0000,10,640x360,210,79.622531,30.362780,38.477724,39.599999,8.716782,9.383410,6.173204,5.768142,26.736428,32.626781,30.280828,38.434053,39.524735,0.920305,1026.12,0.40,6619056670856,2374394111,2706104794694,1069579028,2f292986caa625310e10a9a597ff7759,
AS,aom,av2,0,A1,Crosswalk,3840x2160,60.0000,10,640x360,235,37.240298,27.431352,36.454827,36.928483,6.769683,7.809202,0.236530,0.212902,23.884441,29.973671,27.352042,36.415057,36.834126,1.016800,757.60,0.28,4895905981578,1772260721,2000729238429,768968179,39f9159a39c37311b380d7b3f6bfd0cf,
AS,aom,av2,0,A1,FoodMarket2,3840x2160,60.0000,10,3840x2160,110,28535.924383,43.096920,48.804114,49.001744,32.185438,22.798074,99.971293,99.963357,44.583046,44.035044,42.997566,48.715451,48.905477,0.008609,85045.73,35.11,522148031166778,170063008182,223866662621715,96771954600,74305847f78d78e7b4be50a952c9a92b,
AS,aom,av2,0,A1,FoodMarket2,3840x2160,60.0000,10,3840x2160,135,12497.425037,41.616048,46.803549,47.031514,28.971038,20.934063,99.958206,99.947114,41.399082,42.437939,41.547518,46.725568,46.935848,0.008036,85136.96,32.52,533434940919844,163719558103,224119556218698,90003702533,6e83a3f10d65fd50912a2963154fb2fa,
AS,aom,av2,0,A1,FoodMarket2,3840x2160,60.0000,10,3840x2160,160,5776.613540,39.268694,44.358143,44.598028,24.704767,18.220025,98.244493,95.991267,37.305697,40.182442,39.193450,44.280232,44.494525,0.008291,55695.39,30.18,356628860256397,158806326982,147300418549569,83841104646,cf7edc4e0809a701527caff16fc843fa,
AS,aom,av2,0,A1,FoodMarket2,3840x2160,60.0000,10,3840x2160,185,2702.404057,36.299141,41.751865,41.947931,20.088622,15.062912,83.187094,80.948960,33.084848,37.495136,36.213375,41.674057,41.846710,0.010511,38780.90,24.74,251186588287161,139667129135,102573717067915,68460585633,d479e12b24cdb66d89db8cc517439fb8,
AS,aom,av2,0,A1,FoodMarket2,3840x2160,60.0000,10,3840x2160,210,1214.249135,33.001937,39.138050,39.262397,15.535512,11.841315,60.022518,58.460013,29.057058,34.581718,32.913369,39.064697,39.157988,0.015775,21801.18,17.59,174914499981999,108879840624,75589733884174,63587841067,f3a40872e915c19e3f915002263c6afe,
AS,aom,av2,0,A1,FoodMarket2,3840x2160,60.0000,10,3840x2160,235,514.499654,29.715981,36.553349,36.584051,11.408253,8.910923,35.960682,35.134772,25.440087,31.598751,29.625944,36.476144,36.467503,0.044365,19797.06,14.78,118541132284658,83658050945,52191179166428,40445432143,645e9f72b1d9a4947a7efeed135ee9d2,
AS,aom,av2,0,A1,FoodMarket2,3840x2160,60.0000,10,2560x1440,110,16911.189733,42.206839,47.459864,47.581793,30.462411,21.780389,99.962890,99.952505,42.798746,43.050428,42.135270,47.369341,47.470514,0.009470,39525.40,17.58,236922133849800,82787049483,104517740166885,48124574812,94d744d2e2cead42331a4af429e8bf77,
AS,aom,av2,0,A1,FoodMarket2,3840x2160,60.0000,10,2560x1440,135,8006.789518,40.393660,45.368832,45.566416,26.784881,19.551208,99.940673,99.592045,39.217006,41.229308,40.324027,45.283591,45.454934,0.009291,43375.26,15.73,270501666604863,78015376370,114086858610997,43321706164,fd4292d1dc50adbbf0fbdf6886b0cc5e,
AS,aom,av2,0,A1,FoodMarket2,3840x2160,60.0000,10,2560x1440,160,3710.392992,37.696213,42.922399,43.144924,22.292021,16.559806,91.785338,89.081305,35.000847,38.763918,37.613937,42.834094,43.028844,0.011711,30586.92,13.87,195122647939212,73224215132,80747055940607,38554832063,7df3a851d95c80597f9483607a153e91,
AS,aom,av2,0,A1,FoodMarket2,3840x2160,60.0000,10,2560x1440,185,1703.241989,34.594736,40.425164,40.599491,17.712446,13.386880,72.747197,70.490158,30.943710,36.030841,34.504223,40.340613,40.485457,0.016241,22293.48,11.20,139930746825903,62390105330,58880257306853,30868011283,c94945a5eb99e22b5829d0773e868d5a,
AS,aom,av2,0,A1,FoodMarket2,3840x2160,60.0000,10,2560x1440,210,732.213018,31.307287,37.980719,38.039027,13.332126,10.293210,48.531326,47.122742,27.158437,33.141158,31.214036,37.897539,37.916650,0.033347,15875.61,8.55,101552434588982,43327947275,41953570330410,23665670854,0f36c44c630e4e1064a85a60047b74dc,
AS,aom,av2,0,A1,FoodMarket2,3840x2160,60.0000,10,2560x1440,235,294.222700,28.111511,35.616830,35.440974,9.434961,7.569786,26.739908,26.190153,23.801209,30.269096,28.020930,35.535444,35.329828,0.101680,11074.94,6.08,71430043365631,34377437033,29048341550946,16568930511,e070a61505f56d4c44356095626395be,
AS,aom,av2,0,A1,FoodMarket2,3840x2160,60.0000,10,1920x1080,110,12227.185737,41.149343,46.134208,46.274588,28.930658,20.725040,99.952270,99.939061,41.104155,42.034778,41.070716,46.034282,46.136117,0.011517,24844.71,10.92,150088318032709,50380372424,65575216401967,29619236044,f27505144b5c33626237b7d1ef68bc83,
AS,aom,av2,0,A1,FoodMarket2,3840x2160,60.0000,10,1920x1080,135,5902.978253,39.200582,44.131450,44.352121,25.035517,18.329347,98.799405,96.176741,37.434366,40.134397,39.123918,44.038955,44.223870,0.015618,26166.23,9.00,174152807626512,46256369685,73935324064238,26384632311,c347b237b5d4dfb8d756088085a77957,
AS,aom,av2,0,A1,FoodMarket2,3840x2160,60.0000,10,1920x1080,160,2714.731422,36.434140,41.806364,42.036966,20.518621,15.300562,85.071461,82.295927,33.330154,37.652391,36.348671,41.715296,41.913364,0.016850,20364.77,7.77,129918287157807,42288915770,53571673945596,21376320418,e07076c6aa97375c442f4ccb49f2ab3b,
AS,aom,av2,0,A1,FoodMarket2,3840x2160,60.0000,10,1920x1080,185,1218.398832,33.306228,39.423268,39.604680,16.033708,12.176355,63.621923,61.514376,29.420288,34.921013,33.210671,39.335549,39.485017,0.033408,13561.11,5.87,94792839762020,34724881032,38466555330043,17311013160,980046ee048eb7e4ae86f07dd465d657,
AS,aom,av2,0,A1,FoodMarket2,3840x2160,60.0000,10,1920x1080,210,507.428571,30.076869,37.178208,37.196924,11.854660,9.238986,39.931862,38.768452,25.836503,32.115962,29.979336,37.086795,37.071186,0.081804,10304.67,4.25,69008689316911,23743339022,27141458955096,11577107572,00ca216dad6006b5c8d886d4afe82d00,
AS,aom,av2,0,A1,FoodMarket2,3840x2160,60.0000,10,1920x1080,235,197.765312,27.023151,34.998957,34.754478,8.157654,6.716217,21.117486,20.761652,22.732974,29.313096,26.932756,34.908856,34.641813,0.158439,7323.19,3.26,47984696901402,18585051092,19184295912971,8949801142,70aa4220e640f5d76bf9a7e758d6c8ef,
AS,aom,av2,0,A1,FoodMarket2,3840x2160,60.0000,10,1280x720,110,7679.623761,38.562737,43.929545,44.215454,26.334676,18.409153,98.056284,95.464237,37.097630,39.988642,38.399217,43.806574,44.034390,0.010938,17506.02,5.07,107869274922641,25056762969,45950076823532,13624812964,99435d696401d05f905041e3badabb94,
AS,aom,av2,0,A1,FoodMarket2,3840x2160,60.0000,10,1280x720,135,3734.177207,36.869489,42.221354,42.498457,22.415122,16.193683,88.533757,85.769230,34.221720,38.230788,36.745853,42.113645,42.345606,0.016048,15698.95,4.49,97379075588352,22085272976,41170765477594,12185841503,51802e5805b80027a1ad99f3ab0f8d1d,
AS,aom,av2,0,A1,FoodMarket2,3840x2160,60.0000,10,1280x720,160,1704.754323,34.373674,40.195911,40.439921,17.988302,13.374296,71.291996,68.816174,30.773295,35.926758,34.270471,40.089607,40.301246,0.026553,11359.32,3.57,73705436856978,19370690687,29764455758154,9763816313,3064ec4e4bcb5767fe5d056aaeb1d1a5,
AS,aom,av2,0,A1,FoodMarket2,3840x2160,60.0000,10,1280x720,185,744.341197,31.443146,38.086815,38.176523,13.732695,10.493238,49.073073,47.433848,27.314413,33.322941,31.341442,37.992067,38.039915,0.075088,8526.86,2.76,55372840250581,14628460112,22394835642033,7481166784,6994a92659a526ed1911755f44e77e43,
AS,aom,av2,0,A1,FoodMarket2,3840x2160,60.0000,10,1280x720,210,297.926074,28.406948,36.064749,35.908237,9.862925,7.843828,28.610854,27.915438,24.106276,30.641433,28.306321,35.962927,35.779174,0.162683,5630.76,1.79,39568476329163,10295112660,15942758662133,5202795270,5144c39b8e70fc388e5fcaddfa4b39fb,
AS,aom,av2,0,A1,FoodMarket2,3840x2160,60.0000,10,1280x720,235,112.923384,25.548833,34.113206,33.769764,6.542504,5.655334,14.186817,14.067579,21.326307,28.000180,25.454641,34.025752,33.652785,0.227248,3847.02,1.32,27085481903642,8339416603,10840252607749,3828405185,e7fa7aefe62370bcb00c6ca2b3f1f9cf,
AS,aom,av2,0,A1,FoodMarket2,3840x2160,60.0000,10,960x540,110,5587.298855,36.090144,42.374117,42.754146,24.555253,15.969655,86.861929,84.329710,33.173859,38.155753,35.850113,42.231699,42.547361,0.012028,14219.56,3.41,86255489860039,15619155831,37270982331920,9169813448,ad6d656ad7bd2e79807fc005a353e002,
AS,aom,av2,0,A1,FoodMarket2,3840x2160,60.0000,10,960x540,135,2739.729194,34.823196,40.945638,41.246580,20.645805,14.279818,76.096323,73.640710,31.361750,36.677350,34.646175,40.830165,41.081290,0.019512,10310.48,2.74,63423831118726,13304330175,27021371573023,7405411694,3d67f452177f420984d13b828457edcb,
AS,aom,av2,0,A1,FoodMarket2,3840x2160,60.0000,10,960x540,160,1239.770691,32.758859,39.163597,39.355240,16.307471,11.920789,58.216115,56.190182,28.784725,34.632354,32.632000,39.059471,39.208547,0.041789,5862.82,1.62,46966406722060,11230177917,20092145977127,5756280383,8e99d1ca5caa87825535de208235c3d1,
AS,aom,av2,0,A1,FoodMarket2,3840x2160,60.0000,10,960x540,185,539.538000,30.195787,37.259972,37.304680,12.308520,9.414889,38.122831,36.913974,25.934863,32.266871,30.084540,37.165037,37.170627,0.115651,5520.87,1.48,34572482376341,7913675083,14515216469674,3997736249,9384814149613c08128e2047bbb605b0,
AS,aom,av2,0,A1,FoodMarket2,3840x2160,60.0000,10,960x540,210,213.556290,27.350306,35.401190,35.138755,8.612009,6.997231,21.288156,20.903059,23.048232,29.713647,27.249333,35.304189,35.009083,0.218980,3799.62,1.06,23881872842000,5731749398,10023818690020,2868582228,6a56e5d8db92d8f50c1e4aecdc3b7b1f,
AS,aom,av2,0,A1,FoodMarket2,3840x2160,60.0000,10,960x540,235,79.493430,24.640587,33.499315,32.975422,5.586216,5.032524,10.150601,10.198116,20.473843,27.178688,24.549453,33.408927,32.868461,0.272010,1993.73,0.60,16073705586742,4403295057,6859988958102,2093870583,f8ad4873b3252476587bf2ffeb18cd64,
AS,aom,av2,0,A1,FoodMarket2,3840x2160,60.0000,10,640x360,110,3186.904173,32.700852,40.342444,40.708481,20.236241,12.568998,60.361494,58.440582,28.494315,35.460717,32.398375,40.199671,40.501609,0.012233,7024.62,1.65,43480829016491,7636498362,18426974938794,4373999608,feec8b6c270ac7cacf8b165f8ef08ee7,
AS,aom,av2,0,A1,FoodMarket2,3840x2160,60.0000,10,640x360,135,1573.675555,31.867953,39.231480,39.503685,17.216698,11.483631,50.114217,48.409227,27.556987,34.349643,31.633805,39.112935,39.336141,0.027198,5112.10,1.21,32451863467655,6381673766,13399227191649,3240105744,380ca4123ffe21f21b90977a92c2f762,
AS,aom,av2,0,A1,FoodMarket2,3840x2160,60.0000,10,640x360,160,721.062322,30.376142,37.708057,37.836616,13.588709,9.805353,35.671105,34.466396,25.985692,32.686628,30.214686,37.598434,37.693468,0.081572,3571.92,0.95,22870167584475,5104156800,9366701836498,2536662122,148c5e364737ea112e39cbbba6bb23b2,
AS,aom,av2,0,A1,FoodMarket2,3840x2160,60.0000,10,640x360,185,310.699762,28.267585,36.073323,35.962034,10.059366,7.809377,21.617491,21.117175,23.887246,30.618941,28.146195,35.968609,35.823605,0.199958,2557.49,0.61,16405905966975,3362446306,6716061473817,1613559607,d1fefac304f88571af156c97199af489,
AS,aom,av2,0,A1,FoodMarket2,3840x2160,60.0000,10,640x360,210,120.400215,25.764208,34.396876,33.983969,6.818949,5.821092,12.188792,12.171729,21.517797,28.274285,25.664865,34.292563,33.844671,0.302674,1737.71,0.39,11329841084607,2446658016,4577259140343,1037238903,ce4abd11e41fb1e3427567b9b0370b05,
AS,aom,av2,0,A1,FoodMarket2,3840x2160,60.0000,10,640x360,235,45.163452,23.285960,32.744051,31.971825,4.340707,4.233141,6.555434,6.709462,19.241876,25.942316,23.206898,32.653869,31.877017,0.388968,1178.75,0.29,7666082847887,1882911436,3104648998928,786893999,37cfa575a408a5a4e81372cd2bc82299,
AS,aom,av2,0,A1,Neon1224,3840x2160,30.0000,10,3840x2160,110,40771.957273,44.802010,48.585041,47.943329,28.378212,22.513438,99.976963,99.972508,43.760639,46.659765,44.710596,48.437516,47.794719,0.921937,132434.50,46.66,753188831300107,258059119773,345604235497131,129268509518,f3fd9665dcae49a9b3fc1d37d7c7ff1f,
AS,aom,av2,0,A1,Neon1224,3840x2160,30.0000,10,3840x2160,135,18252.194575,41.509722,45.636994,44.806443,23.974688,19.654466,99.337200,98.552968,39.773808,43.952103,41.381711,45.543033,44.680634,1.073623,120197.46,36.50,758899887210781,221539063355,337954548306504,109415196370,883f9d2aa196c511f62694cb7b9fc494,
AS,aom,av2,0,A1,Neon1224,3840x2160,30.0000,10,3840x2160,160,8243.097210,38.559679,42.501198,41.468304,20.372381,17.186602,90.901545,88.680556,35.857547,41.289895,38.434166,42.390484,41.308347,1.194988,95638.60,34.02,575260962055418,196496072161,250470353335235,95887375811,b4de967da58e62cf86e280329f859201,
AS,aom,av2,0,A1,Neon1224,3840x2160,30.0000,10,3840x2160,185,3774.667179,35.519341,39.248680,37.958035,16.875783,14.681454,73.723179,71.424035,31.907445,38.438331,35.385152,39.107520,37.754289,1.396732,75021.09,28.37,460119584767207,169278224555,196706814375371,80469630974,7f4c8ceba301d511e5027c5b31d1f808,
AS,aom,av2,0,A1,Neon1224,3840x2160,30.0000,10,3840x2160,210,1636.492738,32.237387,35.896478,34.272658,13.264598,12.060925,51.279590,49.368456,27.976616,35.254478,32.093477,35.729502,34.028830,1.520285,43406.54,20.16,342929698013814,140962875563,149214408922558,74538432263,f2609611dfa3b0b4f4b3a4c523bf5727,
AS,aom,av2,0,A1,Neon1224,3840x2160,30.0000,10,3840x2160,235,692.309537,29.078940,32.541063,30.668290,10.066495,9.679753,28.433790,27.206318,24.469806,31.978785,28.947979,32.354642,30.400696,1.642143,31489.94,18.66,214670068391760,103554508231,88985810357786,56466767859,979ca9069f7ddbf16611ef13d91653a0,
AS,aom,av2,0,A1,Neon1224,3840x2160,30.0000,10,2560x1440,110,24122.523015,42.223341,46.916809,46.133908,25.710431,20.725696,99.907839,99.625492,41.389819,44.918907,42.172342,46.820774,46.017060,1.066018,90336.22,24.24,524932717759260,130272084692,238843260668247,66684526606,d8d2b33a4dc94b35a52e80b355f09bc1,
AS,aom,av2,0,A1,Neon1224,3840x2160,30.0000,10,2560x1440,135,11277.283332,39.679781,44.012565,43.022986,21.947060,18.277540,95.794612,94.034321,37.615349,42.514052,39.590264,43.917278,42.885106,1.211104,85731.24,20.84,505112041728487,112359968370,225668818896159,57899428261,6a2c79643bcee91e5ae693448a26a151,
AS,aom,av2,0,A1,Neon1224,3840x2160,30.0000,10,2560x1440,160,5242.396373,36.870546,40.869370,39.656009,18.483476,15.846366,82.261798,79.823852,33.702888,39.860691,36.755152,40.745398,39.475458,1.315158,63634.20,17.44,386218865424656,97058110797,166984915039517,48735889451,a87be45e039251a67ef8ef378ada2903,
AS,aom,av2,0,A1,Neon1224,3840x2160,30.0000,10,2560x1440,185,2365.061400,33.769664,37.643180,36.157115,14.972039,13.292822,62.501625,60.245813,29.802037,36.965124,33.633651,37.490976,35.937262,1.440577,39448.94,11.71,309931797511787,80847046845,135003813869458,42942007860,642a530d0b2b2b8e7caf11c33ccadb2a,
AS,aom,av2,0,A1,Neon1224,3840x2160,30.0000,10,2560x1440,210,993.452086,30.584849,34.409723,32.578450,11.618135,10.834255,39.121770,37.543267,26.135783,33.852615,30.450553,34.236545,32.322610,1.502947,34805.29,9.50,223350800368599,59793327248,91095802529415,26833291962,5d4c9937645773917d54596b3472b65a,
AS,aom,av2,0,A1,Neon1224,3840x2160,30.0000,10,2560x1440,235,400.264966,27.548912,31.369218,29.258774,8.755083,8.662276,17.432020,16.611155,22.916389,30.770211,27.431066,31.190924,28.995196,1.727255,21060.32,7.55,134255310897062,44039293430,55078117797304,21094472227,d25cf990e8efda64261100ef494b41e5,
AS,aom,av2,0,A1,Neon1224,3840x2160,30.0000,10,1920x1080,110,16952.315992,40.621574,45.749799,44.839833,24.061116,19.631358,98.869076,97.741748,39.748607,43.813699,40.583709,45.665141,44.727602,1.251415,55865.80,16.32,321211945275674,82425651200,148024761228615,44593815023,67982479cfee2da6e891866207411c1a,
AS,aom,av2,0,A1,Neon1224,3840x2160,30.0000,10,1920x1080,135,8171.250288,38.366646,42.820734,41.696173,20.588776,17.327430,90.696405,88.388950,36.041122,41.477107,38.292558,42.716393,41.545628,1.402961,55904.44,13.35,331077717108835,70058154779,147301565426602,36740292067,20b2f94e850650dcb6f50d7233104a62,
AS,aom,av2,0,A1,Neon1224,3840x2160,30.0000,10,1920x1080,160,3802.973642,35.596866,39.663968,38.305388,17.123027,14.869950,74.542215,72.078222,32.147847,38.799766,35.486130,39.530818,38.109670,1.520335,42397.79,11.26,258974234363719,59717787891,111234610864704,31246513583,881b98f543129740c55b4c05fa44e013,
AS,aom,av2,0,A1,Neon1224,3840x2160,30.0000,10,1920x1080,185,1682.150465,32.527522,36.493575,34.841020,13.661894,12.337846,53.844719,51.742760,28.364093,35.887999,32.394796,36.337205,34.613373,1.595496,33555.19,8.27,207184979911386,47979150410,87580474593266,23176767523,9d3968d9bd5c2a132e527201174dac7d,
AS,aom,av2,0,A1,Neon1224,3840x2160,30.0000,10,1920x1080,210,688.987935,29.433010,33.384198,31.387961,10.509595,9.996805,30.545573,29.213673,24.899773,32.824495,29.306207,33.216744,31.128653,1.680147,23049.11,5.97,146553423300811,33588592755,60228831205017,16783175049,0dbf5eee0155acdff50a9bb118d4b3ba,
AS,aom,av2,0,A1,Neon1224,3840x2160,30.0000,10,1920x1080,235,267.203566,26.483601,30.489989,28.274031,7.865413,7.968161,10.437830,9.847278,21.865384,29.822664,26.374722,30.319321,28.015514,1.849023,12962.15,4.49,84023476816278,24868611389,33884540602150,12616396131,2593c46eb7bf15f913c1531e5ae7a70f,
AS,aom,av2,0,A1,Neon1224,3840x2160,30.0000,10,1280x720,110,10347.701529,37.777944,43.633473,42.384367,22.042634,17.965274,91.138464,88.852193,36.168685,41.962137,37.749525,43.568059,42.296073,1.442885,29763.99,8.41,185137824335003,43024724905,84734536608316,24421704482,a7aa2a1c501364cbc43e3bc7016bc7a0,
AS,aom,av2,0,A1,Neon1224,3840x2160,30.0000,10,1280x720,135,5111.188504,36.034979,40.835649,39.468797,18.702290,15.826747,78.230093,75.801018,33.166509,39.763203,35.983913,40.731288,39.320669,1.573491,29209.59,6.95,174096675122708,35708454925,77080782789643,18964533271,310a42493cfecfeabd6c7ddc5e4c5b97,
AS,aom,av2,0,A1,Neon1224,3840x2160,30.0000,10,1280x720,160,2355.989242,33.576596,37.807903,36.226813,15.235738,13.431121,60.294797,58.092898,29.735988,37.145928,33.488346,37.668867,36.027527,1.735609,18069.40,4.51,140622156220664,29516668035,61969757092728,16195414504,0f99d06065b047c85d03628d6365a090,
AS,aom,av2,0,A1,Neon1224,3840x2160,30.0000,10,1280x720,185,1016.642434,30.741554,34.812118,32.948508,11.914971,11.031022,39.661824,37.977725,26.352313,34.298077,30.628412,34.657946,32.714233,1.779127,17796.02,3.94,111346073297794,22879420477,46494842786447,10890799352,5e732e3e1b17290eb548024c0c7239de,
AS,aom,av2,0,A1,Neon1224,3840x2160,30.0000,10,1280x720,210,403.075694,27.818708,31.980214,29.764017,9.037594,8.865974,18.118520,17.240990,23.226460,31.350443,27.705746,31.817265,29.499737,1.927646,11591.92,2.56,73747629555215,14673806075,30265768479130,7100295814,c201da7d8574fb6ac93a0bdf707b1ed2,
AS,aom,av2,0,A1,Neon1224,3840x2160,30.0000,10,1280x720,235,147.618535,25.010112,29.378660,27.007025,6.743675,7.066553,3.280710,3.108696,20.460289,28.489225,24.910023,29.214941,26.743187,1.995151,5872.10,1.81,40678983533522,11178094400,16501820120482,5405095102,2058bb6d1ad087653eb73b8e2fd41a25,
AS,aom,av2,0,A1,Neon1224,3840x2160,30.0000,10,960x540,110,7306.446169,35.619738,41.892278,40.260412,20.754384,16.462447,78.871219,76.479400,32.855106,40.482693,35.591078,41.840465,40.185704,1.579369,22794.32,5.69,132071851718681,27045634701,60282540690379,15271199254,e30f34492e82aeb1ddd17a39fdf90691,
AS,aom,av2,0,A1,Neon1224,3840x2160,30.0000,10,960x540,135,3687.198955,34.292275,39.372819,37.792689,17.474457,14.620756,65.743287,63.442025,30.795233,38.498595,34.254275,39.277626,37.663225,1.757579,17127.33,4.30,106415535279920,22618050297,48673465835675,12533379510,68350a5cbf196b12209a0ec9c7914976,
AS,aom,av2,0,A1,Neon1224,3840x2160,30.0000,10,960x540,160,1675.568124,32.146407,36.514367,34.775873,13.976355,12.386222,48.310553,46.409926,27.989378,35.972452,32.076628,36.382149,34.585812,1.960624,13273.15,3.42,80049092579414,18314545954,34923110209300,9367246632,63b2d31e59f961801d535b0fbcac66ef,
AS,aom,av2,0,A1,Neon1224,3840x2160,30.0000,10,960x540,185,723.893337,29.606668,33.726801,31.709919,10.865115,10.207560,29.825100,28.499154,25.088795,33.261355,29.511697,33.573859,31.481678,2.056956,8765.89,2.32,57414898076494,13768908745,24698880070614,6837927772,96e28ab21cdd0d5efa84d9caf236c189,
AS,aom,av2,0,A1,Neon1224,3840x2160,30.0000,10,960x540,210,281.218474,26.817859,31.124158,28.785348,8.210747,8.214204,10.416232,9.888664,22.218585,30.454648,26.716125,30.972804,28.528833,2.106721,6173.69,1.45,38039396771735,8502205472,16164832195112,3991292959,405b4358c320d7ba7da83c2834804edd,
AS,aom,av2,0,A1,Neon1224,3840x2160,30.0000,10,960x540,235,99.043111,24.124356,28.761394,26.292886,6.117083,6.544056,1.447270,1.376930,19.639903,27.740668,24.034655,28.601301,26.033932,2.202656,3344.26,1.07,20333194216365,6324163867,8780935711313,2950466196,d031915b647cd938df8d835f40e883d6,
AS,aom,av2,0,A1,Neon1224,3840x2160,30.0000,10,640x360,110,4310.405902,32.802150,39.149112,37.099260,18.345086,14.193522,53.154126,51.285607,28.731607,38.201319,32.772760,39.102734,37.027228,1.687595,10783.20,2.92,63064247156975,13391202387,28633475514672,7816036089,6b56a9ce44cd5043f0b64dfeae31ce67,
AS,aom,av2,0,A1,Neon1224,3840x2160,30.0000,10,640x360,135,2187.266272,31.832867,37.070120,35.194614,15.257891,12.718240,41.810778,40.140531,27.516810,36.452011,31.802309,36.985071,35.078441,1.864673,8007.48,2.11,50791190453430,11008954163,22792686016664,6098104172,ede969d636bdafde4bb9b1e333ab93bc,
AS,aom,av2,0,A1,Neon1224,3840x2160,30.0000,10,640x360,160,986.067471,30.110282,34.585372,32.628531,12.064250,10.856096,27.615654,26.429774,25.558971,34.160599,30.058955,34.465440,32.449094,2.151568,6435.62,1.74,39192501121231,8711047964,16956340226629,4714712889,4b565047d7ceafb0355529d1bb0167d3,
AS,aom,av2,0,A1,Neon1224,3840x2160,30.0000,10,640x360,185,418.313379,27.876061,32.124190,29.932183,9.300003,8.988275,13.095705,12.474317,23.234963,31.613426,27.799306,31.980599,29.705239,2.124699,4261.82,1.13,26786553248560,6366590330,11166656561772,3092636761,a186e4f1d4a581b77a0f628ab792fa87,
AS,aom,av2,0,A1,Neon1224,3840x2160,30.0000,10,640x360,210,155.349881,25.255172,29.857964,27.389229,6.950394,7.209563,2.299183,2.225359,20.705834,28.959440,25.164546,29.717220,27.139199,2.250291,2333.60,0.60,15938038944005,3753647787,6571449582406,1752896344,a1f304c4fb44cf44ce2dcb519a5c9f19,
AS,aom,av2,0,A1,Neon1224,3840x2160,30.0000,10,640x360,235,52.048259,22.835116,27.759931,25.238592,5.301825,5.842044,0.201388,0.201580,18.454783,26.451773,22.757469,27.604486,24.976528,2.403452,1132.65,0.40,7398189794956,2614682732,2972162812953,1117356202,1aa341c100f6ca66826ab642001184d2,
AS,aom,av2,0,A1,NocturneDance,3840x2160,60.0000,10,3840x2160,110,50253.902769,46.315766,43.539110,48.470630,27.006849,21.843140,93.974081,91.767946,43.344522,44.837860,46.236241,43.466946,48.411368,0.408536,123365.56,51.11,726333125623758,248576146400,321852378240951,141020585004,33208ef2c07c2eda2e83cc507ef105ab,
AS,aom,av2,0,A1,NocturneDance,3840x2160,60.0000,10,3840x2160,135,21775.835077,43.157778,41.540538,46.936265,22.941366,18.726369,84.558362,82.285669,39.472046,42.703539,43.080256,41.497138,46.899672,0.435621,134964.26,42.55,831762984217738,217164591903,352056916259670,117910883062,8e2c4c9cb6ef531a53e77684d4442dca,
AS,aom,av2,0,A1,NocturneDance,3840x2160,60.0000,10,3840x2160,160,9372.217846,39.929798,39.806486,45.427425,18.840425,15.591806,68.024368,65.981679,35.762911,40.681211,39.839858,39.781277,45.404149,0.269330,89789.91,34.95,563506859612482,187587362629,234797065805873,97307217147,0e7b67c3d694a0949234942bce04c256,
AS,aom,av2,0,A1,NocturneDance,3840x2160,60.0000,10,3840x2160,185,3670.903385,36.563947,38.101747,43.796079,14.480415,12.279398,44.591034,43.295464,32.102039,38.530258,36.459470,38.082043,43.779288,0.303002,44895.02,23.72,365670521374252,164848644558,153918266704779,86257088325,cd36b4a07cd854f22096cb867737b2c0,
AS,aom,av2,0,A1,NocturneDance,3840x2160,60.0000,10,3840x2160,210,998.470154,33.323041,36.528405,42.198687,10.139222,9.145419,19.695942,19.222677,28.764459,36.397843,33.217531,36.511454,42.184654,0.471996,31343.88,19.40,198350611111963,108245797614,82725181208133,53780629318,35748e2a228d6aed0fb345662eb1279b,
AS,aom,av2,0,A1,NocturneDance,3840x2160,60.0000,10,3840x2160,235,227.228308,31.434931,35.452660,40.622015,7.769377,7.506620,8.115181,7.895243,26.944653,34.722928,31.389123,35.442966,40.606486,0.849570,16504.08,13.80,102928087112252,74298827663,43848244766019,37929073587,01ff67535aa7a98445cb314fe12f5f85,
AS,aom,av2,0,A1,NocturneDance,3840x2160,60.0000,10,2560x1440,110,30742.375385,44.499855,42.075218,47.327030,24.663904,20.026708,89.576956,87.267388,41.069317,43.433912,44.428928,42.032865,47.283672,0.517035,68814.92,25.67,429930073869901,126261856614,194452212253294,75315790442,8f7cea50f8bee08d3d7338472ea7f7a6,
AS,aom,av2,0,A1,NocturneDance,3840x2160,60.0000,10,2560x1440,135,13331.579077,41.362135,40.425994,45.999624,20.690956,16.977636,76.940788,74.522492,37.358045,41.508209,41.282235,40.396047,45.971076,0.563051,76561.28,23.11,470648971970695,110372970589,200060099585299,63490910941,5a4dbddb55f4ee185a071ec477342b42,
AS,aom,av2,0,A1,NocturneDance,3840x2160,60.0000,10,2560x1440,160,5570.562462,38.151719,38.846545,44.559924,16.605057,13.860485,56.969225,55.011547,33.786036,39.545322,38.057779,38.825614,44.539590,0.456488,49736.82,17.67,309726400814410,92925869327,129913332209342,48908631973,f7e26f2c4fd7a81139495a59c26b4893,
AS,aom,av2,0,A1,NocturneDance,3840x2160,60.0000,10,2560x1440,185,1933.964308,34.897502,37.327621,43.101858,12.279085,10.654694,31.984280,31.062447,30.353615,37.492141,34.793641,37.311222,43.088936,0.450248,23433.71,10.85,191690927657659,74610305011,80183639094958,39359041921,5b910b442949caf1f4578c3de559877d,
AS,aom,av2,0,A1,NocturneDance,3840x2160,60.0000,10,2560x1440,210,423.153231,32.145393,36.041738,41.561200,8.613572,8.086258,11.894985,11.604189,27.624099,35.566003,32.069351,36.026129,41.544793,0.893001,15986.59,7.81,99556797053462,42326338288,42105554499195,21482014985,077d8dc421daab36f4dec35773ec5a18,
AS,aom,av2,0,A1,NocturneDance,3840x2160,60.0000,10,2560x1440,235,95.036308,30.879790,35.074326,39.898396,7.181952,7.142277,4.250146,4.131156,26.441737,34.100772,30.856715,35.065368,39.884746,1.644085,7805.49,5.09,51604639395247,27149721528,20707663532358,13968471685,bbf43795948a0cf285d5feae78adf4f3,
AS,aom,av2,0,A1,NocturneDance,3840x2160,60.0000,10,1920x1080,110,21713.283692,43.159613,40.803735,46.352584,22.948166,18.709044,84.988588,82.647357,39.427574,42.348087,43.090632,40.776583,46.316167,0.600993,46523.17,18.25,273728333450097,79219485237,122348447104379,49720163418,0729f2a9c28ac9e332c63b0dfeaa6d30,
AS,aom,av2,0,A1,NocturneDance,3840x2160,60.0000,10,1920x1080,135,9340.080000,40.039323,39.480802,45.200224,19.004229,15.697680,69.617006,67.304467,35.845786,40.597812,39.955267,39.457476,45.174949,0.690013,48902.30,14.87,298957534936306,68301101159,127829889391333,40605633671,23e2824498dac948d5b0563fc58ed987,
AS,aom,av2,0,A1,NocturneDance,3840x2160,60.0000,10,1920x1080,160,3709.820308,36.841168,38.121024,43.955762,14.880978,12.576037,47.498675,45.862271,32.372975,38.691944,36.744832,38.101988,43.938889,0.740700,29666.86,10.50,198924359287194,55485587038,83328296219607,30922350321,5b38fb9350ecb9e5c9490af47c96ed6e,
AS,aom,av2,0,A1,NocturneDance,3840x2160,60.0000,10,1920x1080,185,1096.434462,33.693361,36.778489,42.666998,10.638233,9.499071,22.615695,21.994230,29.135802,36.710256,33.595299,36.762537,42.654763,0.921349,14479.40,5.84,117698370041237,38616594804,49473272764813,21051229624,1a9885d40f8b7683a7333c0108ae0c7a,
AS,aom,av2,0,A1,NocturneDance,3840x2160,60.0000,10,1920x1080,210,233.073231,31.597377,35.731982,41.147153,7.954241,7.643564,8.851735,8.647357,27.110510,35.073315,31.548178,35.720956,41.131593,1.615636,7514.37,3.17,61882899241268,20468097786,25836056738057,11352747424,8b4e3a487c944063c18bfb6eb312f142,
AS,aom,av2,0,A1,NocturneDance,3840x2160,60.0000,10,1920x1080,235,55.654154,30.512765,34.895763,39.516607,6.876789,6.956999,2.504890,2.417043,26.126254,33.730107,30.495063,34.887542,39.504379,2.361294,3526.24,2.21,29996137485458,13654954105,12202508076107,7934800342,d8cf10921ab11a2bdef77e2d131573a2,
AS,aom,av2,0,A1,NocturneDance,3840x2160,60.0000,10,1280x720,110,12898.349538,41.061857,38.937789,45.002792,20.598263,16.748320,75.515938,73.178675,36.964979,40.733897,41.007320,38.917209,44.974993,0.683216,22968.17,7.40,173685909533499,39749658836,78847933855200,26048712036,923cc75ca78119da341da7f230efe669,
AS,aom,av2,0,A1,NocturneDance,3840x2160,60.0000,10,1280x720,135,5399.704615,38.098675,38.088493,44.130735,16.624947,13.833857,56.536868,54.569466,33.683721,39.249099,38.013878,38.069957,44.110868,0.843260,24864.10,7.14,151833123031831,33859138037,65076075229830,19366587316,38e1116d8355a5db3feca0e120f2bb19,
AS,aom,av2,0,A1,NocturneDance,3840x2160,60.0000,10,1280x720,160,1898.684308,35.015680,37.169197,43.150007,12.461140,10.801131,32.943868,31.874678,30.459108,37.520305,34.916945,37.153517,43.137516,1.195631,16237.62,4.95,102299850666939,25215218475,42355367218025,13470643661,58d6c32cf38ffc8c13d0cc871fecc91a,
AS,aom,av2,0,A1,NocturneDance,3840x2160,60.0000,10,1280x720,185,455.117538,32.365581,36.173057,41.959445,8.884277,8.281625,12.343676,12.020566,27.838555,35.765286,32.287382,36.158461,41.945931,1.750656,6645.53,2.30,54709821519101,13370419349,22670563966742,8245548178,0c5f7ca446e2d0dac0424baf37471e90,
AS,aom,av2,0,A1,NocturneDance,3840x2160,60.0000,10,1280x720,210,99.230769,31.051686,35.367512,40.491881,7.339586,7.252558,4.962279,4.840353,26.612477,34.480785,31.025972,35.359514,40.477602,2.578300,4361.00,1.40,29032933256003,8193584930,11441887868252,3801513275,60479c93941bba4039fbe2c338722ce0,
AS,aom,av2,0,A1,NocturneDance,3840x2160,60.0000,10,1280x720,235,30.129231,29.946245,34.461980,38.768347,6.535777,6.743530,0.198529,0.181572,25.630283,33.047406,29.930793,34.454612,38.754038,3.203549,2169.69,0.94,14884659558360,5585864147,5731039483434,2578648466,9d83720333b489377e7ef4a6fda333bd,
AS,aom,av2,0,A1,NocturneDance,3840x2160,60.0000,10,960x540,110,8725.606154,39.206779,37.923268,44.289281,18.949137,15.015684,64.444535,62.332733,34.831359,39.599470,39.168342,37.903933,44.264525,0.695063,22034.76,5.37,128938431226923,24172880885,57874227024656,14450316764,f119d858fe575616fb62268c07ba8ac4,
AS,aom,av2,0,A1,NocturneDance,3840x2160,60.0000,10,960x540,135,3538.763077,36.653515,37.336685,43.581117,14.966345,12.435789,44.990545,43.419424,32.104735,38.329190,36.582101,37.319195,43.563001,0.966015,14805.46,4.22,89167448488498,19894058372,38768047197736,11421972400,b868ce446a0224580fadf030cb6a6bcc,
AS,aom,av2,0,A1,NocturneDance,3840x2160,60.0000,10,960x540,160,1093.683692,33.852480,36.635633,42.677133,10.929604,9.686858,22.967198,22.293691,29.271651,36.750908,33.764047,36.620592,42.663027,1.489439,8173.24,2.39,53712905571004,13039970439,22958813230798,6967725106,82568ff79664e16c2e3c70aeb0aebef4,
AS,aom,av2,0,A1,NocturneDance,3840x2160,60.0000,10,960x540,185,254.983385,31.787656,35.853810,41.524049,8.169388,7.787354,7.936314,7.732432,27.289755,35.274633,31.731716,35.841746,41.512465,2.270923,4279.95,1.07,26711745635686,6399758146,11195768243633,2894545763,d56ec418a93f7e01598e1d61ec67d44c,
AS,aom,av2,0,A1,NocturneDance,3840x2160,60.0000,10,960x540,210,60.804923,30.710437,35.153409,40.056700,7.039668,7.067017,2.430958,2.360846,26.309994,34.094913,30.692615,35.144783,40.042263,2.995788,2339.14,0.66,14865186377481,3995098332,6161229695256,1815180289,6eebb46b57a0242a902d9f976439efb2,
AS,aom,av2,0,A1,NocturneDance,3840x2160,60.0000,10,960x540,235,21.847385,29.512703,34.375247,38.687941,6.334731,6.609673,0.011462,0.011565,25.272768,32.703605,29.497503,34.371560,38.676366,3.495219,1001.03,0.39,8035960499025,2642980039,3455700712927,1407172398,bb92b1e9f28b43eb81836cc6b5c5b741,
AS,aom,av2,0,A1,NocturneDance,3840x2160,60.0000,10,640x360,110,4299.950769,36.200643,36.982177,43.568902,15.611699,12.168628,39.209148,37.806358,31.470559,37.976861,36.169252,36.964875,43.549145,0.644130,9484.91,2.37,55676542343440,11208560930,24942997113745,6349052848,ce2fe15ba3d0dc8f3b1929943c4fabbf,
AS,aom,av2,0,A1,NocturneDance,3840x2160,60.0000,10,640x360,135,1558.212923,34.380884,36.615837,42.954858,12.118278,10.252123,22.928867,22.116836,29.708365,36.994138,34.329181,36.600216,42.941004,1.142608,6533.23,1.77,40359470682331,8716227466,17108103141897,4759913131,692271c0a8245002940e8cb9e27946eb,
AS,aom,av2,0,A1,NocturneDance,3840x2160,60.0000,10,640x360,160,400.345846,32.364392,36.062569,42.001595,8.982447,8.305704,8.703412,8.455708,27.809048,35.739638,32.307005,36.049528,41.987939,1.973429,3398.56,0.83,21649835272092,4517728293,8876161589534,2222555490,cfea55c44e9ed43f57e695a9c7c4fbc5,
AS,aom,av2,0,A1,NocturneDance,3840x2160,60.0000,10,640x360,185,106.907077,31.167644,35.493670,40.843869,7.464512,7.324019,2.550651,2.477577,26.717626,34.641012,31.140627,35.483105,40.830251,2.870911,1428.47,0.38,9971565476407,2349681003,4027956394901,1089381053,c1d2a54f790d012286dc704f9c6cbb24,
AS,aom,av2,0,A1,NocturneDance,3840x2160,60.0000,10,640x360,210,32.071385,30.149721,34.820493,39.629981,6.645673,6.814697,0.090678,0.084675,25.828153,33.529823,30.135453,34.815392,39.612604,3.515097,965.20,0.28,6442647194565,1699070287,2543301735150,742990156,6895e91bd0c97f038dc817806b8fbeb7,
AS,aom,av2,0,A1,NocturneDance,3840x2160,60.0000,10,640x360,235,14.436923,28.876459,33.803878,38.007425,6.070410,6.438491,0.000000,0.000000,24.717062,32.018718,28.856286,33.801831,37.996106,3.942028,542.13,0.19,3619158125587,1136309752,1435990056610,505541721,5b17ddf0e6d435f2828fcd0fd67f78be,
AS,aom,av2,0,A1,PierSeaSide,3840x2160,30.0000,10,3840x2160,110,11812.744662,44.512021,47.064402,44.403648,31.372524,23.265314,99.661482,98.761906,44.824955,44.025345,44.366733,46.967242,44.290226,0.000267,95428.19,30.14,581106519158627,147852754257,249842505390172,83524515187,bbad52ecf5d7c800649774a325163f13,
AS,aom,av2,0,A1,PierSeaSide,3840x2160,30.0000,10,3840x2160,135,3892.706474,42.765783,45.975055,43.576224,27.821289,21.023636,98.009856,96.167243,41.894480,42.924456,42.520017,45.878508,43.473799,0.000532,65191.04,22.05,520280347769911,135933226936,223736082258293,80116825200,6914e1a84d56a7b6ae40fdfaf99a1ed3,
AS,aom,av2,0,A1,PierSeaSide,3840x2160,30.0000,10,3840x2160,160,1298.706148,40.611939,44.582246,42.720692,23.966289,18.583697,92.546595,90.209087,38.710962,41.572069,40.298872,44.490665,42.627201,0.001221,43145.08,23.02,275516837783015,129118538988,113748290876675,64265065973,fd84004ace45f6a41ec8971b1d21973c,
AS,aom,av2,0,A1,PierSeaSide,3840x2160,30.0000,10,3840x2160,185,464.640126,38.294260,42.741761,41.528999,20.657187,16.355341,83.277213,80.877305,35.602422,39.931449,37.993971,42.667240,41.455192,0.004331,25140.62,18.30,156612131796066,99201596266,67156947989346,50831910119,bba6fb7af1e86bc13fd448a3e0bd6938,
AS,aom,av2,0,A1,PierSeaSide,3840x2160,30.0000,10,3840x2160,210,179.327570,35.744088,40.570453,39.902496,17.628548,14.210377,68.108668,65.932225,32.358223,37.978997,35.528113,40.528595,39.854501,0.014777,16433.55,15.01,104475332665157,70866237874,44313477186990,41520357486,4f2d98295287cac0c2fca8b0720f4776,
AS,aom,av2,0,A1,PierSeaSide,3840x2160,30.0000,10,3840x2160,235,71.972263,32.998716,38.040839,38.024030,14.672423,12.035612,46.722478,44.930355,29.025504,35.687747,32.858614,38.017720,37.991203,0.068054,10577.34,10.71,64786891958221,57303488884,28331712623856,29704336642,bd7455cf4fcdc075814c877414c2d5e0,
AS,aom,av2,0,A1,PierSeaSide,3840x2160,30.0000,10,2560x1440,110,5919.075000,43.165828,46.093431,43.312984,29.403936,21.958930,98.890808,97.202425,43.096428,43.042402,42.914397,45.972583,43.169172,0.000576,43052.36,13.93,263341146383061,68597114481,113136636572381,38353724337,81a6d2564015a242b3f0c9d7f7ea32e5,
AS,aom,av2,0,A1,PierSeaSide,3840x2160,30.0000,10,2560x1440,135,2054.162243,41.423301,45.093362,42.703842,25.722159,19.683596,95.641297,92.989130,40.119677,42.030320,41.094746,44.983192,42.572978,0.001245,38493.66,10.96,243580303884620,61222992295,100729617470521,30374454657,af12da9209f7c919f94aa85521110936,
AS,aom,av2,0,A1,PierSeaSide,3840x2160,30.0000,10,2560x1440,160,706.487882,39.303420,43.566525,41.869065,22.118230,17.348411,88.126238,85.428463,37.019212,40.656427,38.966399,43.476131,41.765064,0.003399,20359.87,9.38,128601687268661,54837086375,53685764002785,26124118868,b48f67e9d7e6a6a653c5c08e6c2c2e1f,
AS,aom,av2,0,A1,PierSeaSide,3840x2160,30.0000,10,2560x1440,185,264.890537,36.978618,41.621122,40.605315,19.101187,15.246157,76.474943,73.921690,33.929518,38.964678,36.710796,41.562216,40.531465,0.010628,11693.19,7.20,76427650087248,38442837290,31139250690552,20053051742,b81f7e672c754962f571cf493b9c35bd,
AS,aom,av2,0,A1,PierSeaSide,3840x2160,30.0000,10,2560x1440,210,104.500318,34.386465,39.433357,39.017730,16.220033,13.152134,58.821484,56.557539,30.684596,36.949036,34.200454,39.398617,38.971888,0.041419,8537.06,4.93,56501141672653,26388835486,22937635221921,13522680155,e44208f31c34bf8fd84508889a9d3264,
AS,aom,av2,0,A1,PierSeaSide,3840x2160,30.0000,10,2560x1440,235,42.734454,31.560126,36.880841,37.191515,13.185198,10.916139,35.420442,33.655723,27.372416,34.574074,31.455022,36.863368,37.163811,0.125483,5220.65,4.09,36569572878771,24231211325,14978195579339,12024194971,6d1a230b16149296e7729832994f48f4,
AS,aom,av2,0,A1,PierSeaSide,3840x2160,30.0000,10,1920x1080,110,3605.055336,41.467374,44.955658,42.542875,27.868709,20.707473,96.481050,93.884529,41.402517,42.050720,41.042337,44.821731,42.390943,0.001118,40997.22,8.25,253270570828113,39571880083,107256116441130,22669800585,7a64a02dd01b2979ec5a91330e56c8a7,
AS,aom,av2,0,A1,PierSeaSide,3840x2160,30.0000,10,1920x1080,135,1287.070410,40.008988,44.044173,42.038746,24.266734,18.589943,91.680098,88.836274,38.639323,41.141054,39.578786,43.928554,41.904127,0.002813,38216.69,6.38,242875519113961,33641120538,99760838854337,17691319857,1bc99b74426a0157552a173aa6ba3a05,
AS,aom,av2,0,A1,PierSeaSide,3840x2160,30.0000,10,1920x1080,160,464.374545,38.123191,42.589640,41.188592,20.934476,16.456059,82.961362,80.240054,35.709142,39.835014,37.753770,42.503316,41.086085,0.010178,20884.60,5.15,134263213126042,29269607627,54667929796330,14245813862,185806b832245b2aadeade53ecc5310f,
AS,aom,av2,0,A1,PierSeaSide,3840x2160,30.0000,10,1920x1080,185,181.481721,35.911134,40.696078,39.928947,18.055149,14.444051,69.777187,67.272450,32.670604,38.157839,35.652025,40.644278,39.862321,0.035226,12076.58,3.65,84833577332088,21075769393,34178482378732,10716175540,c379365b3cc45799891fb1bb6142dd30,
AS,aom,av2,0,A1,PierSeaSide,3840x2160,30.0000,10,1920x1080,210,72.885196,33.318479,38.567256,38.434320,15.196129,12.346860,50.366473,48.123700,29.433704,36.157251,33.157352,38.536330,38.388924,0.079882,9474.95,2.82,62495179233187,15329282313,25005729844213,7654419771,80e6e003d5c2d7d74df2a154943df3a9,
AS,aom,av2,0,A1,PierSeaSide,3840x2160,30.0000,10,1920x1080,235,29.331870,30.544823,36.231708,36.719024,12.115837,10.126349,26.408316,24.897972,26.265650,33.769905,30.450413,36.212859,36.694082,0.184921,5736.89,2.36,40637943174049,13797038542,16274286294913,6935714713,bfd0833bcadc77bd8717ecd8d5e8b5d5,
AS,aom,av2,0,A1,PierSeaSide,3840x2160,30.0000,10,1280x720,110,1727.850727,38.192684,42.934663,41.516249,25.287310,18.238550,87.208264,84.549149,36.827568,40.259489,37.678202,42.824218,41.382530,0.001350,26087.99,3.40,162895019754397,17803083203,68096507208308,9317886270,e8670e961a1e8a739f96c867a93060a1,
AS,aom,av2,0,A1,PierSeaSide,3840x2160,30.0000,10,1280x720,135,648.919662,37.281846,42.218254,41.070390,22.150168,16.660494,81.205574,78.531491,35.162778,39.540026,36.810858,42.125319,40.958560,0.005315,16671.18,2.68,105840999684695,14805565168,43523735030216,7408243612,3ccb68c08b88002d2f886ae9888a88d5,
AS,aom,av2,0,A1,PierSeaSide,3840x2160,30.0000,10,1280x720,160,252.135305,35.959151,40.961201,40.226571,19.252835,14.973526,71.339117,68.901501,33.056335,38.443819,35.588642,40.894789,40.144845,0.019389,9873.00,2.03,64945299125328,12135711095,25788813557516,5588974581,2145f8544a018d4c15c513ae948e1e25,
AS,aom,av2,0,A1,PierSeaSide,3840x2160,30.0000,10,1280x720,185,103.111554,34.126680,39.305645,38.957371,16.528735,13.177431,56.662012,54.396628,30.516048,36.915052,33.883233,39.266784,38.908829,0.071052,6707.02,1.40,44466332417614,7846686022,17600540527644,3809861833,56a96d73b7572d4f9b565f7c1b49fc5c,
AS,aom,av2,0,A1,PierSeaSide,3840x2160,30.0000,10,1280x720,210,43.125447,31.749905,37.320401,37.525878,13.667477,11.172424,36.793458,34.893440,27.620898,34.939689,31.620815,37.299712,37.496651,0.161583,4701.29,1.10,32245454716850,6548247833,12383638968318,3019384435,24ddbb683a8a66ba599cd0dad11ff24b,
AS,aom,av2,0,A1,PierSeaSide,3840x2160,30.0000,10,1280x720,235,17.860276,29.081398,35.247108,36.049868,10.538498,8.969649,13.740789,12.529100,24.735468,32.615942,29.012358,35.233262,36.025390,0.294209,2598.63,1.02,22191062037175,5869707851,8954754572013,3613418620,2186312bb4b4a430a51773db2be2e103,
AS,aom,av2,0,A1,PierSeaSide,3840x2160,30.0000,10,960x540,110,1071.208950,35.666519,41.357445,40.740660,23.841460,15.958637,73.567120,71.209028,32.706130,38.804818,35.253680,41.279004,40.631864,0.002873,14364.39,1.91,88092257633714,10652426382,37425450811462,5164322791,df29b30959107a930f79deac57e88660,
AS,aom,av2,0,A1,PierSeaSide,3840x2160,30.0000,10,960x540,135,421.345002,35.099597,40.785354,40.339117,20.957712,14.931449,67.473572,65.203726,31.855738,38.236837,34.711847,40.715666,40.245189,0.009601,8646.06,1.53,53709981253128,8372052195,22591177444191,4178289741,a1f14e98128809c638f658fd86c7eaeb,
AS,aom,av2,0,A1,PierSeaSide,3840x2160,30.0000,10,960x540,160,171.646028,34.183421,39.784782,39.543679,18.236691,13.682507,57.781155,55.646500,30.573563,37.315525,33.863666,39.732150,39.473153,0.040334,5293.92,1.17,33080043341417,6958010727,13874132801373,3207875799,2824697cd460b3dd5332752e1828e773,
AS,aom,av2,0,A1,PierSeaSide,3840x2160,30.0000,10,960x540,185,72.601172,32.715691,38.403058,38.425010,15.511374,12.160985,43.007776,41.160391,28.717242,35.984948,32.500788,38.368222,38.370417,0.109496,2968.27,0.62,24038550438571,4513496717,10193152530231,2170670081,1fc5ea8575e0adfd35f4c1f35424a4d8,
AS,aom,av2,0,A1,PierSeaSide,3840x2160,30.0000,10,960x540,210,31.349542,30.669848,36.618067,37.094764,12.603105,10.338987,25.094976,23.668171,26.390209,34.136743,30.551551,36.597541,37.066423,0.178937,2337.69,0.54,19188242808031,3968723396,8055226801238,1927889096,83b4f6a7e1ee3596eeb5db03b422edeb,
AS,aom,av2,0,A1,PierSeaSide,3840x2160,30.0000,10,960x540,235,13.286393,28.114248,34.574544,35.599591,9.472643,8.197832,4.754350,4.008762,23.759984,31.906595,28.057752,34.563037,35.576018,0.266668,2109.38,0.56,13335114543320,3284171969,5585637850711,1511629981,da03a0cf9703ac2b9e584423e33d5c1f,
AS,aom,av2,0,A1,PierSeaSide,3840x2160,30.0000,10,640x360,110,483.726866,32.442515,39.509687,39.675264,20.146654,12.899131,42.549209,40.801592,28.143184,36.755256,32.213858,39.458977,39.593372,0.006967,4895.66,0.80,30796738583451,4546135975,12784558206112,2156781165,a14e1e872fd8360efeb99d483b3f2170,
AS,aom,av2,0,A1,PierSeaSide,3840x2160,30.0000,10,640x360,135,201.483238,32.134860,39.070846,39.303344,18.232527,12.356919,37.536797,35.875626,27.788247,36.335795,31.913920,39.023857,39.232315,0.023366,3001.85,0.56,19059407398103,3436616269,7850439726755,1516952407,771188cfedbdcc0c62b581d3cff87117,
AS,aom,av2,0,A1,PierSeaSide,3840x2160,30.0000,10,640x360,160,88.939894,31.587801,38.256670,38.570021,16.054507,11.583045,29.646225,28.172911,27.177246,35.621500,31.394086,38.219008,38.515863,0.082803,1693.82,0.43,11019145988988,2753760825,4448237026395,1186447843,bdbcfc2a58df7b46917f16f31004bb2f,
AS,aom,av2,0,A1,PierSeaSide,3840x2160,30.0000,10,640x360,185,39.698723,30.579302,37.040182,37.532961,13.578173,10.466824,18.275193,17.073680,26.114577,34.463756,30.438256,37.014634,37.499785,0.176189,887.78,0.23,7679198810801,1841727593,3059993201912,822000295,c6dfcb57773e29d199a65076d6920a5d,
AS,aom,av2,0,A1,PierSeaSide,3840x2160,30.0000,10,640x360,210,17.816012,28.930741,35.374140,36.322260,10.759832,8.902503,5.265832,4.500442,24.482102,32.763268,28.850350,35.358902,36.297839,0.226843,856.01,0.26,5801823520226,1662374919,2268087419559,662577564,334900414f0ba53f28572470c55d56e2,
AS,aom,av2,0,A1,PierSeaSide,3840x2160,30.0000,10,640x360,235,8.410043,26.843160,33.571803,35.098853,8.046172,7.175432,0.000000,0.000000,22.524754,30.793052,26.800555,33.558162,35.083022,0.345645,501.08,0.20,4252956793677,1418389196,1736380096026,704101740,b76eadb8aaae29fd3d971f13c592e17b,
AS,aom,av2,0,A1,Tango,3840x2160,60.0000,10,3840x2160,110,31254.705909,40.432264,49.619161,47.871756,27.339604,18.254708,97.405801,95.664292,41.349283,42.538270,40.359253,49.606179,47.844823,0.235361,171725.64,38.04,1044146617144721,195374708008,447409093911665,105032373132,6ae1aee880a82c1f79c62f163d167f5a,
AS,aom,av2,0,A1,Tango,3840x2160,60.0000,10,3840x2160,135,10864.842235,39.781930,48.844460,46.695806,24.822016,17.357790,92.924057,90.908882,39.683854,41.817192,39.768406,48.838815,46.678168,0.321334,101561.82,29.94,675076253744232,173120088683,285702193145766,89289096506,44ec1701220bdaa012058eaa28e486cb,
AS,aom,av2,0,A1,Tango,3840x2160,60.0000,10,3840x2160,160,4160.511489,38.819359,47.601576,44.960502,21.858310,16.191626,84.597310,82.455690,37.488557,40.771150,38.810877,47.591752,44.936619,0.268008,54905.19,26.83,350270138308229,152319014188,144074310902206,74772245138,39971c9ce4993ca40a11a0796657b783,
AS,aom,av2,0,A1,Tango,3840x2160,60.0000,10,3840x2160,185,2009.902713,37.249675,45.790347,42.627131,18.413338,14.570303,70.824787,68.704723,34.714516,39.211281,37.229622,45.771771,42.595042,0.304480,34452.76,22.49,219749521598229,123145595764,90687097178774,62136238936,6b9f1dbfe59707272e063bdfc890f203,
AS,aom,av2,0,A1,Tango,3840x2160,60.0000,10,3840x2160,210,951.468224,34.942958,43.520379,39.932935,14.825173,12.565675,51.578945,49.829085,31.551530,37.098423,34.905649,43.492725,39.895552,0.405435,23031.59,17.66,143831318401571,91694911427,61155357013543,48606810357,2c1e48b4b63ee1b2a52c3babac077ee6,
AS,aom,av2,0,A1,Tango,3840x2160,60.0000,10,3840x2160,235,444.482287,32.176090,40.586897,36.962115,11.476501,10.455183,31.503713,30.262498,28.358864,34.471920,32.125247,40.544359,36.920262,0.562937,13815.95,16.55,84284431004964,82170987182,36706690354710,45527256482,fd37380c59bd3e6f4c9c4c00d6b9e19f,
AS,aom,av2,0,A1,Tango,3840x2160,60.0000,10,2560x1440,110,14570.849458,40.035897,49.216258,47.201938,25.940709,17.729721,95.337502,93.286462,40.405452,42.119041,40.022981,49.209608,47.183469,0.376167,49608.46,19.99,316588705632497,93191504092,140084134663836,59096621332,48faf98bee80e15f43f3f90bfbc92751,
AS,aom,av2,0,A1,Tango,3840x2160,60.0000,10,2560x1440,135,5890.890648,39.316258,48.301006,45.840987,23.371858,16.784103,89.464934,87.111161,38.570601,41.318494,39.310131,48.294207,45.821915,0.360956,43953.14,16.51,272030481927262,84306899425,115002779602822,45785771581,2745ded5ed4ab6fd55ea6ac42bff4131,
AS,aom,av2,0,A1,Tango,3840x2160,60.0000,10,2560x1440,160,2698.719127,38.062787,46.845085,43.886567,20.077907,15.385850,78.382173,75.953159,36.065389,40.059826,38.049447,46.832637,43.858721,0.367204,25960.41,12.80,162326968673081,71398937312,68124657042972,35541001057,e4d5010c1fad671ba07496d7e6c87bc2,
AS,aom,av2,0,A1,Tango,3840x2160,60.0000,10,2560x1440,185,1298.991470,36.140366,44.841871,41.437107,16.539226,13.567635,62.036504,59.832054,33.116442,38.264340,36.112677,44.820458,41.401303,0.433078,16925.35,10.11,109662810783451,56426575688,44512887964196,27926488530,aa232b389310ce1c3a186b5e3c5638e8,
AS,aom,av2,0,A1,Tango,3840x2160,60.0000,10,2560x1440,210,600.735880,33.553680,42.490366,38.649891,13.051110,11.478297,42.069560,40.465812,29.916531,35.950067,33.510251,42.459039,38.610060,0.508544,12372.47,8.48,76922818984043,43673664242,32664538062487,23269859081,6e450cfc06491ffce31f332ad9b4c589,
AS,aom,av2,0,A1,Tango,3840x2160,60.0000,10,2560x1440,235,271.371705,30.645090,39.639043,35.683619,9.981037,9.451917,21.287404,20.433538,26.770726,33.198323,30.591065,39.601404,35.642130,0.646407,6058.29,6.47,48829088354932,37282094221,20932528976364,23170994490,a9404312f665fc8325855736c57205b1,
AS,aom,av2,0,A1,Tango,3840x2160,60.0000,10,1920x1080,110,9579.963421,39.751225,48.852293,46.576945,24.972373,17.356262,93.145321,90.898482,39.675551,41.790375,39.744793,48.846777,46.560146,0.455658,26056.17,10.88,164766019873009,57213117094,73579523505254,31981722117,1963bcceb8a0e0d0e904cdfaa0e983c9,
AS,aom,av2,0,A1,Tango,3840x2160,60.0000,10,1920x1080,135,4220.469992,38.884228,47.825006,45.101350,22.179352,16.292441,85.693926,83.186110,37.642727,40.880696,38.876937,47.816797,45.080000,0.471358,25354.96,10.17,156386968842776,51524703364,66334652145263,28049115131,316b851f7166e36ee7f91170d08f617a,
AS,aom,av2,0,A1,Tango,3840x2160,60.0000,10,1920x1080,160,2006.424345,37.385195,46.198117,42.990706,18.732969,14.722130,72.519287,70.022414,34.941722,39.440929,37.367196,46.182502,42.960422,0.535728,16070.05,7.67,102229647966176,42422861232,42095541247334,21195611378,2f2c9c4aa67ef7557ba3389b6c44c36f,
AS,aom,av2,0,A1,Tango,3840x2160,60.0000,10,1920x1080,185,954.002305,35.233217,44.104671,40.477793,15.226621,12.809524,54.898147,52.780194,31.929343,37.485678,35.199558,44.078411,40.442411,0.639344,11206.84,5.91,72220136178562,32611178519,29354151623357,16266804542,712eeeb92134d2b33737175889e3f112,
AS,aom,av2,0,A1,Tango,3840x2160,60.0000,10,1920x1080,210,431.236456,32.499736,41.691656,37.709881,11.841375,10.700889,35.509446,34.065785,28.751157,35.058589,32.451702,41.649098,37.668029,0.711398,7953.77,4.81,51274701098481,25598445298,20924563932821,13138556392,aade70f1b512cb1ced3f6f1fc1e7cfb8,
AS,aom,av2,0,A1,Tango,3840x2160,60.0000,10,1920x1080,235,189.628218,29.548013,38.855054,34.833868,9.006103,8.781066,15.391661,14.721766,25.673241,32.253917,29.494786,38.815683,34.791778,0.760565,5252.50,4.08,33966621739115,21394062204,13801107566009,11174809408,219fe8a1eb80e8337f9cf58da064949b,
AS,aom,av2,0,A1,Tango,3840x2160,60.0000,10,1280x720,110,5731.040652,39.137158,48.150860,45.350177,23.329156,16.672559,87.514901,85.153465,38.275223,41.142654,39.132103,48.144173,45.332223,0.536244,14982.48,5.75,95765766647093,29100007440,42274807453521,16847733878,3a6b9be3611a6a4f9183adaa0962348a,
AS,aom,av2,0,A1,Tango,3840x2160,60.0000,10,1280x720,135,2755.531238,38.018971,46.963461,43.756431,20.276167,15.410630,77.550140,75.014992,36.028377,40.058715,38.007063,46.952595,43.731327,0.601154,12616.01,4.95,77808923207590,26018550007,32966403825100,13522775233,187c7e8ed76eaf569ebb9052f8fecdcc,
AS,aom,av2,0,A1,Tango,3840x2160,60.0000,10,1280x720,160,1310.212249,36.208608,45.166166,41.578174,16.797409,13.668882,62.070517,59.699804,33.219900,38.400684,36.183154,45.147260,41.545659,0.733383,8851.40,3.76,55698552776406,21070594565,23151209663042,10296653699,1433bf57a16c62deac96a7251c8fee58,
AS,aom,av2,0,A1,Tango,3840x2160,60.0000,10,1280x720,185,611.502959,33.796283,42.909908,39.067803,13.395838,11.685256,43.494195,41.714682,30.200764,36.248402,33.756690,42.875441,39.031594,0.873981,6501.28,2.74,41611281294445,15476796007,16988937253198,7486365176,e9053293bdc0a311be79d936c5dfa0fc,
AS,aom,av2,0,A1,Tango,3840x2160,60.0000,10,1280x720,210,270.549143,30.953912,40.556476,36.393293,10.295810,9.674848,25.654237,24.472394,27.127103,33.726895,30.902115,40.511104,36.349229,0.969128,4808.34,2.21,30711084194011,12017584040,12595539254177,6031208447,5d7d9d8dceb3a52bcc6ae00972ecf434,
AS,aom,av2,0,A1,Tango,3840x2160,60.0000,10,1280x720,235,114.723430,28.011532,37.517942,33.521078,7.785110,7.917707,6.835731,6.491245,24.158492,30.802082,27.953947,37.439409,33.474624,0.966218,3221.31,1.58,20882149510609,9042939758,8428833032707,4312731274,92a34ecaecec3c6e87003bfebac5866d,
AS,aom,av2,0,A1,Tango,3840x2160,60.0000,10,960x540,110,4246.330900,38.456716,47.515048,44.258362,22.090553,16.023288,80.395432,78.074797,36.855838,40.525402,38.449859,47.506972,44.239577,0.616789,11275.98,3.57,70939586442412,17954091937,31778213109688,10408128228,2a8bc3c31ed7bb1c1d7e406dcb65fed9,
AS,aom,av2,0,A1,Tango,3840x2160,60.0000,10,960x540,135,2107.315454,37.232746,46.283499,42.724927,18.983455,14.700762,69.143760,66.744333,34.706871,39.377748,37.216958,46.271611,42.701024,0.713358,8072.49,3.04,49212938197862,15974486096,21095706580277,8248371498,622244c59934dc8fbb41c591958f3b06,
AS,aom,av2,0,A1,Tango,3840x2160,60.0000,10,960x540,160,989.040498,35.286177,44.426158,40.571970,15.525443,12.911626,53.043731,50.940117,31.982447,37.629666,35.256149,44.404240,40.540018,0.891346,5647.55,2.40,34560385907680,12390041249,14780574541126,6543935111,01d9407bf93c5015557f53b9b035a8cd,
AS,aom,av2,0,A1,Tango,3840x2160,60.0000,10,960x540,185,460.911396,32.824460,42.240535,38.128179,12.263658,10.958057,35.351743,33.867475,29.098427,35.440045,32.781799,42.204918,38.087730,1.024905,4145.68,1.58,25327908788152,8891162339,10867265309449,4302490679,a2572576fa6b7e3929b6a341f03d1067,
AS,aom,av2,0,A1,Tango,3840x2160,60.0000,10,960x540,210,203.788827,29.990995,39.927135,35.563355,9.368340,9.042376,18.685604,17.921946,26.143825,32.866932,29.941375,39.883066,35.524976,1.144343,3034.77,1.17,18544538812047,6778551345,7981416348099,3167285042,b70242251879fddd6564235ba8aa4072,
AS,aom,av2,0,A1,Tango,3840x2160,60.0000,10,960x540,235,85.144394,26.995558,36.970032,32.635156,7.026754,7.365041,1.300937,1.190226,23.171589,29.905179,26.937517,36.908426,32.574415,1.057962,2100.25,0.76,12654356108247,4585899464,5530214520543,2059410223,81d4880db3569e71ea7bc6d3f0079549,
AS,aom,av2,0,A1,Tango,3840x2160,60.0000,10,640x360,110,2683.787597,36.823313,46.318483,42.365359,19.713429,14.608930,60.858223,58.825899,33.896912,39.259977,36.814508,46.309036,42.343996,0.692116,5874.33,1.82,34948603180291,8857802098,15420261083380,4910190448,a4f30b8c4ea97d27fffc0b5ef6b98d9c,
AS,aom,av2,0,A1,Tango,3840x2160,60.0000,10,640x360,135,1347.640667,35.586462,45.049831,40.955615,16.788789,13.351781,48.983606,47.088409,32.230424,38.082748,35.567615,45.037294,40.929149,0.853519,4267.18,1.57,26258752500509,7821476411,11169883708550,4261529125,4d79c5dadb05c9cce73af32e479b2e77,
AS,aom,av2,0,A1,Tango,3840x2160,60.0000,10,640x360,160,629.451779,33.621556,43.138475,38.923214,13.557715,11.653021,34.146477,32.663417,29.915629,36.256549,33.588340,43.115442,38.887927,1.065543,3050.56,1.18,18894021467445,6027486757,7988099853560,3194840802,971d682db80362ae88a4255d7cc97e41,
AS,aom,av2,0,A1,Tango,3840x2160,60.0000,10,640x360,185,289.032813,31.176126,40.971008,36.637541,10.599673,9.844311,19.317805,18.478518,27.324003,34.018533,31.130660,40.931000,36.599637,1.264044,1988.27,0.75,12774733922473,4208428985,5207133300360,2008676753,b7c73a724b1b71e39cbb61a44724ba7f,
AS,aom,av2,0,A1,Tango,3840x2160,60.0000,10,640x360,210,124.981480,28.365646,38.825204,34.197839,8.067188,8.130713,6.000574,5.753520,24.537452,31.405264,28.312910,38.782043,34.152124,1.316065,1266.23,0.53,8837796971049,3029313859,3575929936380,1532239127,02b24125b1f888ecd5f0a4901a722a3a,
AS,aom,av2,0,A1,Tango,3840x2160,60.0000,10,640x360,235,53.130869,25.499368,35.712984,31.364490,6.097208,6.675434,0.094894,0.082546,21.738863,28.403166,25.439988,35.623859,31.306463,1.161498,973.92,0.33,6206802060467,2076508363,2558631833094,877475117,6b84e5bfc938090f71bb11cf8f9a5fc1,
AS,aom,av2,0,A1,TimeLapse,3840x2160,60.0000,10,3840x2160,110,31132.409744,43.532877,49.404451,51.047361,31.575072,23.246198,95.195581,93.370516,45.141702,44.573351,43.436458,49.378884,50.982662,0.008162,94357.00,31.16,568874471342040,143793120653,246653073324857,86439377397,0bc9d0280a5444da9887f826baf4f553,
AS,aom,av2,0,A1,TimeLapse,3840x2160,60.0000,10,3840x2160,135,11546.030585,41.576401,47.651242,49.227015,27.844201,20.748815,92.234540,90.066891,41.427827,42.887122,41.514530,47.640261,49.197350,0.005608,88568.88,27.04,553761487722011,126467223549,231624537474044,75682931791,ccd51349b56e8e331e5a9fedd6747515,
AS,aom,av2,0,A1,TimeLapse,3840x2160,60.0000,10,3840x2160,160,4392.588335,39.307143,45.521251,47.074921,23.861413,17.984416,86.187331,83.675719,37.639769,40.819125,39.257290,45.514878,47.058576,0.005004,50533.04,21.96,313873496458179,113849599312,132757236451819,61896027556,428b84e25178f94184d7b2fd923e173f,
AS,aom,av2,0,A1,TimeLapse,3840x2160,60.0000,10,3840x2160,185,1684.146008,36.906724,43.316377,44.872366,20.073801,15.277481,76.231969,73.426895,34.190321,38.586213,36.856037,43.311704,44.859480,0.009042,27076.66,17.30,183116053025347,95491477391,77208422971445,52198556940,10fd0bc3a5e4ae0903bbb0524244a7b9,
AS,aom,av2,0,A1,TimeLapse,3840x2160,60.0000,10,3840x2160,210,634.184277,34.283633,41.027436,42.607298,16.249740,12.512089,61.122296,58.336945,30.837487,36.094542,34.228987,41.021964,42.587836,0.013816,15946.74,14.01,99510058554934,68623488336,42851676377732,39438260321,e006fb2241c8dcbcf73bd29c32d22db9,
AS,aom,av2,0,A1,TimeLapse,3840x2160,60.0000,10,3840x2160,235,228.318143,31.617883,38.669727,39.898534,12.597689,10.005945,43.164087,40.710377,27.729345,33.498183,31.554914,38.657909,39.833765,0.014963,10880.95,10.79,68207193614260,53695858132,29075185834450,30347681849,8ef4f0dfbb8470ea9828781775aa1658,
AS,aom,av2,0,A1,TimeLapse,3840x2160,60.0000,10,2560x1440,110,16260.841927,41.935564,48.096133,49.796806,29.442817,21.725542,93.017832,90.877472,42.910149,43.278574,41.872517,48.082786,49.754720,0.009336,36769.99,14.40,219502064110363,66971169293,96606961825334,39686902552,23eeb47486bee70e24c2cb04bb6a2b1d,
AS,aom,av2,0,A1,TimeLapse,3840x2160,60.0000,10,2560x1440,135,6342.628448,40.130470,46.388404,48.016772,25.723581,19.233658,88.814984,86.398542,39.306633,41.650730,40.075037,46.381665,47.999342,0.007315,35635.92,12.00,221773841867964,56632768135,93399322378703,33507119864,2a92764f319f73ffd1c05d287065e7b5,
AS,aom,av2,0,A1,TimeLapse,3840x2160,60.0000,10,2560x1440,160,2489.677707,37.897361,44.322703,45.936320,21.800321,16.493778,80.672822,78.045142,35.715206,39.579813,37.845339,44.317412,45.922862,0.007168,21668.85,9.54,135285779675236,49041147041,56932970916348,26955876303,f4e54bec6c2554e0a04682b2e63939af,
AS,aom,av2,0,A1,TimeLapse,3840x2160,60.0000,10,2560x1440,185,958.067164,35.480190,42.234360,43.847170,18.053313,13.788607,68.268096,65.551479,32.384262,37.351665,35.424598,42.228959,43.832264,0.012844,11779.29,7.26,77957432470259,37910060190,33576464254515,21837988746,57eca9c7932d776bd6738bfb9197650c,
AS,aom,av2,0,A1,TimeLapse,3840x2160,60.0000,10,2560x1440,210,352.908630,32.874412,40.092970,41.683942,14.330886,11.156055,51.765567,49.185565,29.184868,34.928829,32.812299,40.087399,41.659649,0.018217,6287.81,5.30,48103129548458,28597247314,22150155111092,19345532685,4f38f85bbe3878e9d2339cf386e9da92,
AS,aom,av2,0,A1,TimeLapse,3840x2160,60.0000,10,2560x1440,235,126.759394,30.248414,37.885080,39.065688,10.915187,8.874249,33.103821,31.115164,26.240217,32.378653,30.179716,37.873287,38.988147,0.019898,4158.58,2.85,33759807155723,17567944559,14512739247521,10422545367,bc9618543680b23929547565ccf3dc77,
AS,aom,av2,0,A1,TimeLapse,3840x2160,60.0000,10,1920x1080,110,10420.577576,40.342952,46.961836,48.805246,27.867887,20.342819,89.996556,87.582327,41.006345,42.071930,40.277604,46.953259,48.781337,0.012598,20459.88,8.59,122894005767292,38900771151,53771151768483,23526274940,97d421d737d2805af982415b75278773,
AS,aom,av2,0,A1,TimeLapse,3840x2160,60.0000,10,1920x1080,135,4162.481211,38.786452,45.354027,47.116267,24.180655,18.018169,84.761400,82.167549,37.699353,40.559259,38.729278,45.349083,47.103132,0.011544,20771.53,6.84,128882551889291,32351006028,54410881280956,18979829043,adea20b222b2e6e4d7704c3f8fa985e3,
AS,aom,av2,0,A1,TimeLapse,3840x2160,60.0000,10,1920x1080,160,1656.219473,36.728258,43.407066,45.109248,20.343783,15.380482,75.243960,72.535562,34.311562,38.585046,36.673312,43.402516,45.096137,0.014667,12625.95,5.38,79521123969372,27268227672,33135074917493,15080997709,a272e7a018c304c86bb408c2c35dbe6d,
AS,aom,av2,0,A1,TimeLapse,3840x2160,60.0000,10,1920x1080,185,633.785906,34.415201,41.483067,43.128474,16.640926,12.753826,61.490816,58.896607,31.126004,36.447856,34.352858,41.478391,43.112292,0.020159,7189.96,3.74,46460012963311,19748227731,18981465933344,10460530145,cf4b2ea3030df5bd6dd4e25a5c6d06fb,
AS,aom,av2,0,A1,TimeLapse,3840x2160,60.0000,10,1920x1080,210,230.302620,31.880069,39.432739,41.082491,13.029386,10.260366,44.254165,42.007743,28.069691,34.108745,31.807452,39.426158,41.050175,0.028704,4840.85,2.86,31571371788551,13940661276,12909996435774,7951671212,0cc60be62f2901080e72398c4f5cd67e,
AS,aom,av2,0,A1,TimeLapse,3840x2160,60.0000,10,1920x1080,235,85.328825,29.344003,37.259154,38.418297,9.865205,8.196998,27.271767,25.700042,25.278684,31.577560,29.266488,37.247077,38.333195,0.035487,2652.11,1.68,21515075545165,9508027137,9187752915009,6068025051,45b60d53c3044d69a31742c4bd0556f5,
AS,aom,av2,0,A1,TimeLapse,3840x2160,60.0000,10,1280x720,110,5249.041420,37.141190,45.208530,47.322765,25.280067,17.454707,80.317756,77.832218,36.027402,39.799124,37.060524,45.202372,47.311001,0.013049,11693.87,3.64,70517162542429,17567767411,30679702026598,9934414822,c8459a9f0502aaaed79aef2fd5c1503f,
AS,aom,av2,0,A1,TimeLapse,3840x2160,60.0000,10,1280x720,135,2186.831015,36.174215,43.785313,45.765709,21.911903,15.778845,73.708416,71.173733,34.176060,38.588453,36.104999,43.781239,45.754687,0.016179,7207.84,2.63,57153530245107,14534483016,24682651462497,9439623055,e427edad2af93d7a251d227b418752d1,
AS,aom,av2,0,A1,TimeLapse,3840x2160,60.0000,10,1280x720,160,907.625298,34.660098,42.087374,43.938441,18.286302,13.596490,62.640721,60.184019,31.766913,36.941186,34.593371,42.083901,43.923718,0.020510,5781.94,2.29,36627543445672,11436994621,15178867103660,6344323441,7368c760aed504bf6aa4946022e2fa1c,
AS,aom,av2,0,A1,TimeLapse,3840x2160,60.0000,10,1280x720,185,347.563821,32.665656,40.350487,42.133518,14.636686,11.218673,47.973641,45.800022,29.092405,35.004277,32.593538,40.345763,42.108353,0.021088,2682.10,1.60,21988930469065,7992105159,9254921012339,5734033370,b184bc7b557dd8450cfb73bd8e6f7168,
AS,aom,av2,0,A1,TimeLapse,3840x2160,60.0000,10,1280x720,210,126.870053,30.361610,38.496419,40.070695,11.217364,9.029850,31.672075,30.097013,26.409803,32.782768,30.286178,38.491500,40.035014,0.035352,2401.82,0.96,15984942416676,5098844291,6391341342755,2679028873,f98b7621590d5155e702bf3924a19e4e,
AS,aom,av2,0,A1,TimeLapse,3840x2160,60.0000,10,1280x720,235,49.228310,28.036301,36.578949,37.760128,8.487132,7.278224,17.699258,16.541609,23.936510,30.488561,27.954132,36.565380,37.670026,0.058269,1706.88,0.74,11520288191931,4014531433,4513263668325,2079103103,4df185c895a8d0392e4d32aa293a6968,
AS,aom,av2,0,A1,TimeLapse,3840x2160,60.0000,10,960x540,110,3202.459079,34.665726,43.844379,46.158857,23.782857,14.884003,67.568524,64.998127,31.937424,37.966389,34.569948,43.838019,46.147365,0.015499,7932.50,2.08,47429457301205,9834311286,20744289184592,5653581064,821811ad30207959b7e000b00a76eaa0,
AS,aom,av2,0,A1,TimeLapse,3840x2160,60.0000,10,960x540,135,1390.624145,34.073033,42.651921,44.792701,20.535135,13.814866,60.739157,58.197469,31.026514,37.037799,33.987674,42.648121,44.779530,0.020496,5203.02,1.59,31084980152200,8032161290,13638217776586,4369265454,27ba0f80a6a7c63d9d12625401a96983,
AS,aom,av2,0,A1,TimeLapse,3840x2160,60.0000,10,960x540,160,593.849228,32.993125,41.175179,43.116150,16.910558,12.156866,49.809969,47.452762,29.529328,35.673657,32.915350,41.172150,43.096507,0.025445,2955.90,1.15,19441005571204,5939295840,8361487838869,3400926884,abb921b86419ca5175e8046b717006c6,
AS,aom,av2,0,A1,TimeLapse,3840x2160,60.0000,10,960x540,185,229.295627,31.368355,39.628973,41.383082,13.335511,10.156134,36.094042,34.171430,27.527945,33.958964,31.289794,39.624537,41.357345,0.031760,1594.92,0.64,12813969356900,4092424328,5505337041284,2312106967,fe69a52f3135ae32ad95ab1155811355,
AS,aom,av2,0,A1,TimeLapse,3840x2160,60.0000,10,960x540,210,87.114117,29.370652,37.838868,39.405579,10.154190,8.289493,22.838818,21.507793,25.315653,31.900532,29.292615,37.831597,39.359398,0.046702,1682.00,0.51,10726499056162,2562920372,4468973373650,1379242326,27930d1d1eeb09cd1d7aab9eefe0e79e,
AS,aom,av2,0,A1,TimeLapse,3840x2160,60.0000,10,960x540,235,35.052947,27.181432,35.817382,37.432121,7.618377,6.710333,11.262140,10.453543,23.057569,29.636257,27.104712,35.804185,37.322870,0.091312,1140.29,0.37,7136461180743,1966814988,3033679469764,1014303716,cf9e5cbf63eedb6f694c149334691b80,
AS,aom,av2,0,A1,TimeLapse,3840x2160,60.0000,10,640x360,110,1503.868439,32.055064,42.461311,44.828207,20.273151,12.094576,42.974093,40.825197,28.094849,35.855082,31.956475,42.456047,44.803868,0.017939,3375.44,0.88,20587207339496,4303145345,8843576470216,2399971134,6608b77f295749b366e538cc8f33eb46,
AS,aom,av2,0,A1,TimeLapse,3840x2160,60.0000,10,640x360,135,683.748252,31.695972,41.433722,43.605803,17.762320,11.461638,37.096887,35.099923,27.673805,35.154235,31.605646,41.430330,43.579035,0.023199,2240.84,0.68,13896300605236,3433428218,5874174322659,1856054812,c1f5aab5afd2409596437b9e30e54602,
AS,aom,av2,0,A1,TimeLapse,3840x2160,60.0000,10,640x360,160,302.208561,30.936985,40.111936,42.054586,14.600384,10.312280,28.059381,26.417180,26.828771,34.051055,30.855303,40.109018,42.021812,0.026356,1491.01,0.42,9419604294255,2328710019,3915641709185,1128139955,be998a7cba9d603b958867cd25688695,
AS,aom,av2,0,A1,TimeLapse,3840x2160,60.0000,10,640x360,185,120.872358,29.663146,38.673820,40.347042,11.419038,8.777029,18.643035,17.376914,25.485030,32.522510,29.580187,38.668052,40.305422,0.037521,930.65,0.26,6035888738541,1462303972,2457893766513,696289230,ec2fbeaefd3e6b9c876b46d9e7384dd5,
AS,aom,av2,0,A1,TimeLapse,3840x2160,60.0000,10,640x360,210,48.866825,27.964333,37.004740,38.600247,8.671026,7.290438,10.750281,10.023653,23.797090,30.647536,27.885544,36.996537,38.545033,0.076952,655.67,0.18,4379799387843,1017714463,1746343151748,503101460,57ad8668f031a717e2d94af25a35a274,
AS,aom,av2,0,A1,TimeLapse,3840x2160,60.0000,10,640x360,235,21.766541,25.989228,35.027011,36.585073,6.477362,5.950194,4.080555,3.444149,21.902619,28.498654,25.915655,35.013522,36.448270,0.151839,452.97,0.15,3015261314279,823071167,1207127155596,419603412,5487369db93a481dfdd158f64bc45e9d,
